
TIME STEP:
125 = 10us

VOLTAGE STEP:
CH1:  32 = 0.3V~
CH2:  32 = 0.3V~
GND	125	126
N	CH1	CH2

0	77	42
1	77	42
2	77	42
3	78	42
4	77	42
5	77	42
6	76	42
7	77	42
8	77	42
9	77	42
10	77	42
11	77	42
12	76	42
13	77	42
14	77	41
15	77	42
16	77	41
17	78	42
18	77	41
19	77	42
20	77	41
21	78	41
22	77	41
23	77	41
24	77	41
25	78	41
26	77	41
27	78	41
28	78	41
29	78	41
30	77	40
31	78	41
32	77	40
33	78	40
34	78	40
35	78	41
36	77	40
37	78	40
38	77	40
39	78	40
40	78	40
41	78	40
42	78	40
43	78	40
44	77	39
45	78	39
46	77	39
47	78	40
48	77	39
49	77	40
50	77	39
51	78	39
52	77	39
53	78	39
54	77	39
55	78	39
56	78	39
57	78	39
58	78	39
59	78	39
60	78	39
61	79	39
62	78	39
63	78	39
64	78	38
65	79	39
66	79	39
67	79	39
68	79	38
69	78	38
70	78	38
71	78	38
72	78	38
73	78	38
74	78	38
75	79	38
76	78	38
77	78	38
78	79	38
79	79	38
80	78	38
81	79	38
82	78	38
83	79	38
84	79	38
85	79	38
86	79	37
87	79	38
88	79	38
89	79	38
90	79	38
91	79	38
92	79	37
93	79	38
94	79	37
95	79	38
96	79	37
97	79	37
98	79	36
99	79	37
100	79	36
101	79	37
102	79	36
103	79	37
104	79	36
105	79	37
106	79	36
107	79	37
108	79	36
109	79	37
110	79	36
111	79	37
112	79	36
113	80	37
114	79	37
115	80	37
116	80	36
117	80	37
118	80	36
119	80	37
120	80	37
121	80	37
122	80	36
123	80	36
124	80	36
125	81	36
126	80	37
127	81	37
128	80	36
129	80	36
130	81	36
131	80	36
132	80	36
133	81	35
134	79	36
135	80	36
136	80	35
137	80	36
138	80	35
139	80	36
140	80	35
141	80	36
142	80	35
143	80	36
144	80	35
145	81	35
146	80	35
147	81	36
148	80	35
149	80	36
150	80	35
151	81	35
152	81	35
153	81	35
154	80	35
155	81	35
156	80	35
157	81	35
158	80	35
159	81	35
160	80	34
161	81	35
162	81	34
163	81	35
164	80	35
165	81	35
166	81	34
167	80	35
168	81	34
169	81	35
170	81	34
171	81	35
172	80	34
173	81	35
174	81	35
175	82	34
176	81	35
177	81	35
178	81	34
179	81	34
180	81	34
181	81	34
182	81	34
183	81	34
184	81	34
185	82	34
186	81	34
187	81	34
188	81	34
189	82	34
190	81	34
191	81	34
192	81	34
193	82	34
194	82	34
195	82	34
196	82	34
197	82	34
198	82	33
199	83	34
200	82	33
201	82	33
202	82	34
203	83	34
204	82	34
205	83	34
206	83	34
207	83	34
208	83	34
209	83	34
210	83	34
211	83	34
212	83	33
213	83	34
214	83	33
215	83	33
216	83	32
217	83	32
218	83	32
219	83	32
220	82	32
221	83	33
222	83	32
223	83	32
224	83	32
225	83	33
226	83	32
227	83	33
228	83	32
229	83	32
230	83	32
231	83	32
232	83	32
233	83	32
234	83	32
235	84	32
236	83	32
237	84	32
238	83	32
239	84	32
240	84	32
241	84	32
242	84	32
243	84	32
244	84	32
245	84	32
246	84	32
247	84	32
248	84	32
249	84	32
250	84	32
251	84	32
252	84	31
253	84	32
254	84	31
255	84	32
256	84	31
257	84	31
258	84	31
259	84	32
260	84	31
261	84	31
262	84	31
263	84	31
264	84	31
265	84	31
266	84	31
267	84	31
268	84	30
269	84	31
270	84	31
271	84	31
272	84	31
273	85	31
274	84	31
275	85	31
276	84	31
277	85	31
278	84	31
279	85	31
280	85	31
281	86	31
282	85	31
283	85	31
284	85	31
285	86	31
286	85	31
287	85	31
288	85	31
289	85	31
290	85	30
291	85	30
292	85	30
293	85	31
294	85	30
295	85	31
296	85	30
297	85	31
298	85	30
299	85	30
300	85	30
301	85	31
302	85	30
303	85	30
304	85	30
305	86	30
306	86	30
307	86	30
308	86	30
309	86	30
310	85	30
311	87	30
312	86	30
313	86	30
314	87	30
315	87	30
316	86	30
317	87	31
318	86	30
319	87	30
320	86	30
321	87	30
322	86	30
323	87	30
324	86	29
325	87	30
326	86	29
327	86	30
328	86	29
329	87	29
330	85	29
331	86	29
332	86	29
333	86	29
334	87	29
335	86	29
336	87	29
337	87	29
338	86	29
339	87	29
340	86	29
341	87	29
342	87	29
343	87	29
344	87	29
345	87	29
346	87	29
347	87	29
348	87	28
349	87	29
350	87	29
351	88	28
352	87	29
353	88	28
354	87	29
355	88	29
356	87	28
357	87	30
358	88	28
359	87	30
360	88	29
361	88	29
362	88	29
363	88	29
364	87	29
365	88	29
366	87	29
367	88	29
368	88	29
369	88	29
370	88	28
371	88	29
372	88	28
373	88	29
374	88	29
375	88	29
376	88	29
377	89	29
378	88	29
379	89	29
380	88	28
381	90	29
382	88	29
383	89	29
384	89	28
385	88	29
386	89	28
387	88	28
388	88	28
389	89	28
390	88	28
391	89	27
392	88	28
393	88	28
394	88	28
395	89	28
396	88	27
397	88	28
398	88	27
399	88	28
400	88	28
401	89	28
402	88	28
403	88	27
404	88	27
405	89	27
406	88	27
407	89	28
408	88	27
409	89	28
410	89	27
411	89	28
412	89	28
413	90	28
414	89	28
415	90	28
416	89	27
417	90	28
418	89	28
419	90	28
420	90	28
421	90	28
422	90	28
423	90	29
424	90	27
425	90	27
426	91	28
427	90	28
428	90	27
429	91	28
430	91	27
431	91	28
432	91	28
433	91	28
434	91	28
435	91	28
436	91	27
437	91	28
438	91	28
439	91	28
440	91	27
441	91	27
442	91	27
443	91	28
444	91	28
445	91	28
446	91	28
447	91	28
448	91	28
449	92	28
450	91	28
451	91	28
452	91	28
453	91	28
454	91	27
455	92	28
456	91	28
457	92	28
458	91	28
459	92	28
460	91	28
461	92	28
462	92	28
463	92	28
464	92	28
465	92	28
466	92	27
467	92	28
468	92	28
469	92	28
470	92	27
471	92	28
472	92	27
473	92	27
474	92	27
475	92	27
476	92	27
477	92	27
478	91	27
479	92	27
480	92	27
481	92	27
482	92	27
483	92	27
484	92	27
485	92	27
486	92	27
487	92	27
488	92	27
489	92	27
490	92	27
491	92	27
492	92	27
493	92	27
494	92	27
495	93	27
496	92	27
497	93	27
498	93	27
499	93	27
500	93	27
501	93	27
502	93	27
503	93	27
504	93	27
505	93	27
506	93	27
507	93	27
508	93	27
509	93	27
510	93	27
511	93	27
512	93	27
513	94	27
514	93	27
515	94	27
516	93	26
517	94	27
518	94	26
519	94	27
520	93	27
521	94	27
522	94	27
523	95	27
524	93	26
525	95	27
526	94	27
527	95	27
528	94	27
529	95	26
530	95	27
531	95	27
532	94	27
533	95	27
534	94	27
535	95	27
536	95	27
537	95	27
538	94	27
539	95	27
540	95	27
541	95	27
542	95	26
543	95	27
544	95	26
545	95	27
546	95	27
547	95	27
548	95	26
549	95	27
550	95	27
551	95	27
552	95	27
553	95	27
554	95	27
555	96	27
556	95	27
557	96	27
558	95	27
559	96	27
560	95	27
561	96	27
562	96	26
563	96	27
564	95	27
565	96	27
566	95	27
567	96	27
568	96	27
569	96	27
570	96	27
571	96	28
572	96	26
573	96	27
574	96	27
575	97	27
576	95	27
577	97	26
578	95	27
579	96	27
580	96	27
581	96	27
582	96	27
583	96	27
584	97	27
585	97	27
586	96	26
587	97	27
588	96	26
589	97	27
590	96	27
591	97	27
592	97	27
593	97	27
594	96	27
595	97	27
596	96	26
597	97	27
598	97	27
599	97	27
600	97	26
601	98	27
602	97	27
603	98	27
604	97	27
605	97	27
606	98	26
607	97	27
608	98	27
609	98	27
610	97	27
611	98	27
612	97	27
613	98	27
614	98	27
615	99	27
616	98	27
617	99	27
618	98	27
619	99	27
620	98	27
621	98	27
622	98	27
623	99	27
624	99	27
625	98	27
626	98	27
627	99	27
628	99	27
629	99	27
630	98	27
631	99	27
632	99	27
633	99	27
634	99	27
635	99	27
636	99	27
637	99	27
638	99	27
639	99	27
640	99	27
641	99	27
642	99	27
643	99	27
644	99	27
645	99	27
646	99	26
647	99	27
648	99	27
649	99	27
650	99	27
651	99	27
652	99	27
653	100	27
654	100	27
655	100	27
656	100	27
657	100	28
658	100	27
659	100	27
660	100	28
661	100	28
662	100	28
663	100	27
664	100	27
665	101	28
666	100	27
667	101	28
668	100	27
669	101	28
670	101	27
671	101	28
672	101	28
673	101	28
674	101	28
675	101	28
676	101	28
677	101	28
678	101	28
679	101	27
680	101	28
681	102	28
682	101	28
683	102	28
684	101	28
685	102	28
686	102	28
687	102	28
688	102	28
689	102	28
690	102	28
691	102	28
692	101	28
693	102	28
694	102	27
695	102	28
696	102	27
697	102	28
698	102	28
699	102	28
700	102	28
701	103	28
702	103	28
703	103	28
704	103	28
705	103	28
706	103	28
707	103	28
708	102	28
709	103	28
710	103	28
711	103	28
712	103	28
713	103	28
714	103	27
715	103	27
716	103	27
717	103	28
718	103	27
719	103	28
720	102	28
721	103	27
722	103	27
723	103	28
724	103	28
725	103	28
726	103	27
727	103	28
728	103	28
729	103	28
730	103	28
731	103	28
732	103	28
733	104	28
734	103	28
735	104	28
736	103	28
737	104	28
738	103	28
739	104	28
740	104	28
741	104	28
742	104	28
743	105	29
744	104	28
745	104	29
746	104	29
747	105	29
748	104	28
749	104	29
750	105	29
751	105	30
752	105	29
753	105	29
754	105	29
755	105	29
756	105	29
757	105	29
758	105	29
759	105	29
760	105	29
761	105	29
762	105	29
763	105	29
764	105	29
765	106	30
766	105	29
767	105	30
768	105	29
769	106	29
770	105	29
771	106	30
772	106	29
773	106	29
774	105	29
775	106	30
776	106	29
777	105	29
778	106	29
779	105	29
780	106	29
781	106	30
782	105	29
783	106	29
784	106	29
785	106	29
786	105	29
787	107	30
788	106	29
789	106	29
790	106	29
791	107	30
792	106	29
793	107	29
794	105	29
795	107	29
796	106	28
797	107	30
798	107	28
799	107	30
800	107	29
801	107	30
802	107	30
803	107	30
804	107	31
805	108	30
806	107	30
807	108	31
808	107	31
809	107	30
810	107	31
811	108	31
812	107	30
813	107	30
814	108	31
815	108	31
816	107	29
817	107	30
818	107	30
819	108	31
820	108	30
821	108	30
822	108	30
823	108	31
824	108	31
825	108	30
826	108	30
827	108	31
828	108	30
829	109	30
830	107	31
831	108	30
832	107	30
833	108	30
834	108	31
835	107	31
836	108	30
837	108	31
838	108	30
839	109	31
840	109	31
841	109	31
842	109	31
843	110	31
844	108	31
845	110	31
846	109	32
847	109	31
848	109	31
849	109	31
850	109	31
851	110	31
852	109	31
853	110	32
854	109	31
855	110	32
856	109	31
857	110	32
858	109	31
859	110	31
860	109	31
861	111	32
862	110	31
863	110	31
864	110	31
865	110	31
866	109	31
867	110	31
868	110	32
869	111	32
870	110	31
871	110	31
872	110	32
873	111	32
874	111	32
875	111	32
876	111	32
877	111	33
878	111	32
879	111	33
880	111	32
881	111	33
882	111	32
883	111	33
884	111	32
885	111	32
886	111	32
887	111	33
888	111	32
889	111	32
890	111	32
891	112	33
892	111	32
893	112	33
894	111	32
895	111	33
896	111	33
897	112	33
898	112	33
899	111	33
900	111	32
901	112	33
902	111	32
903	112	33
904	112	33
905	112	33
906	111	32
907	112	33
908	111	32
909	112	34
910	112	33
911	112	34
912	112	33
913	113	34
914	112	34
915	113	34
916	112	34
917	113	34
918	112	34
919	113	34
920	113	33
921	113	34
922	113	34
923	113	34
924	113	34
925	114	34
926	113	34
927	114	34
928	113	34
929	114	34
930	113	34
931	114	34
932	113	34
933	114	34
934	113	34
935	114	34
936	113	34
937	114	34
938	114	34
939	114	34
940	113	34
941	114	34
942	113	34
943	114	34
944	113	34
945	114	34
946	113	34
947	115	35
948	114	34
949	115	35
950	115	35
951	115	35
952	115	35
953	115	34
954	115	34
955	115	35
956	115	35
957	115	35
958	115	35
959	115	35
960	115	35
961	115	35
962	115	35
963	115	35
964	115	35
965	115	35
966	115	35
967	115	35
968	115	35
969	115	35
970	115	35
971	116	36
972	115	35
973	116	36
974	116	35
975	116	36
976	116	35
977	116	36
978	116	35
979	116	36
980	116	35
981	116	36
982	116	36
983	116	36
984	116	36
985	116	36
986	116	35
987	117	36
988	116	35
989	117	36
990	116	36
991	116	36
992	116	36
993	117	36
994	117	36
995	117	37
996	117	36
997	118	37
998	117	37
999	117	37
1000	117	37
1001	118	37
1002	117	37
1003	118	37
1004	117	37
1005	118	38
1006	118	37
1007	118	37
1008	118	37
1009	118	37
1010	118	37
1011	118	37
1012	118	38
1013	118	38
1014	118	37
1015	118	37
1016	118	37
1017	118	38
1018	118	37
1019	118	37
1020	118	37
1021	119	38
1022	117	37
1023	117	36
1024	118	37
1025	117	38
1026	119	36
1027	118	38
1028	118	37
1029	119	37
1030	118	38
1031	119	37
1032	119	38
1033	119	38
1034	119	38
1035	119	38
1036	119	38
1037	119	38
1038	119	38
1039	119	38
1040	119	38
1041	119	38
1042	119	38
1043	119	39
1044	119	38
1045	119	39
1046	119	38
1047	119	38
1048	119	38
1049	120	39
1050	119	38
1051	120	38
1052	119	38
1053	120	39
1054	119	39
1055	120	39
1056	119	38
1057	121	39
1058	119	39
1059	120	39
1060	121	39
1061	120	40
1062	120	39
1063	120	39
1064	120	39
1065	121	40
1066	120	39
1067	121	39
1068	120	39
1069	121	39
1070	120	39
1071	120	39
1072	120	39
1073	120	40
1074	120	39
1075	120	40
1076	120	40
1077	121	39
1078	120	39
1079	121	39
1080	120	40
1081	121	40
1082	121	40
1083	121	40
1084	121	40
1085	122	40
1086	121	40
1087	122	41
1088	121	40
1089	122	41
1090	122	40
1091	122	40
1092	122	40
1093	122	42
1094	123	41
1095	123	42
1096	123	41
1097	123	42
1098	123	42
1099	123	42
1100	122	41
1101	123	42
1102	123	42
1103	123	42
1104	122	42
1105	123	42
1106	123	42
1107	123	42
1108	123	42
1109	123	42
1110	123	42
1111	123	42
1112	123	42
1113	123	42
1114	123	42
1115	123	42
1116	123	42
1117	124	43
1118	123	42
1119	124	42
1120	123	42
1121	124	43
1122	124	42
1123	124	43
1124	124	43
1125	124	42
1126	124	42
1127	124	43
1128	124	43
1129	124	43
1130	124	43
1131	124	43
1132	124	43
1133	124	43
1134	124	43
1135	124	43
1136	124	43
1137	124	43
1138	124	43
1139	124	43
1140	124	43
1141	124	43
1142	125	43
1143	125	44
1144	124	43
1145	125	43
1146	124	44
1147	125	44
1148	125	43
1149	126	44
1150	125	44
1151	125	44
1152	125	44
1153	126	44
1154	125	44
1155	125	44
1156	125	44
1157	125	44
1158	125	44
1159	125	44
1160	124	43
1161	125	44
1162	125	44
1163	125	44
1164	125	44
1165	126	44
1166	125	44
1167	126	45
1168	126	45
1169	126	45
1170	126	44
1171	127	45
1172	126	44
1173	127	45
1174	126	45
1175	127	46
1176	126	45
1177	127	45
1178	126	45
1179	127	46
1180	127	45
1181	127	46
1182	127	46
1183	127	46
1184	127	45
1185	127	46
1186	127	46
1187	127	46
1188	127	46
1189	127	46
1190	127	46
1191	127	46
1192	127	46
1193	127	46
1194	127	46
1195	127	46
1196	127	46
1197	127	46
1198	127	46
1199	127	46
1200	127	46
1201	127	46
1202	127	46
1203	128	47
1204	127	47
1205	128	47
1206	128	47
1207	128	47
1208	128	47
1209	128	47
1210	128	47
1211	128	47
1212	128	47
1213	129	47
1214	128	47
1215	129	48
1216	128	48
1217	129	49
1218	128	48
1219	129	48
1220	129	48
1221	129	48
1222	128	48
1223	129	48
1224	129	48
1225	129	48
1226	129	48
1227	128	47
1228	128	47
1229	129	48
1230	129	48
1231	129	49
1232	129	48
1233	129	48
1234	128	48
1235	129	48
1236	129	48
1237	129	48
1238	129	48
1239	129	49
1240	129	49
1241	131	50
1242	130	49
1243	130	50
1244	130	49
1245	131	50
1246	130	50
1247	130	50
1248	130	50
1249	131	50
1250	131	50
1251	130	51
1252	131	50
1253	131	51
1254	131	51
1255	131	50
1256	131	51
1257	132	50
1258	131	51
1259	131	51
1260	131	51
1261	131	51
1262	131	50
1263	131	51
1264	131	50
1265	131	51
1266	131	51
1267	131	51
1268	131	51
1269	131	51
1270	131	51
1271	131	51
1272	131	51
1273	131	51
1274	131	51
1275	131	51
1276	132	51
1277	132	52
1278	131	51
1279	132	52
1280	132	51
1281	132	52
1282	132	52
1283	131	52
1284	132	52
1285	132	52
1286	131	52
1287	133	52
1288	132	52
1289	133	53
1290	132	52
1291	132	54
1292	132	52
1293	132	53
1294	133	52
1295	133	53
1296	132	52
1297	133	52
1298	132	53
1299	133	53
1300	132	53
1301	133	53
1302	133	53
1303	133	53
1304	132	53
1305	133	54
1306	132	53
1307	133	53
1308	132	53
1309	133	53
1310	132	53
1311	133	54
1312	132	53
1313	133	54
1314	133	54
1315	133	54
1316	133	54
1317	133	54
1318	133	54
1319	134	55
1320	133	54
1321	133	55
1322	134	54
1323	134	54
1324	133	54
1325	134	55
1326	134	55
1327	135	55
1328	135	55
1329	135	55
1330	134	55
1331	135	55
1332	134	55
1333	135	55
1334	135	55
1335	135	55
1336	135	55
1337	135	56
1338	135	56
1339	136	56
1340	135	56
1341	136	57
1342	135	56
1343	136	56
1344	135	56
1345	136	57
1346	135	56
1347	136	57
1348	135	56
1349	136	57
1350	135	56
1351	136	57
1352	136	56
1353	136	57
1354	135	56
1355	136	57
1356	135	56
1357	136	57
1358	135	56
1359	135	57
1360	135	57
1361	136	58
1362	136	58
1363	136	58
1364	135	56
1365	136	57
1366	136	58
1367	136	58
1368	136	58
1369	136	58
1370	136	58
1371	136	58
1372	136	58
1373	137	59
1374	136	58
1375	137	58
1376	137	58
1377	138	59
1378	137	59
1379	137	59
1380	137	58
1381	137	59
1382	137	59
1383	138	59
1384	137	59
1385	138	60
1386	138	59
1387	138	60
1388	137	59
1389	138	60
1390	138	60
1391	138	60
1392	138	59
1393	138	60
1394	138	60
1395	138	60
1396	138	60
1397	139	61
1398	139	60
1399	139	60
1400	139	60
1401	139	61
1402	139	61
1403	139	61
1404	139	61
1405	139	61
1406	139	61
1407	139	61
1408	139	61
1409	139	61
1410	139	61
1411	139	61
1412	139	61
1413	139	62
1414	139	61
1415	139	61
1416	139	61
1417	139	61
1418	139	61
1419	139	61
1420	138	61
1421	139	62
1422	139	61
1423	139	62
1424	139	61
1425	139	62
1426	139	62
1427	139	62
1428	139	62
1429	139	62
1430	139	62
1431	139	62
1432	139	62
1433	139	62
1434	139	62
1435	140	63
1436	139	63
1437	140	63
1438	140	63
1439	140	63
1440	140	63
1441	140	63
1442	140	63
1443	140	63
1444	140	63
1445	140	64
1446	140	63
1447	140	64
1448	140	64
1449	141	64
1450	140	64
1451	141	64
1452	141	64
1453	141	65
1454	141	64
1455	141	65
1456	140	64
1457	141	64
1458	141	65
1459	142	65
1460	141	65
1461	142	66
1462	142	65
1463	142	66
1464	141	65
1465	142	66
1466	142	65
1467	142	66
1468	142	66
1469	143	66
1470	142	66
1471	143	66
1472	142	66
1473	143	67
1474	143	66
1475	143	67
1476	143	67
1477	142	67
1478	143	66
1479	143	67
1480	142	67
1481	143	66
1482	141	67
1483	143	67
1484	141	67
1485	143	67
1486	143	66
1487	142	68
1488	143	66
1489	142	67
1490	143	67
1491	143	67
1492	142	67
1493	143	67
1494	142	67
1495	143	67
1496	143	67
1497	143	67
1498	143	68
1499	143	68
1500	143	67
1501	143	67
1502	143	67
1503	143	68
1504	143	67
1505	143	68
1506	143	68
1507	143	68
1508	143	68
1509	144	69
1510	144	69
1511	143	69
1512	144	69
1513	143	70
1514	144	68
1515	144	69
1516	143	69
1517	144	69
1518	143	69
1519	144	70
1520	144	70
1521	144	70
1522	144	69
1523	144	70
1524	145	70
1525	145	71
1526	144	70
1527	145	70
1528	144	70
1529	145	70
1530	144	70
1531	144	71
1532	144	71
1533	145	71
1534	144	71
1535	145	71
1536	145	70
1537	145	71
1538	145	71
1539	145	71
1540	145	71
1541	145	71
1542	145	71
1543	145	71
1544	145	71
1545	146	72
1546	145	72
1547	146	72
1548	145	72
1549	146	72
1550	145	72
1551	146	72
1552	146	72
1553	146	72
1554	146	72
1555	146	72
1556	146	72
1557	147	73
1558	147	73
1559	146	74
1560	146	74
1561	147	74
1562	146	73
1563	147	74
1564	146	74
1565	147	74
1566	146	74
1567	147	74
1568	147	74
1569	147	74
1570	147	74
1571	147	74
1572	147	74
1573	147	75
1574	147	75
1575	148	75
1576	147	75
1577	148	75
1578	147	75
1579	148	75
1580	147	75
1581	148	75
1582	148	75
1583	148	75
1584	148	75
1585	148	76
1586	148	75
1587	148	76
1588	148	76
1589	148	76
1590	148	75
1591	148	76
1592	148	76
1593	148	76
1594	148	76
1595	148	76
1596	148	76
1597	148	76
1598	148	75
1599	148	76
1600	148	75
1601	148	76
1602	148	76
1603	148	76
1604	147	75
1605	148	76
1606	148	76
1607	148	77
1608	148	76
1609	148	77
1610	148	76
1611	148	76
1612	148	76
1613	148	77
1614	148	77
1615	149	77
1616	148	77
1617	149	78
1618	148	77
1619	149	77
1620	149	78
1621	149	78
1622	148	77
1623	149	78
1624	148	78
1625	149	78
1626	148	78
1627	149	78
1628	148	78
1629	150	79
1630	149	78
1631	149	79
1632	150	79
1633	150	79
1634	150	79
1635	150	79
1636	150	79
1637	150	79
1638	149	78
1639	150	79
1640	150	79
1641	150	80
1642	150	79
1643	151	80
1644	150	80
1645	151	81
1646	150	80
1647	151	81
1648	150	80
1649	151	80
1650	150	80
1651	151	81
1652	150	80
1653	151	81
1654	151	80
1655	151	81
1656	151	82
1657	151	82
1658	151	81
1659	151	82
1660	151	82
1661	152	82
1662	151	82
1663	151	82
1664	151	82
1665	151	82
1666	151	82
1667	151	83
1668	151	82
1669	151	83
1670	151	82
1671	151	83
1672	151	82
1673	151	82
1674	151	82
1675	151	83
1676	151	82
1677	151	83
1678	151	83
1679	152	83
1680	151	83
1681	152	83
1682	152	83
1683	152	83
1684	151	83
1685	152	84
1686	152	83
1687	152	84
1688	152	83
1689	152	84
1690	152	84
1691	153	84
1692	152	84
1693	153	85
1694	152	84
1695	152	85
1696	152	84
1697	153	85
1698	152	84
1699	153	85
1700	152	84
1701	153	85
1702	151	85
1703	154	85
1704	153	85
1705	153	86
1706	153	85
1707	152	86
1708	153	85
1709	153	86
1710	152	86
1711	154	86
1712	152	86
1713	154	86
1714	153	87
1715	154	87
1716	153	86
1717	154	87
1718	153	87
1719	154	87
1720	154	87
1721	154	87
1722	153	87
1723	154	87
1724	154	87
1725	154	87
1726	154	87
1727	155	88
1728	154	87
1729	155	88
1730	154	88
1731	155	88
1732	155	88
1733	155	89
1734	154	88
1735	155	88
1736	155	89
1737	154	89
1738	155	88
1739	154	89
1740	154	88
1741	155	89
1742	154	89
1743	156	89
1744	154	90
1745	155	89
1746	155	90
1747	155	89
1748	155	89
1749	155	90
1750	155	90
1751	155	90
1752	155	90
1753	156	91
1754	155	90
1755	156	91
1756	155	90
1757	156	91
1758	155	90
1759	156	91
1760	155	91
1761	156	91
1762	155	90
1763	155	91
1764	155	90
1765	156	91
1766	156	91
1767	156	92
1768	156	91
1769	156	92
1770	156	91
1771	156	92
1772	155	91
1773	156	91
1774	155	91
1775	156	91
1776	155	91
1777	156	92
1778	156	92
1779	156	93
1780	156	92
1781	156	92
1782	156	93
1783	156	93
1784	156	92
1785	157	93
1786	156	93
1787	156	93
1788	156	93
1789	158	94
1790	157	94
1791	157	94
1792	157	93
1793	157	94
1794	156	94
1795	157	94
1796	156	94
1797	157	94
1798	156	94
1799	157	94
1800	156	94
1801	158	95
1802	157	94
1803	157	95
1804	157	95
1805	157	95
1806	157	95
1807	158	95
1808	157	95
1809	158	95
1810	157	94
1811	157	95
1812	157	95
1813	158	96
1814	157	95
1815	158	96
1816	158	96
1817	158	96
1818	158	95
1819	158	96
1820	158	95
1821	159	96
1822	158	96
1823	158	96
1824	158	96
1825	159	97
1826	158	96
1827	159	98
1828	158	97
1829	159	97
1830	158	98
1831	159	98
1832	158	97
1833	159	98
1834	158	98
1835	159	98
1836	158	97
1837	159	98
1838	159	98
1839	159	98
1840	159	98
1841	159	99
1842	159	98
1843	159	99
1844	159	98
1845	159	98
1846	159	98
1847	159	99
1848	159	99
1849	159	99
1850	159	99
1851	159	99
1852	159	99
1853	160	100
1854	160	99
1855	159	100
1856	159	99
1857	159	100
1858	159	99
1859	159	100
1860	159	99
1861	160	100
1862	160	100
1863	160	100
1864	159	100
1865	160	100
1866	159	100
1867	160	100
1868	159	100
1869	160	100
1870	159	100
1871	160	101
1872	159	100
1873	160	101
1874	160	100
1875	160	101
1876	160	101
1877	160	102
1878	159	101
1879	160	102
1880	159	101
1881	160	102
1882	160	101
1883	160	102
1884	160	102
1885	160	102
1886	160	102
1887	160	102
1888	160	102
1889	161	103
1890	160	102
1891	161	103
1892	160	103
1893	161	103
1894	160	103
1895	160	103
1896	160	103
1897	161	103
1898	160	102
1899	161	104
1900	160	103
1901	161	104
1902	160	103
1903	161	104
1904	161	103
1905	161	104
1906	160	103
1907	161	104
1908	160	104
1909	161	104
1910	160	104
1911	161	105
1912	161	104
1913	161	104
1914	161	104
1915	161	105
1916	161	104
1917	162	105
1918	161	105
1919	161	106
1920	161	105
1921	161	106
1922	161	106
1923	162	106
1924	161	106
1925	162	106
1926	161	106
1927	162	106
1928	161	106
1929	163	106
1930	161	106
1931	161	106
1932	162	106
1933	161	107
1934	162	106
1935	162	107
1936	162	107
1937	163	107
1938	161	107
1939	163	107
1940	162	107
1941	163	107
1942	162	107
1943	162	108
1944	162	107
1945	162	107
1946	162	107
1947	163	108
1948	163	107
1949	163	108
1950	163	109
1951	163	108
1952	163	109
1953	164	109
1954	163	109
1955	164	109
1956	163	109
1957	163	109
1958	163	110
1959	164	110
1960	164	110
1961	164	111
1962	164	110
1963	164	111
1964	163	110
1965	165	111
1966	163	111
1967	164	111
1968	164	110
1969	163	111
1970	164	110
1971	164	112
1972	164	111
1973	164	111
1974	164	111
1975	165	111
1976	164	111
1977	165	112
1978	164	112
1979	164	112
1980	164	111
1981	164	112
1982	164	111
1983	165	113
1984	164	112
1985	165	112
1986	164	112
1987	165	112
1988	164	112
1989	165	113
1990	164	112
1991	165	113
1992	164	113
1993	165	113
1994	164	113
1995	165	114
1996	164	113
1997	165	114
1998	164	114
1999	165	114
2000	164	114
2001	165	114
2002	164	114
2003	165	114
2004	164	114
2005	165	114
2006	164	114
2007	165	114
2008	164	114
2009	165	114
2010	165	114
2011	165	115
2012	165	114
2013	166	115
2014	165	115
2015	165	115
2016	165	114
2017	165	115
2018	165	115
2019	165	116
2020	165	115
2021	166	116
2022	165	116
2023	166	116
2024	165	116
2025	166	116
2026	165	116
2027	166	116
2028	165	116
2029	166	117
2030	166	116
2031	166	117
2032	165	116
2033	167	117
2034	166	116
2035	166	117
2036	166	117
2037	167	117
2038	166	117
2039	166	118
2040	166	117
2041	167	118
2042	166	117
2043	167	117
2044	165	117
2045	167	118
2046	166	118
2047	167	118
2048	166	118
2049	166	118
2050	166	118
2051	167	118
2052	167	118
2053	167	119
2054	166	118
2055	167	119
2056	166	119
2057	167	119
2058	167	119
2059	167	120
2060	166	119
2061	167	120
2062	167	119
2063	167	120
2064	166	119
2065	167	120
2066	166	119
2067	167	121
2068	167	120
2069	167	120
2070	167	120
2071	167	120
2072	167	120
2073	167	121
2074	167	120
2075	167	121
2076	167	120
2077	168	122
2078	167	121
2079	167	121
2080	167	121
2081	168	122
2082	167	122
2083	167	122
2084	167	121
2085	167	122
2086	167	122
2087	168	122
2088	167	122
2089	167	122
2090	167	122
2091	168	122
2092	167	122
2093	168	123
2094	167	123
2095	168	123
2096	167	122
2097	168	123
2098	167	123
2099	168	123
2100	167	123
2101	168	123
2102	167	123
2103	167	123
2104	168	123
2105	168	124
2106	168	123
2107	168	124
2108	168	123
2109	168	124
2110	168	124
2111	168	124
2112	167	124
2113	168	125
2114	168	124
2115	168	124
2116	168	124
2117	168	125
2118	168	124
2119	168	125
2120	168	125
2121	169	126
2122	168	125
2123	169	126
2124	168	126
2125	169	126
2126	169	126
2127	169	127
2128	169	126
2129	169	126
2130	169	126
2131	169	127
2132	169	127
2133	170	127
2134	169	127
2135	170	127
2136	169	127
2137	170	128
2138	169	127
2139	169	127
2140	169	127
2141	170	127
2142	169	128
2143	170	128
2144	170	128
2145	171	129
2146	170	128
2147	170	129
2148	170	129
2149	171	129
2150	170	128
2151	170	130
2152	170	128
2153	170	129
2154	169	129
2155	171	130
2156	170	129
2157	171	130
2158	170	130
2159	171	130
2160	170	130
2161	171	130
2162	170	130
2163	170	131
2164	171	130
2165	171	131
2166	170	130
2167	171	130
2168	170	131
2169	171	130
2170	170	131
2171	171	131
2172	171	131
2173	171	131
2174	171	131
2175	171	131
2176	171	131
2177	171	131
2178	171	131
2179	171	131
2180	170	132
2181	171	132
2182	171	132
2183	171	132
2184	171	132
2185	171	132
2186	171	131
2187	171	132
2188	170	131
2189	171	132
2190	171	132
2191	171	133
2192	171	132
2193	171	133
2194	171	132
2195	171	133
2196	171	133
2197	172	133
2198	170	134
2199	172	133
2200	170	133
2201	171	133
2202	171	133
2203	171	135
2204	171	134
2205	172	135
2206	171	134
2207	171	134
2208	171	135
2209	172	135
2210	171	134
2211	171	135
2212	171	134
2213	171	135
2214	171	135
2215	172	135
2216	171	135
2217	171	135
2218	171	135
2219	172	136
2220	171	135
2221	171	135
2222	171	135
2223	171	135
2224	171	135
2225	172	136
2226	171	136
2227	171	136
2228	171	136
2229	172	137
2230	171	136
2231	172	137
2232	171	136
2233	172	137
2234	171	137
2235	172	137
2236	171	136
2237	172	137
2238	171	136
2239	171	137
2240	172	137
2241	171	138
2242	172	138
2243	172	138
2244	172	138
2245	172	138
2246	172	138
2247	172	138
2248	172	138
2249	172	138
2250	172	138
2251	172	138
2252	171	138
2253	172	138
2254	172	138
2255	172	138
2256	172	138
2257	172	139
2258	172	138
2259	172	139
2260	171	138
2261	172	139
2262	172	139
2263	172	139
2264	172	139
2265	172	140
2266	172	140
2267	173	140
2268	172	139
2269	173	140
2270	172	139
2271	172	140
2272	172	139
2273	172	140
2274	172	140
2275	172	140
2276	172	140
2277	173	141
2278	172	140
2279	173	141
2280	172	141
2281	173	141
2282	172	141
2283	172	141
2284	172	141
2285	172	141
2286	172	141
2287	173	142
2288	172	141
2289	173	141
2290	172	141
2291	173	142
2292	173	142
2293	173	142
2294	172	142
2295	173	142
2296	172	142
2297	172	142
2298	172	143
2299	172	143
2300	172	143
2301	174	143
2302	173	143
2303	174	144
2304	174	144
2305	174	144
2306	174	144
2307	174	145
2308	174	144
2309	174	144
2310	173	144
2311	174	145
2312	173	144
2313	175	146
2314	174	145
2315	175	146
2316	173	145
2317	175	146
2318	173	146
2319	175	146
2320	174	146
2321	174	146
2322	174	146
2323	174	146
2324	174	146
2325	175	146
2326	175	146
2327	175	147
2328	174	147
2329	175	147
2330	175	147
2331	175	147
2332	174	146
2333	175	147
2334	174	147
2335	175	147
2336	174	147
2337	175	147
2338	175	147
2339	175	148
2340	175	148
2341	175	148
2342	175	148
2343	175	148
2344	175	148
2345	175	148
2346	175	148
2347	175	148
2348	174	148
2349	175	149
2350	175	148
2351	175	149
2352	175	148
2353	175	149
2354	175	148
2355	175	149
2356	175	149
2357	175	149
2358	175	148
2359	175	149
2360	175	149
2361	175	149
2362	174	149
2363	175	150
2364	175	150
2365	175	150
2366	175	149
2367	175	150
2368	175	150
2369	175	150
2370	175	150
2371	175	150
2372	175	150
2373	175	150
2374	175	150
2375	175	151
2376	175	150
2377	175	151
2378	175	150
2379	175	151
2380	175	150
2381	175	151
2382	175	151
2383	175	151
2384	174	151
2385	175	151
2386	175	150
2387	175	152
2388	175	152
2389	175	152
2390	176	151
2391	175	152
2392	175	151
2393	175	151
2394	175	152
2395	176	152
2396	174	152
2397	176	152
2398	175	152
2399	175	153
2400	175	152
2401	175	153
2402	175	152
2403	176	154
2404	175	153
2405	175	154
2406	175	154
2407	175	154
2408	175	153
2409	175	154
2410	175	154
2411	176	154
2412	175	154
2413	176	154
2414	175	154
2415	176	155
2416	175	154
2417	176	154
2418	175	154
2419	175	155
2420	175	155
2421	175	155
2422	175	154
2423	176	155
2424	175	155
2425	176	155
2426	175	155
2427	175	155
2428	176	155
2429	176	156
2430	176	155
2431	176	156
2432	175	155
2433	176	156
2434	176	156
2435	176	156
2436	175	156
2437	176	156
2438	175	156
2439	176	156
2440	175	156
2441	176	157
2442	176	157
2443	176	156
2444	175	156
2445	175	156
2446	176	156
2447	176	157
2448	175	157
2449	176	157
2450	175	157
2451	176	157
2452	176	157
2453	176	158
2454	175	157
2455	176	158
2456	175	158
2457	176	158
2458	176	158
2459	176	158
2460	176	158
2461	176	158
2462	176	158
2463	176	159
2464	176	158
2465	176	159
2466	176	159
2467	176	159
2468	176	159
2469	176	159
2470	176	159
2471	176	159
2472	175	159
2473	176	160
2474	176	159
2475	176	160
2476	176	160
2477	176	160
2478	176	161
2479	176	160
2480	175	160
2481	176	160
2482	176	159
2483	176	160
2484	176	160
2485	176	161
2486	176	160
2487	176	162
2488	176	161
2489	176	161
2490	176	161
2491	176	162
2492	176	161
2493	177	162
2494	176	161
2495	176	161
2496	176	161
2497	176	162
2498	176	162
2499	176	162
2500	176	162
2501	177	162
2502	176	162
2503	176	163
2504	176	162
2505	176	163
2506	176	162
2507	176	162
2508	176	162
2509	177	163
2510	176	163
2511	177	163
2512	176	163
2513	177	163
2514	176	163
2515	176	163
2516	176	163
2517	177	164
2518	176	163
2519	177	163
2520	176	163
2521	177	164
2522	176	164
2523	177	164
2524	176	164
2525	177	164
2526	177	164
2527	177	165
2528	176	164
2529	177	164
2530	176	164
2531	177	165
2532	176	165
2533	177	165
2534	177	165
2535	177	166
2536	177	165
2537	177	166
2538	177	166
2539	177	166
2540	176	166
2541	177	166
2542	177	166
2543	177	166
2544	176	166
2545	177	167
2546	177	166
2547	177	167
2548	177	167
2549	177	167
2550	177	167
2551	178	167
2552	176	167
2553	177	167
2554	177	167
2555	177	167
2556	176	167
2557	177	168
2558	177	167
2559	177	168
2560	177	167
2561	178	168
2562	177	168
2563	177	168
2564	176	167
2565	177	168
2566	176	168
2567	177	169
2568	177	168
2569	177	169
2570	177	168
2571	178	169
2572	176	168
2573	178	170
2574	177	170
2575	178	169
2576	177	169
2577	178	170
2578	177	169
2579	178	170
2580	177	170
2581	178	170
2582	178	170
2583	178	170
2584	177	170
2585	178	170
2586	177	170
2587	178	171
2588	177	170
2589	178	170
2590	177	170
2591	178	171
2592	177	170
2593	178	171
2594	177	171
2595	178	171
2596	177	171
2597	177	170
2598	177	170
2599	178	171
2600	178	171
2601	178	172
2602	177	171
2603	179	172
2604	176	171
2605	177	171
2606	177	171
2607	178	172
2608	178	172
2609	178	172
2610	177	171
2611	178	173
2612	177	172
2613	179	172
2614	177	173
2615	179	173
2616	177	172
2617	177	172
2618	178	172
2619	177	173
2620	178	172
2621	179	174
2622	177	173
2623	178	174
2624	178	174
2625	179	174
2626	178	173
2627	179	174
2628	178	174
2629	178	174
2630	177	173
2631	178	174
2632	178	174
2633	179	174
2634	178	174
2635	178	175
2636	177	174
2637	179	175
2638	177	174
2639	179	175
2640	177	174
2641	178	175
2642	177	174
2643	179	175
2644	177	175
2645	177	176
2646	179	175
2647	178	176
2648	178	175
2649	179	176
2650	177	175
2651	179	175
2652	178	176
2653	179	176
2654	177	176
2655	178	176
2656	177	175
2657	178	176
2658	177	176
2659	177	176
2660	177	176
2661	177	176
2662	177	176
2663	178	176
2664	177	176
2665	177	176
2666	176	176
2667	177	177
2668	177	176
2669	178	177
2670	177	177
2671	178	177
2672	176	177
2673	177	177
2674	177	177
2675	177	178
2676	177	177
2677	177	178
2678	176	178
2679	177	178
2680	177	178
2681	178	178
2682	177	178
2683	177	178
2684	178	178
2685	178	178
2686	177	178
2687	177	179
2688	176	178
2689	177	179
2690	177	178
2691	178	179
2692	177	179
2693	178	179
2694	177	179
2695	178	179
2696	177	179
2697	179	180
2698	177	179
2699	178	179
2700	177	179
2701	177	179
2702	177	179
2703	178	180
2704	177	180
2705	178	180
2706	177	180
2707	178	180
2708	177	180
2709	179	180
2710	177	180
2711	178	180
2712	177	180
2713	177	180
2714	177	180
2715	177	180
2716	177	180
2717	179	181
2718	178	180
2719	177	182
2720	178	181
2721	178	181
2722	177	181
2723	178	182
2724	177	181
2725	178	181
2726	177	182
2727	178	182
2728	177	181
2729	178	183
2730	177	182
2731	178	183
2732	177	182
2733	179	183
2734	177	182
2735	178	183
2736	177	183
2737	178	183
2738	177	183
2739	179	183
2740	177	183
2741	179	183
2742	178	183
2743	179	184
2744	178	183
2745	178	184
2746	178	184
2747	179	184
2748	177	184
2749	179	184
2750	178	184
2751	177	184
2752	178	184
2753	178	184
2754	178	184
2755	179	185
2756	178	185
2757	179	185
2758	178	185
2759	179	185
2760	177	185
2761	179	185
2762	177	184
2763	179	186
2764	177	184
2765	179	186
2766	177	185
2767	179	186
2768	177	185
2769	177	185
2770	176	185
2771	177	186
2772	176	185
2773	177	185
2774	177	185
2775	177	186
2776	176	185
2777	177	186
2778	176	186
2779	177	186
2780	177	186
2781	177	186
2782	177	186
2783	177	186
2784	177	186
2785	177	186
2786	176	186
2787	177	186
2788	176	187
2789	178	187
2790	177	186
2791	177	187
2792	177	187
2793	178	187
2794	177	187
2795	177	187
2796	177	187
2797	177	187
2798	177	187
2799	177	187
2800	177	187
2801	178	188
2802	177	187
2803	178	188
2804	177	188
2805	178	188
2806	177	188
2807	178	188
2808	177	188
2809	177	188
2810	177	188
2811	178	188
2812	177	188
2813	179	189
2814	177	189
2815	178	190
2816	177	189
2817	178	190
2818	178	189
2819	178	190
2820	178	189
2821	178	190
2822	177	189
2823	178	190
2824	177	189
2825	177	190
2826	177	189
2827	179	190
2828	176	190
2829	179	190
2830	177	190
2831	178	191
2832	178	189
2833	177	191
2834	178	190
2835	177	191
2836	177	191
2837	177	190
2838	177	191
2839	177	191
2840	176	191
2841	177	191
2842	176	190
2843	177	191
2844	176	191
2845	177	191
2846	176	190
2847	176	191
2848	176	191
2849	177	191
2850	176	191
2851	177	191
2852	176	191
2853	177	192
2854	176	191
2855	177	192
2856	176	191
2857	177	192
2858	176	191
2859	177	192
2860	175	191
2861	177	191
2862	176	191
2863	176	192
2864	177	191
2865	176	193
2866	177	192
2867	177	193
2868	176	193
2869	177	192
2870	176	193
2871	177	192
2872	176	192
2873	177	193
2874	176	193
2875	177	194
2876	176	193
2877	178	194
2878	177	194
2879	177	194
2880	177	194
2881	177	194
2882	177	194
2883	177	194
2884	176	194
2885	177	194
2886	177	194
2887	178	195
2888	177	195
2889	178	195
2890	177	195
2891	177	195
2892	177	195
2893	177	195
2894	177	194
2895	177	195
2896	177	195
2897	177	195
2898	176	195
2899	177	195
2900	176	195
2901	176	195
2902	176	195
2903	177	195
2904	176	195
2905	176	195
2906	176	194
2907	176	195
2908	176	195
2909	177	195
2910	176	195
2911	176	195
2912	176	195
2913	177	196
2914	176	196
2915	176	196
2916	176	195
2917	177	197
2918	176	196
2919	177	197
2920	176	196
2921	176	196
2922	176	196
2923	177	197
2924	176	196
2925	177	197
2926	176	197
2927	177	198
2928	176	198
2929	177	198
2930	176	197
2931	176	198
2932	176	197
2933	177	198
2934	176	197
2935	177	198
2936	176	198
2937	177	198
2938	176	198
2939	177	199
2940	176	198
2941	177	199
2942	176	198
2943	176	199
2944	176	198
2945	177	199
2946	176	198
2947	177	199
2948	176	199
2949	177	199
2950	176	198
2951	176	199
2952	176	198
2953	176	199
2954	176	198
2955	176	199
2956	175	198
2957	176	199
2958	175	198
2959	176	199
2960	175	199
2961	176	199
2962	176	199
2963	176	199
2964	176	199
2965	176	200
2966	175	199
2967	176	200
2968	175	199
2969	176	199
2970	175	199
2971	176	200
2972	175	199
2973	176	200
2974	176	200
2975	176	200
2976	176	200
2977	176	201
2978	176	201
2979	176	201
2980	176	200
2981	176	202
2982	175	201
2983	176	202
2984	176	200
2985	176	201
2986	176	201
2987	176	202
2988	175	201
2989	176	202
2990	175	201
2991	176	202
2992	175	200
2993	175	202
2994	175	200
2995	175	202
2996	175	201
2997	175	202
2998	175	202
2999	176	202
3000	175	202
3001	176	202
3002	175	202
3003	176	202
3004	175	202
3005	176	202
3006	175	202
3007	175	202
3008	175	202
3009	175	202
3010	175	202
3011	176	203
3012	175	203
3013	176	203
3014	175	203
3015	176	203
3016	175	203
3017	176	203
3018	175	203
3019	176	203
3020	175	203
3021	175	203
3022	175	203
3023	175	203
3024	175	203
3025	175	203
3026	175	203
3027	175	203
3028	175	203
3029	175	203
3030	174	203
3031	175	203
3032	175	203
3033	175	204
3034	175	203
3035	175	204
3036	175	203
3037	175	204
3038	175	204
3039	175	204
3040	175	204
3041	175	204
3042	174	204
3043	175	204
3044	174	204
3045	176	204
3046	175	204
3047	175	206
3048	175	204
3049	175	206
3050	175	205
3051	175	205
3052	174	205
3053	176	205
3054	175	205
3055	175	205
3056	175	206
3057	175	206
3058	175	205
3059	175	206
3060	175	205
3061	175	206
3062	175	205
3063	175	206
3064	174	205
3065	175	205
3066	174	205
3067	175	206
3068	174	205
3069	175	206
3070	174	206
3071	175	206
3072	174	206
3073	175	206
3074	174	206
3075	175	207
3076	174	206
3077	175	206
3078	174	206
3079	174	207
3080	174	206
3081	175	207
3082	173	206
3083	175	206
3084	173	207
3085	175	207
3086	174	207
3087	175	208
3088	174	206
3089	174	208
3090	175	207
3091	175	208
3092	174	207
3093	174	207
3094	173	208
3095	175	207
3096	174	207
3097	175	208
3098	174	207
3099	174	208
3100	173	207
3101	175	208
3102	174	207
3103	174	207
3104	173	207
3105	173	207
3106	173	208
3107	174	208
3108	173	208
3109	175	209
3110	173	208
3111	174	208
3112	173	208
3113	174	209
3114	173	208
3115	174	209
3116	173	208
3117	174	209
3118	173	209
3119	174	209
3120	173	209
3121	174	209
3122	173	208
3123	173	209
3124	173	209
3125	173	210
3126	172	209
3127	173	209
3128	172	208
3129	173	209
3130	172	210
3131	173	210
3132	173	210
3133	174	210
3134	173	210
3135	173	210
3136	173	210
3137	173	210
3138	172	210
3139	173	210
3140	172	210
3141	173	210
3142	172	210
3143	173	211
3144	172	210
3145	172	210
3146	172	210
3147	172	210
3148	172	210
3149	172	210
3150	172	210
3151	172	210
3152	172	210
3153	172	210
3154	172	210
3155	172	211
3156	172	211
3157	173	211
3158	172	211
3159	172	211
3160	172	211
3161	173	211
3162	172	211
3163	172	211
3164	172	211
3165	173	212
3166	172	211
3167	173	211
3168	172	211
3169	173	212
3170	172	211
3171	173	212
3172	172	212
3173	173	212
3174	172	212
3175	173	212
3176	172	212
3177	173	212
3178	172	212
3179	173	212
3180	172	212
3181	172	212
3182	172	212
3183	172	212
3184	172	212
3185	172	212
3186	172	212
3187	172	212
3188	171	212
3189	172	212
3190	171	212
3191	172	212
3192	171	212
3193	172	213
3194	171	212
3195	172	213
3196	172	212
3197	172	213
3198	172	213
3199	172	213
3200	171	213
3201	172	213
3202	171	213
3203	172	213
3204	172	213
3205	172	213
3206	171	213
3207	172	213
3208	171	213
3209	171	214
3210	171	213
3211	171	213
3212	170	213
3213	172	213
3214	171	213
3215	171	213
3216	171	214
3217	171	214
3218	171	214
3219	172	214
3220	171	214
3221	172	214
3222	171	214
3223	171	214
3224	171	214
3225	171	215
3226	171	214
3227	171	215
3228	171	214
3229	172	215
3230	171	214
3231	171	215
3232	171	214
3233	171	215
3234	171	214
3235	171	215
3236	171	214
3237	171	215
3238	171	214
3239	171	215
3240	171	214
3241	171	215
3242	170	214
3243	171	215
3244	169	214
3245	170	215
3246	170	214
3247	170	215
3248	169	214
3249	170	214
3250	169	214
3251	170	215
3252	170	214
3253	171	215
3254	169	215
3255	170	215
3256	169	215
3257	170	215
3258	169	215
3259	170	215
3260	169	215
3261	171	216
3262	169	215
3263	170	216
3264	169	215
3265	170	215
3266	169	215
3267	170	216
3268	170	215
3269	169	215
3270	170	215
3271	170	216
3272	168	215
3273	170	216
3274	169	215
3275	169	216
3276	169	215
3277	169	216
3278	169	215
3279	169	216
3280	169	216
3281	170	217
3282	168	215
3283	170	216
3284	168	216
3285	170	217
3286	169	216
3287	169	217
3288	169	216
3289	169	217
3290	169	216
3291	169	217
3292	168	216
3293	170	217
3294	168	216
3295	169	217
3296	168	216
3297	169	217
3298	168	216
3299	169	217
3300	168	218
3301	169	217
3302	168	216
3303	169	218
3304	168	217
3305	169	218
3306	169	217
3307	168	218
3308	169	217
3309	169	218
3310	168	218
3311	169	218
3312	168	218
3313	169	218
3314	168	218
3315	169	218
3316	168	218
3317	168	218
3318	168	217
3319	168	218
3320	168	218
3321	168	218
3322	168	218
3323	168	218
3324	168	218
3325	169	218
3326	167	218
3327	168	218
3328	167	218
3329	168	218
3330	167	218
3331	168	218
3332	167	218
3333	167	218
3334	167	218
3335	168	218
3336	167	218
3337	167	218
3338	167	218
3339	168	218
3340	167	218
3341	168	218
3342	167	218
3343	168	219
3344	167	218
3345	168	219
3346	167	218
3347	168	219
3348	167	218
3349	167	219
3350	167	219
3351	167	218
3352	167	218
3353	167	219
3354	167	219
3355	167	219
3356	167	219
3357	168	219
3358	167	218
3359	167	219
3360	167	219
3361	167	219
3362	167	219
3363	167	219
3364	167	218
3365	167	219
3366	166	219
3367	167	219
3368	167	219
3369	166	219
3370	166	219
3371	166	219
3372	165	218
3373	167	219
3374	166	219
3375	166	219
3376	166	219
3377	167	220
3378	166	219
3379	167	220
3380	166	220
3381	167	220
3382	167	220
3383	167	220
3384	166	220
3385	166	219
3386	166	219
3387	167	220
3388	166	220
3389	167	220
3390	165	220
3391	166	220
3392	165	219
3393	166	220
3394	165	220
3395	166	220
3396	165	220
3397	166	220
3398	165	220
3399	166	220
3400	165	220
3401	165	220
3402	165	220
3403	165	220
3404	165	219
3405	165	220
3406	164	219
3407	165	220
3408	165	220
3409	165	220
3410	164	220
3411	165	220
3412	164	220
3413	165	221
3414	165	220
3415	165	221
3416	164	220
3417	165	221
3418	165	220
3419	165	220
3420	165	220
3421	165	221
3422	165	220
3423	165	221
3424	164	221
3425	165	221
3426	165	221
3427	165	221
3428	164	221
3429	165	221
3430	164	221
3431	165	221
3432	164	220
3433	165	221
3434	164	221
3435	164	221
3436	164	221
3437	164	222
3438	164	221
3439	164	222
3440	164	220
3441	164	222
3442	164	221
3443	164	221
3444	164	221
3445	164	221
3446	163	221
3447	164	222
3448	164	221
3449	164	222
3450	164	221
3451	164	222
3452	164	222
3453	165	222
3454	163	221
3455	164	222
3456	163	222
3457	164	222
3458	164	222
3459	164	222
3460	163	222
3461	164	223
3462	163	222
3463	164	222
3464	164	222
3465	164	222
3466	163	222
3467	163	222
3468	163	222
3469	163	222
3470	163	222
3471	163	222
3472	163	222
3473	163	222
3474	163	222
3475	163	222
3476	163	222
3477	163	222
3478	163	222
3479	163	222
3480	162	222
3481	163	222
3482	163	222
3483	163	223
3484	163	222
3485	163	223
3486	162	222
3487	163	222
3488	161	222
3489	162	222
3490	163	222
3491	162	223
3492	162	222
3493	163	222
3494	161	222
3495	163	222
3496	161	223
3497	162	222
3498	162	222
3499	162	223
3500	161	222
3501	161	222
3502	161	222
3503	162	222
3504	161	222
3505	162	223
3506	161	222
3507	161	222
3508	161	222
3509	162	223
3510	161	222
3511	162	223
3512	162	223
3513	162	223
3514	161	223
3515	162	223
3516	161	223
3517	163	223
3518	161	223
3519	162	223
3520	161	223
3521	162	223
3522	162	223
3523	161	223
3524	161	223
3525	161	223
3526	160	223
3527	162	223
3528	161	223
3529	162	223
3530	161	223
3531	161	223
3532	160	223
3533	160	224
3534	161	223
3535	161	223
3536	160	223
3537	161	223
3538	160	223
3539	160	223
3540	160	223
3541	161	223
3542	160	223
3543	160	223
3544	160	223
3545	160	223
3546	160	223
3547	161	224
3548	160	223
3549	161	223
3550	160	223
3551	160	224
3552	159	223
3553	160	223
3554	160	223
3555	160	223
3556	159	222
3557	160	223
3558	160	223
3559	160	223
3560	160	223
3561	160	224
3562	159	223
3563	160	223
3564	159	223
3565	160	224
3566	159	223
3567	159	223
3568	159	223
3569	159	223
3570	159	223
3571	159	223
3572	159	223
3573	159	223
3574	159	223
3575	159	224
3576	159	223
3577	159	223
3578	159	223
3579	159	223
3580	159	223
3581	159	224
3582	159	223
3583	159	223
3584	159	223
3585	159	223
3586	158	223
3587	159	223
3588	159	223
3589	159	223
3590	158	223
3591	159	223
3592	158	223
3593	159	223
3594	158	223
3595	159	224
3596	158	224
3597	159	224
3598	158	223
3599	159	224
3600	159	223
3601	159	225
3602	159	224
3603	159	224
3604	159	224
3605	159	225
3606	158	224
3607	159	224
3608	158	223
3609	159	225
3610	158	224
3611	159	224
3612	158	224
3613	159	225
3614	158	224
3615	159	224
3616	158	224
3617	159	225
3618	158	224
3619	158	225
3620	158	224
3621	159	225
3622	158	224
3623	158	225
3624	158	224
3625	158	224
3626	157	224
3627	158	225
3628	157	224
3629	158	225
3630	157	224
3631	158	225
3632	157	224
3633	157	225
3634	157	224
3635	157	225
3636	157	224
3637	157	225
3638	157	224
3639	157	225
3640	157	224
3641	157	225
3642	156	224
3643	157	224
3644	156	224
3645	157	225
3646	157	224
3647	157	224
3648	156	224
3649	157	225
3650	156	224
3651	156	224
3652	156	224
3653	156	225
3654	156	224
3655	156	224
3656	156	224
3657	156	224
3658	156	224
3659	156	224
3660	155	223
3661	156	224
3662	156	224
3663	156	225
3664	156	224
3665	156	224
3666	155	224
3667	156	224
3668	155	224
3669	155	225
3670	155	224
3671	156	224
3672	155	224
3673	155	225
3674	155	224
3675	155	224
3676	155	224
3677	156	225
3678	155	224
3679	155	225
3680	155	224
3681	155	225
3682	155	224
3683	155	224
3684	155	224
3685	155	225
3686	155	224
3687	155	225
3688	155	224
3689	155	225
3690	155	224
3691	155	225
3692	154	224
3693	155	224
3694	154	224
3695	155	224
3696	154	224
3697	155	225
3698	154	224
3699	154	224
3700	154	224
3701	155	225
3702	154	224
3703	155	224
3704	154	223
3705	155	225
3706	153	224
3707	155	224
3708	154	224
3709	154	225
3710	154	224
3711	153	226
3712	154	224
3713	154	224
3714	153	224
3715	154	224
3716	153	225
3717	155	224
3718	153	224
3719	154	224
3720	153	224
3721	153	225
3722	153	224
3723	153	225
3724	152	224
3725	153	225
3726	153	224
3727	153	224
3728	152	224
3729	152	224
3730	152	223
3731	153	225
3732	152	224
3733	153	224
3734	152	224
3735	153	225
3736	152	224
3737	153	225
3738	151	224
3739	153	224
3740	153	224
3741	152	225
3742	152	223
3743	152	224
3744	152	224
3745	153	224
3746	151	225
3747	153	224
3748	151	224
3749	152	224
3750	152	224
3751	152	225
3752	152	224
3753	152	224
3754	152	224
3755	152	224
3756	151	224
3757	152	225
3758	151	224
3759	152	224
3760	151	224
3761	152	224
3762	151	224
3763	151	224
3764	151	224
3765	151	225
3766	151	224
3767	151	224
3768	151	224
3769	151	225
3770	151	224
3771	151	225
3772	151	224
3773	151	224
3774	151	224
3775	151	225
3776	151	224
3777	151	224
3778	151	223
3779	151	224
3780	151	224
3781	151	224
3782	150	223
3783	151	224
3784	149	223
3785	150	223
3786	149	223
3787	150	223
3788	149	223
3789	150	223
3790	149	223
3791	150	223
3792	149	223
3793	149	223
3794	149	223
3795	149	223
3796	149	223
3797	149	223
3798	149	222
3799	149	223
3800	149	223
3801	149	223
3802	148	223
3803	149	223
3804	148	223
3805	150	223
3806	148	223
3807	149	223
3808	149	223
3809	149	223
3810	148	223
3811	149	223
3812	148	223
3813	149	223
3814	148	223
3815	149	223
3816	148	223
3817	149	223
3818	148	223
3819	149	223
3820	148	223
3821	149	223
3822	148	223
3823	148	223
3824	148	223
3825	148	223
3826	148	223
3827	148	223
3828	148	223
3829	148	223
3830	147	222
3831	148	223
3832	148	223
3833	148	223
3834	148	223
3835	148	223
3836	147	223
3837	148	223
3838	147	223
3839	148	223
3840	147	223
3841	148	223
3842	148	223
3843	148	223
3844	147	223
3845	148	223
3846	147	223
3847	148	223
3848	147	223
3849	148	223
3850	147	223
3851	148	223
3852	147	223
3853	148	223
3854	147	223
3855	147	223
3856	147	223
3857	147	223
3858	147	222
3859	147	223
3860	147	223
3861	147	223
3862	147	223
3863	147	223
3864	146	222
3865	147	222
3866	145	222
3867	146	222
3868	145	222
3869	146	223
3870	145	221
3871	146	223
3872	145	222
3873	145	222
3874	145	222
3875	146	222
3876	144	222
3877	146	222
3878	145	222
3879	145	222
3880	145	222
3881	145	222
3882	144	222
3883	145	222
3884	144	222
3885	145	222
3886	144	222
3887	145	222
3888	145	222
3889	145	222
3890	144	222
3891	145	222
3892	144	222
3893	145	222
3894	144	222
3895	145	222
3896	144	222
3897	145	222
3898	144	222
3899	144	222
3900	144	221
3901	145	222
3902	144	222
3903	144	222
3904	144	222
3905	144	222
3906	144	222
3907	144	222
3908	144	222
3909	144	222
3910	144	222
3911	144	222
3912	144	222
3913	144	222
3914	144	221
3915	144	222
3916	143	221
3917	144	222
3918	143	221
3919	144	222
3920	143	222
3921	144	222
3922	144	221
3923	143	222
3924	144	221
3925	143	222
3926	143	220
3927	144	221
3928	143	221
3929	143	221
3930	143	221
3931	143	221
3932	143	220
3933	143	221
3934	143	220
3935	142	221
3936	143	221
3937	143	221
3938	142	220
3939	143	221
3940	142	221
3941	143	221
3942	142	221
3943	143	221
3944	142	220
3945	143	221
3946	142	221
3947	143	221
3948	141	220
3949	143	221
3950	141	220
3951	143	221
3952	141	220
3953	142	221
3954	143	220
3955	141	221
3956	142	220
3957	143	220
3958	141	221
3959	143	220
3960	141	221
3961	142	220
3962	141	220
3963	141	220
3964	141	219
3965	141	221
3966	141	219
3967	141	219
3968	140	219
3969	141	220
3970	140	220
3971	140	220
3972	140	219
3973	140	219
3974	140	219
3975	140	220
3976	140	219
3977	140	220
3978	140	219
3979	140	220
3980	139	219
3981	140	220
3982	140	219
3983	140	220
3984	140	219
3985	140	220
3986	140	219
3987	140	220
3988	140	219
3989	140	220
3990	139	219
3991	140	220
3992	139	219
3993	140	219
3994	139	219
3995	140	220
3996	139	219
3997	140	219
3998	139	219
3999	139	219
4000	139	218
4001	139	219
4002	139	218
4003	139	219
4004	139	219
4005	139	219
4006	138	218
4007	139	219
4008	139	218
4009	139	219
4010	138	219
4011	139	219
4012	138	218
4013	139	219
4014	139	218
4015	139	219
4016	138	218
4017	139	219
4018	138	218
4019	139	219
4020	139	218
4021	139	219
4022	138	219
4023	139	219
4024	138	218
4025	139	219
4026	138	218
4027	139	219
4028	138	218
4029	139	219
4030	138	219
4031	139	219
4032	137	218
4033	138	218
4034	138	218
4035	138	218
4036	137	218
4037	137	218
4038	137	218
4039	138	218
4040	137	218
4041	137	218
4042	137	218
4043	137	218
4044	136	217
4045	137	218
4046	136	217
4047	137	218
4048	136	217
4049	137	218
4050	136	217
4051	137	218
4052	136	217
4053	137	218
4054	136	218
4055	136	218
4056	136	217
4057	137	218
4058	136	217
4059	136	218
4060	136	218
4061	136	218
4062	136	217
4063	137	218
4064	136	217
4065	136	218
4066	136	217
4067	136	218
4068	136	217
4069	136	218
4070	136	217
4071	136	217
4072	136	216
4073	136	217
4074	135	216
4075	136	217
4076	135	216
4077	136	217
4078	135	216
4079	135	217
4080	135	216
4081	136	217
4082	135	216
4083	136	216
4084	135	216
4085	135	216
4086	135	216
4087	135	216
4088	135	216
4089	135	216
4090	135	216
4091	135	216
4092	135	216
4093	136	216
4094	135	216
4095	135	216
