  Hz	 Vrms	dBV	deg
1000.0	0.640	-3.897
1100.0	0.704	-3.064
1200.0	0.763	-2.373
1300.0	0.829	-1.653
1400.0	0.892	-1.018
1500.0	0.954	-0.434
1600.0	1.013	0.089
1700.0	1.076	0.613
1800.0	1.140	1.120
1900.0	1.199	1.559
2000.0	1.263	2.005
2100.0	1.313	2.346
2200.0	1.375	2.743
2300.0	1.434	3.108
2400.0	1.477	3.369
2500.0	1.557	3.847
2600.0	1.597	4.066
2700.0	1.644	4.320
2800.0	1.675	4.483
2900.0	1.721	4.717
3000.0	1.754	4.881
3100.0	1.799	5.099
3200.0	1.821	5.208
3300.0	1.848	5.336
3400.0	1.860	5.388
3500.0	1.873	5.451
3600.0	1.885	5.506
3700.0	1.893	5.545
3800.0	1.897	5.562
3900.0	1.903	5.589
4000.0	1.905	5.600
4100.0	1.892	5.539
4200.0	1.890	5.530
4300.0	1.885	5.507
4400.0	1.874	5.457
4500.0	1.860	5.390
4600.0	1.850	5.341
4700.0	1.827	5.236
4800.0	1.814	5.173
4900.0	1.796	5.084
5000.0	1.774	4.977
5100.0	1.749	4.856
5200.0	1.731	4.765
5300.0	1.725	4.734
5400.0	1.695	4.584
5500.0	1.673	4.470
5600.0	1.662	4.414
5700.0	1.625	4.216
5800.0	1.616	4.169
5900.0	1.588	4.019
6000.0	1.591	4.034
6100.0	1.559	3.858
6200.0	1.531	3.698
6300.0	1.525	3.666
6400.0	1.500	3.521
6500.0	1.471	3.355
6600.0	1.453	3.243
6700.0	1.442	3.179
6800.0	1.419	3.038
6900.0	1.403	2.940
7000.0	1.390	2.863
7100.0	1.380	2.797
7200.0	1.350	2.608
7300.0	1.342	2.557
7400.0	1.327	2.461
7500.0	1.319	2.404
7600.0	1.296	2.254
7700.0	1.285	2.178
7800.0	1.259	1.998
7900.0	1.252	1.952
8000.0	1.236	1.839
8100.0	1.222	1.744
8200.0	1.202	1.598
8300.0	1.188	1.497
8400.0	1.179	1.432
8500.0	1.166	1.331
8600.0	1.153	1.237
8700.0	1.140	1.142
8800.0	1.129	1.053
8900.0	1.116	0.957
9000.0	1.098	0.809
9100.0	1.093	0.769
9200.0	1.088	0.732
9300.0	1.074	0.620
9400.0	1.064	0.536
9500.0	1.062	0.524
9600.0	1.042	0.355
9700.0	1.037	0.319
9800.0	1.020	0.174
9900.0	1.011	0.097
10000.0	1.005	0.046
  Hz	 Vrms	dBV	deg
1000.0	0.152	-16.344
1100.0	0.169	-15.461
1200.0	0.187	-14.579
1300.0	0.206	-13.703
1400.0	0.225	-12.969
1500.0	0.245	-12.211
1600.0	0.268	-11.452
1700.0	0.291	-10.736
1800.0	0.316	-9.994
1900.0	0.343	-9.301
2000.0	0.374	-8.549
2100.0	0.405	-7.858
2200.0	0.439	-7.153
2300.0	0.470	-6.584
2400.0	0.508	-5.909
2500.0	0.555	-5.141
2600.0	0.605	-4.390
2700.0	0.657	-3.668
2800.0	0.719	-2.886
2900.0	0.791	-2.059
3000.0	0.865	-1.285
3100.0	0.950	-0.464
3200.0	1.046	0.372
3300.0	1.148	1.180
3400.0	1.247	1.895
3500.0	1.333	2.475
3600.0	1.413	2.982
3700.0	1.466	3.304
3800.0	1.478	3.374
3900.0	1.463	3.284
4000.0	1.415	2.994
4100.0	1.348	2.576
4200.0	1.274	2.082
4300.0	1.198	1.550
4400.0	1.128	1.026
4500.0	1.058	0.466
4600.0	0.996	-0.056
4700.0	0.942	-0.538
4800.0	0.888	-1.051
4900.0	0.842	-1.517
5000.0	0.801	-1.946
5100.0	0.766	-2.335
5200.0	0.730	-2.753
5300.0	0.706	-3.049
5400.0	0.673	-3.455
5500.0	0.645	-3.828
5600.0	0.618	-4.206
5700.0	0.597	-4.495
5800.0	0.577	-4.791
5900.0	0.562	-5.033
6000.0	0.542	-5.337
6100.0	0.525	-5.624
6200.0	0.512	-5.829
6300.0	0.497	-6.094
6400.0	0.479	-6.420
6500.0	0.464	-6.691
6600.0	0.453	-6.894
6700.0	0.445	-7.058
6800.0	0.436	-7.222
6900.0	0.423	-7.497
7000.0	0.412	-7.728
7100.0	0.404	-7.899
7200.0	0.393	-8.125
7300.0	0.384	-8.327
7400.0	0.376	-8.514
7500.0	0.371	-8.643
7600.0	0.363	-8.829
7700.0	0.353	-9.057
7800.0	0.347	-9.216
7900.0	0.343	-9.310
8000.0	0.339	-9.410
8100.0	0.330	-9.649
8200.0	0.324	-9.821
8300.0	0.317	-10.008
8400.0	0.312	-10.150
8500.0	0.306	-10.306
8600.0	0.301	-10.440
8700.0	0.297	-10.572
8800.0	0.292	-10.718
8900.0	0.288	-10.843
9000.0	0.283	-10.982
9100.0	0.280	-11.074
9200.0	0.276	-11.199
9300.0	0.274	-11.258
9400.0	0.270	-11.400
9500.0	0.266	-11.530
9600.0	0.261	-11.687
9700.0	0.258	-11.778
9800.0	0.255	-11.883
9900.0	0.252	-12.002
10000.0	0.249	-12.084
  Hz	 Vrms	dBV	deg
1000.0	0.033	-29.694
1100.0	0.037	-28.753
1200.0	0.040	-27.893
1300.0	0.045	-27.018
1400.0	0.049	-26.264
1500.0	0.053	-25.493
1600.0	0.058	-24.718
1700.0	0.063	-23.983
1800.0	0.069	-23.236
1900.0	0.075	-22.551
2000.0	0.081	-21.796
2100.0	0.089	-21.044
2200.0	0.096	-20.336
2300.0	0.105	-19.555
2400.0	0.115	-18.805
2500.0	0.127	-17.941
2600.0	0.140	-17.099
2700.0	0.157	-16.103
2800.0	0.173	-15.215
2900.0	0.195	-14.212
3000.0	0.220	-13.170
3100.0	0.248	-12.098
3200.0	0.285	-10.904
3300.0	0.326	-9.726
3400.0	0.376	-8.489
3500.0	0.427	-7.396
3600.0	0.472	-6.534
3700.0	0.522	-5.659
3800.0	0.574	-4.836
3900.0	0.613	-4.272
4000.0	0.644	-3.840
4100.0	0.609	-4.327
4200.0	0.453	-6.890
4300.0	0.373	-8.575
4400.0	0.329	-9.677
4500.0	0.290	-10.785
4600.0	0.265	-11.569
4700.0	0.243	-12.302
4800.0	0.222	-13.097
4900.0	0.207	-13.719
5000.0	0.197	-14.128
5100.0	0.185	-14.664
5200.0	0.175	-15.159
5300.0	0.167	-15.541
5400.0	0.160	-15.943
5500.0	0.151	-16.408
5600.0	0.144	-16.849
5700.0	0.138	-17.175
5800.0	0.133	-17.495
5900.0	0.127	-17.905
6000.0	0.123	-18.205
6100.0	0.119	-18.461
6200.0	0.115	-18.803
6300.0	0.112	-18.994
6400.0	0.109	-19.289
6500.0	0.105	-19.556
6600.0	0.103	-19.784
6700.0	0.100	-20.006
6800.0	0.097	-20.272
6900.0	0.094	-20.570
7000.0	0.092	-20.751
7100.0	0.089	-21.006
7200.0	0.088	-21.148
7300.0	0.085	-21.384
7400.0	0.084	-21.528
7500.0	0.082	-21.714
7600.0	0.080	-21.930
7700.0	0.078	-22.104
7800.0	0.077	-22.238
7900.0	0.076	-22.437
8000.0	0.074	-22.632
8100.0	0.073	-22.783
8200.0	0.072	-22.906
8300.0	0.069	-23.171
8400.0	0.068	-23.306
8500.0	0.068	-23.364
8600.0	0.067	-23.536
8700.0	0.065	-23.765
8800.0	0.064	-23.840
8900.0	0.063	-24.013
9000.0	0.061	-24.232
9100.0	0.062	-24.195
9200.0	0.060	-24.436
9300.0	0.059	-24.571
9400.0	0.058	-24.736
9500.0	0.057	-24.882
9600.0	0.056	-25.051
9700.0	0.056	-25.110
9800.0	0.055	-25.234
9900.0	0.054	-25.335
10000.0	0.053	-25.440
