
TIME STEP:
125 = 1ms

VOLTAGE STEP:
CH1:  32 = 1V
CH2:  32 = 3V
GND	127	128
N	CH1	CH2

0	143	117
1	137	114
2	131	114
3	127	114
4	124	116
5	123	116
6	122	119
7	123	119
8	124	119
9	126	119
10	127	119
11	126	114
12	124	114
13	122	114
14	116	107
15	112	107
16	108	103
17	105	103
18	103	106
19	104	106
20	106	106
21	111	113
22	117	114
23	124	121
24	132	120
25	139	121
26	144	123
27	148	123
28	151	120
29	150	119
30	148	120
31	144	116
32	141	116
33	138	116
34	135	116
35	132	117
36	132	120
37	132	120
38	133	123
39	135	123
40	137	123
41	137	122
42	137	123
43	133	116
44	129	116
45	124	107
46	117	107
47	111	108
48	105	104
49	103	104
50	100	107
51	100	106
52	102	106
53	107	113
54	113	112
55	120	118
56	127	119
57	133	119
58	137	119
59	140	119
60	142	116
61	141	116
62	140	115
63	137	115
64	136	114
65	135	117
66	135	116
67	135	123
68	138	122
69	140	122
70	143	127
71	147	127
72	147	126
73	147	126
74	147	126
75	140	120
76	136	119
77	129	110
78	120	110
79	115	107
80	108	106
81	103	107
82	102	108
83	102	108
84	103	114
85	108	114
86	112	114
87	118	117
88	123	117
89	127	116
90	130	116
91	131	116
92	131	112
93	130	112
94	129	111
95	128	111
96	127	111
97	129	116
98	131	116
99	135	124
100	139	123
101	143	128
102	149	129
103	153	129
104	155	128
105	155	128
106	153	122
107	147	122
108	142	122
109	134	114
110	127	114
111	120	111
112	114	111
113	109	111
114	108	113
115	108	113
116	109	116
117	112	117
118	116	117
119	119	118
120	123	118
121	124	114
122	123	114
123	123	110
124	120	110
125	119	109
126	117	110
127	117	110
128	117	115
129	122	115
130	124	115
131	131	123
132	137	123
133	144	130
134	151	130
135	155	130
136	157	128
137	158	130
138	155	123
139	151	123
140	145	120
141	139	117
142	132	118
143	126	116
144	121	116
145	119	119
146	118	119
147	118	119
148	119	122
149	121	122
150	123	120
151	123	120
152	124	119
153	123	114
154	119	114
155	116	109
156	112	108
157	110	109
158	108	108
159	107	107
160	109	114
161	114	114
162	118	121
163	126	123
164	133	123
165	140	128
166	148	128
167	152	128
168	155	128
169	155	128
170	153	123
171	149	123
172	144	120
173	139	120
174	136	120
175	132	121
176	129	120
177	128	124
178	128	124
179	129	124
180	131	126
181	132	127
182	132	123
183	131	123
184	128	117
185	123	116
186	119	116
187	114	110
188	108	109
189	105	108
190	103	109
191	101	109
192	104	115
193	108	115
194	113	122
195	121	122
196	128	122
197	135	127
198	141	126
199	145	126
200	147	126
201	148	126
202	145	122
203	143	122
204	140	122
205	138	121
206	135	124
207	135	124
208	135	124
209	137	130
210	139	130
211	141	132
212	143	132
213	143	132
214	142	127
215	139	128
216	135	120
217	128	119
218	123	119
219	115	112
220	108	113
221	104	111
222	101	111
223	101	115
224	103	117
225	106	116
226	111	123
227	118	122
228	124	125
229	129	124
230	133	125
231	136	123
232	137	123
233	137	120
234	135	120
235	134	120
236	132	121
237	132	121
238	132	127
239	135	127
240	137	126
241	143	133
242	145	134
243	149	136
244	151	135
245	152	133
246	150	131
247	147	131
248	141	124
249	134	124
250	128	117
251	119	118
252	113	118
253	108	116
254	105	116
255	104	120
256	107	120
257	108	120
258	113	124
259	118	124
260	121	124
261	124	124
262	127	124
263	127	120
264	127	120
265	126	118
266	124	118
267	123	120
268	123	120
269	124	120
270	127	127
271	132	127
272	136	135
273	143	135
274	149	136
275	153	138
276	156	138
277	157	134
278	155	134
279	152	134
280	146	127
281	139	127
282	132	122
283	125	122
284	120	123
285	116	123
286	113	122
287	113	126
288	114	126
289	116	127
290	119	127
291	121	128
292	123	125
293	123	125
294	123	120
295	119	120
296	117	119
297	115	116
298	112	116
299	112	120
300	114	119
301	115	119
302	122	128
303	128	128
304	135	136
305	143	136
306	148	136
307	153	138
308	156	138
309	157	134
310	155	135
311	152	130
312	145	129
313	140	129
314	135	127
315	130	127
316	126	129
317	124	129
318	123	129
319	124	132
320	126	132
321	127	132
322	128	132
323	128	132
324	126	127
325	123	127
326	119	119
327	115	120
328	111	118
329	107	116
330	105	117
331	104	120
332	107	120
333	109	127
334	117	128
335	123	128
336	131	135
337	139	135
338	144	137
339	149	137
340	151	137
341	152	134
342	151	134
343	147	130
344	143	130
345	140	130
346	136	131
347	133	130
348	132	135
349	133	135
350	134	138
351	136	139
352	137	138
353	139	138
354	138	137
355	137	131
356	131	130
357	127	131
358	120	122
359	114	122
360	109	119
361	104	119
362	101	119
363	101	122
364	103	122
365	106	129
366	112	129
367	118	128
368	126	134
369	133	134
370	137	135
371	140	135
372	143	132
373	143	131
374	142	131
375	139	130
376	136	130
377	136	132
378	135	132
379	135	132
380	137	139
381	140	139
382	142	143
383	146	143
384	148	143
385	148	141
386	148	142
387	144	135
388	138	134
389	132	132
390	124	127
391	116	127
392	111	123
393	106	123
394	103	125
395	103	125
396	103	125
397	107	130
398	112	131
399	116	134
400	123	134
401	127	134
402	130	132
403	132	132
404	132	129
405	131	129
406	130	129
407	128	128
408	128	128
409	128	133
410	131	133
411	133	138
412	138	140
413	143	141
414	147	146
415	152	146
416	155	145
417	155	144
418	154	145
419	150	138
420	144	138
421	138	130
422	129	130
423	123	130
424	116	128
425	112	128
426	108	130
427	109	130
428	109	131
429	112	134
430	115	134
431	119	135
432	122	135
433	124	132
434	124	131
435	123	131
436	122	127
437	120	127
438	118	127
439	117	127
440	117	127
441	120	133
442	124	132
443	128	141
444	136	142
445	141	141
446	148	147
447	153	147
448	156	146
449	157	146
450	156	146
451	152	139
452	147	140
453	141	134
454	134	134
455	128	134
456	123	134
457	120	133
458	118	136
459	118	136
460	119	139
461	120	139
462	123	139
463	123	137
464	124	137
465	123	131
466	120	131
467	118	131
468	113	125
469	111	125
470	108	126
471	108	126
472	108	127
473	113	132
474	116	132
475	124	140
476	131	140
477	138	145
478	145	146
479	151	146
480	154	145
481	155	145
482	154	140
483	150	140
484	146	140
485	141	138
486	136	138
487	132	138
488	129	138
489	128	138
490	128	142
491	129	142
492	129	143
493	131	143
494	132	142
495	131	140
496	129	140
497	125	132
498	120	133
499	116	126
500	109	126
501	105	126
502	103	126
503	102	126
504	102	131
505	107	131
506	111	132
507	119	139
508	126	139
509	132	143
510	139	143
511	144	143
512	146	142
513	147	142
514	147	139
515	144	139
516	141	138
517	139	138
518	135	138
519	135	141
520	135	141
521	135	147
522	139	146
523	140	147
524	142	148
525	143	148
526	143	143
527	140	143
528	137	143
529	130	135
530	124	135
531	117	128
532	110	128
533	105	129
534	102	128
535	100	128
536	101	133
537	105	132
538	108	138
539	115	138
540	121	138
541	127	140
542	131	140
543	135	138
544	136	138
545	137	138
546	136	136
547	133	136
548	132	137
549	132	136
550	131	137
551	135	142
552	136	142
553	140	149
554	144	148
555	147	149
556	151	151
557	152	151
558	151	147
559	147	146
560	144	138
561	135	138
562	128	138
563	121	131
564	113	131
565	108	131
566	105	132
567	103	131
568	104	135
569	107	135
570	111	139
571	115	139
572	119	139
573	123	139
574	125	138
575	127	135
576	126	135
577	125	133
578	124	132
579	122	132
580	122	135
581	123	135
582	125	141
583	131	142
584	134	142
585	141	150
586	147	149
587	151	151
588	155	151
589	156	152
590	155	147
591	152	148
592	147	140
593	140	140
594	134	140
595	126	135
596	120	135
597	116	136
598	112	136
599	111	138
600	112	139
601	114	139
602	116	140
603	119	140
604	122	138
605	122	138
606	123	138
607	119	132
608	117	132
609	115	129
610	113	130
611	111	130
612	112	132
613	114	132
614	118	140
615	125	140
616	130	140
617	139	148
618	144	148
619	151	150
620	155	150
621	156	147
622	155	147
623	152	147
624	147	141
625	142	141
626	136	139
627	131	138
628	126	138
629	123	139
630	123	140
631	122	143
632	124	143
633	125	143
634	126	143
635	127	144
636	126	138
637	123	138
638	121	138
639	116	131
640	112	131
641	108	127
642	105	127
643	103	130
644	104	130
645	106	130
646	111	138
647	119	138
648	125	145
649	133	145
650	140	145
651	145	147
652	149	147
653	150	143
654	149	143
655	148	143
656	144	140
657	140	139
658	136	139
659	133	139
660	131	141
661	132	143
662	132	143
663	133	147
664	135	147
665	136	146
666	136	146
667	136	146
668	132	139
669	128	139
670	123	131
671	116	131
672	111	131
673	105	127
674	101	127
675	99	130
676	100	130
677	102	129
678	107	136
679	113	136
680	119	141
681	128	141
682	133	142
683	137	142
684	140	142
685	142	139
686	140	139
687	139	138
688	137	137
689	135	137
690	133	139
691	133	139
692	134	146
693	136	146
694	139	146
695	143	149
696	145	149
697	147	147
698	146	148
699	145	148
700	139	140
701	134	140
702	127	132
703	119	132
704	112	129
705	107	129
706	103	128
707	100	131
708	101	130
709	102	135
710	108	136
711	112	136
712	118	138
713	123	139
714	127	138
715	129	138
716	131	137
717	130	133
718	129	134
719	128	132
720	127	132
721	127	133
722	128	138
723	130	138
724	133	144
725	139	145
726	143	149
727	148	150
728	152	150
729	153	148
730	153	148
731	151	142
732	145	141
733	140	141
734	132	134
735	124	134
736	118	131
737	112	131
738	108	131
739	107	133
740	107	133
741	108	137
742	112	136
743	115	137
744	118	136
745	121	137
746	122	133
747	122	134
748	121	129
749	119	129
750	117	128
751	116	128
752	115	128
753	116	134
754	120	134
755	124	134
756	131	142
757	137	142
758	143	148
759	149	147
760	155	148
761	155	146
762	156	147
763	153	140
764	148	141
765	143	138
766	135	135
767	129	135
768	124	133
769	120	133
770	117	136
771	116	136
772	116	136
773	119	139
774	120	138
775	122	137
776	122	137
777	123	136
778	120	130
779	118	131
780	114	125
781	111	125
782	108	125
783	106	124
784	105	124
785	108	131
786	112	131
787	117	137
788	125	138
789	132	139
790	139	144
791	146	144
792	151	143
793	152	143
794	153	143
795	151	138
796	147	138
797	143	135
798	137	135
799	133	134
800	129	136
801	127	135
802	127	139
803	127	139
804	127	139
805	129	141
806	131	141
807	131	136
808	128	137
809	127	130
810	120	130
811	117	129
812	111	123
813	105	123
814	103	122
815	100	122
816	99	122
817	103	127
818	107	128
819	112	135
820	120	135
821	127	135
822	135	139
823	139	139
824	143	138
825	145	137
826	146	138
827	143	134
828	140	134
829	138	132
830	135	132
831	133	135
832	133	135
833	132	135
834	135	140
835	137	140
836	139	142
837	140	142
838	141	142
839	140	138
840	136	138
841	132	130
842	125	129
843	120	130
844	112	122
845	106	122
846	101	122
847	99	122
848	99	124
849	101	126
850	104	126
851	110	131
852	116	131
853	122	134
854	127	133
855	132	134
856	134	131
857	135	131
858	135	128
859	133	129
860	132	128
861	131	129
862	130	130
863	131	135
864	133	135
865	135	135
866	140	141
867	143	141
868	147	143
869	149	143
870	150	139
871	148	138
872	144	138
873	138	130
874	131	130
875	124	123
876	116	123
877	109	123
878	105	123
879	103	123
880	102	127
881	105	126
882	107	126
883	111	130
884	116	130
885	119	129
886	123	129
887	125	128
888	124	125
889	124	125
890	123	123
891	121	122
892	120	124
893	121	125
894	122	124
895	125	131
896	131	131
897	135	139
898	142	139
899	147	139
900	151	141
901	155	141
902	155	136
903	151	137
904	149	137
905	143	129
906	135	130
907	129	124
908	122	124
909	117	125
910	112	125
911	111	125
912	111	128
913	112	128
914	114	130
915	117	130
916	119	130
917	120	126
918	120	126
919	120	120
920	117	120
921	116	120
922	112	117
923	110	117
924	110	120
925	111	120
926	113	120
927	119	128
928	126	128
929	132	135
930	140	135
931	146	136
932	151	138
933	154	138
934	155	134
935	152	134
936	150	128
937	144	128
938	139	128
939	132	125
940	128	126
941	124	127
942	122	127
943	120	127
944	122	130
945	123	130
946	124	130
947	125	130
948	127	130
949	123	124
950	122	125
951	117	117
952	112	117
953	109	115
954	105	113
955	102	114
956	102	116
957	104	116
958	106	123
959	113	124
960	119	124
961	127	131
962	135	130
963	140	132
964	145	132
965	149	132
966	149	130
967	148	129
968	145	125
969	141	125
970	138	125
971	135	125
972	131	125
973	130	128
974	131	129
975	131	131
976	133	132
977	135	132
978	136	131
979	135	131
980	134	124
981	129	124
982	125	124
983	119	115
984	112	116
985	107	111
986	102	112
987	99	112
988	99	115
989	99	114
990	103	120
991	109	121
992	115	121
993	124	126
994	129	126
995	134	127
996	139	127
997	140	124
998	140	123
999	139	123
1000	137	122
1001	135	122
1002	132	123
1003	133	123
1004	132	123
1005	135	130
1006	137	129
1007	140	133
1008	143	133
1009	145	134
1010	145	132
1011	144	132
1012	141	124
1013	136	124
1014	131	122
1015	123	117
1016	115	116
1017	109	112
1018	104	112
1019	100	114
1020	100	114
1021	101	115
1022	104	119
1023	109	119
1024	114	122
1025	120	122
1026	124	122
1027	127	121
1028	129	121
1029	131	117
1030	128	117
1031	128	117
1032	127	116
1033	127	116
1034	126	121
1035	128	120
1036	131	124
1037	136	127
1038	140	128
1039	144	132
1040	149	132
1041	152	131
1042	152	131
1043	152	131
1044	148	125
1045	142	124
1046	136	118
1047	128	117
1048	121	117
1049	115	114
1050	109	114
1051	107	116
1052	107	116
1053	106	116
1054	109	119
1055	112	119
1056	116	119
1057	119	120
1058	121	117
1059	122	116
1060	121	116
1061	120	111
1062	118	111
1063	116	111
1064	115	111
1065	115	111
1066	117	117
1067	121	116
1068	125	125
1069	133	124
1070	139	125
1071	146	131
1072	151	130
1073	154	130
1074	155	130
1075	155	129
1076	151	124
1077	146	123
1078	140	118
1079	132	118
1080	127	116
1081	122	116
1082	118	116
1083	116	119
1084	116	119
1085	116	122
1086	119	121
1087	120	121
1088	121	119
1089	123	119
1090	122	114
1091	119	113
1092	116	113
1093	112	108
1094	109	108
1095	107	107
1096	106	108
1097	107	108
1098	110	112
1099	115	113
1100	120	122
1101	129	121
1102	135	126
1103	143	126
1104	148	126
1105	151	126
1106	152	126
1107	152	121
1108	149	121
1109	145	122
1110	140	117
1111	135	117
1112	131	118
1113	129	118
1114	127	118
1115	127	122
1116	127	122
1117	128	123
1118	130	123
1119	131	122
1120	129	120
1121	128	120
1122	124	112
1123	119	113
1124	115	106
1125	108	106
1126	104	106
1127	101	105
1128	100	106
1129	101	110
1130	104	111
1131	108	111
1132	116	118
1133	124	118
1134	131	122
1135	137	122
1136	142	122
1137	145	121
1138	145	121
1139	145	117
1140	143	117
1141	140	116
1142	137	116
1143	135	116
1144	133	119
1145	133	119
1146	133	124
1147	136	124
1148	139	124
1149	140	126
1150	141	126
1151	141	122
1152	139	122
1153	136	122
1154	129	113
1155	123	113
1156	116	106
1157	109	106
1158	105	107
1159	101	105
1160	99	106
1161	100	110
1162	103	110
1163	107	115
1164	114	116
1165	120	116
1166	125	118
1167	131	118
1168	134	115
1169	135	115
1170	136	116
1171	135	113
1172	132	112
1173	132	114
1174	131	113
1175	131	114
1176	133	119
1177	135	119
1178	139	125
1179	143	126
1180	145	125
1181	149	127
1182	151	127
1183	150	124
1184	147	123
1185	143	115
1186	136	114
1187	128	115
1188	120	108
1189	113	108
1190	108	108
1191	104	108
1192	102	108
1193	104	111
1194	106	111
1195	109	115
1196	115	115
1197	119	115
1198	122	115
1199	124	115
1200	126	111
1201	126	111
1202	125	109
1203	123	108
1204	122	108
1205	122	110
1206	123	111
1207	124	117
1208	129	118
1209	134	118
1210	140	125
1211	145	125
1212	150	127
1213	154	127
1214	156	127
1215	155	123
1216	152	124
1217	148	116
1218	140	116
1219	134	117
1220	127	111
1221	120	111
1222	116	111
1223	112	111
1224	111	114
1225	112	114
1226	113	115
1227	116	116
1228	119	116
1229	121	114
1230	121	113
1231	121	113
1232	119	108
1233	117	108
1234	115	105
1235	112	105
1236	110	105
1237	112	107
1238	114	108
1239	117	115
1240	123	115
1241	129	115
1242	137	123
1243	143	123
1244	149	126
1245	153	125
1246	156	123
1247	155	122
1248	152	122
1249	148	117
1250	142	116
1251	137	114
1252	131	114
1253	127	114
1254	124	115
1255	123	115
1256	122	119
1257	124	119
1258	125	119
1259	126	119
1260	127	119
1261	126	114
1262	124	114
1263	122	114
1264	116	107
1265	113	107
1266	108	103
1267	105	103
1268	103	106
1269	104	106
1270	106	106
1271	111	113
1272	118	114
1273	123	121
1274	132	120
1275	139	120
1276	144	122
1277	149	123
1278	151	120
1279	150	120
1280	149	120
1281	145	116
1282	141	116
1283	138	116
1284	135	116
1285	132	117
1286	132	120
1287	132	119
1288	133	123
1289	136	123
1290	136	123
1291	137	123
1292	137	122
1293	133	116
1294	129	116
1295	124	108
1296	117	107
1297	111	108
1298	106	104
1299	102	104
1300	100	106
1301	100	106
1302	102	106
1303	107	113
1304	113	113
1305	120	118
1306	127	118
1307	133	119
1308	137	120
1309	140	119
1310	141	116
1311	141	116
1312	140	114
1313	138	114
1314	135	114
1315	135	117
1316	134	116
1317	134	122
1318	137	122
1319	140	122
1320	143	127
1321	146	127
1322	147	126
1323	147	126
1324	146	126
1325	140	119
1326	135	119
1327	129	110
1328	120	111
1329	115	107
1330	108	106
1331	103	107
1332	101	109
1333	102	109
1334	103	114
1335	107	114
1336	112	114
1337	118	117
1338	123	117
1339	127	116
1340	130	116
1341	131	116
1342	131	112
1343	131	113
1344	129	111
1345	128	112
1346	127	112
1347	129	116
1348	130	116
1349	135	123
1350	139	124
1351	143	128
1352	149	129
1353	153	129
1354	154	128
1355	155	128
1356	152	122
1357	147	122
1358	142	122
1359	134	114
1360	127	114
1361	120	111
1362	115	111
1363	110	111
1364	108	113
1365	108	113
1366	109	116
1367	112	117
1368	116	117
1369	119	117
1370	122	118
1371	123	114
1372	123	114
1373	123	110
1374	120	110
1375	118	110
1376	117	110
1377	117	109
1378	118	115
1379	121	115
1380	124	115
1381	131	123
1382	138	123
1383	144	130
1384	150	130
1385	155	130
1386	157	128
1387	157	129
1388	155	123
1389	151	123
1390	145	120
1391	138	118
1392	132	117
1393	127	116
1394	122	116
1395	119	119
1396	117	119
1397	118	119
1398	119	121
1399	121	121
1400	123	120
1401	124	120
1402	124	120
1403	122	114
1404	119	114
1405	116	108
1406	112	109
1407	110	109
1408	108	108
1409	108	108
1410	108	114
1411	113	114
1412	119	121
1413	127	123
1414	133	123
1415	141	128
1416	147	128
1417	152	127
1418	155	127
1419	155	127
1420	153	124
1421	149	123
1422	145	120
1423	140	120
1424	135	120
1425	132	121
1426	129	121
1427	128	125
1428	128	125
1429	129	124
1430	131	127
1431	132	127
1432	132	124
1433	131	123
1434	129	117
1435	123	116
1436	119	116
1437	114	110
1438	108	110
1439	105	109
1440	103	108
1441	102	109
1442	104	115
1443	108	115
1444	113	122
1445	121	123
1446	128	122
1447	135	127
1448	141	126
1449	145	125
1450	147	126
1451	147	125
1452	146	122
1453	143	122
1454	140	122
1455	137	121
1456	136	124
1457	136	125
1458	135	124
1459	136	130
1460	139	130
1461	140	132
1462	143	132
1463	144	132
1464	142	128
1465	140	127
1466	135	120
1467	128	120
1468	123	119
1469	115	112
1470	109	113
1471	104	112
1472	101	111
1473	101	114
1474	103	117
1475	105	117
1476	111	122
1477	118	122
1478	123	124
1479	129	125
1480	134	125
1481	136	122
1482	137	123
1483	137	120
1484	135	120
1485	134	120
1486	132	121
1487	132	121
1488	132	127
1489	136	127
1490	137	127
1491	143	133
1492	146	133
1493	149	136
1494	151	136
1495	152	133
1496	150	131
1497	147	131
1498	141	123
1499	134	124
1500	128	118
1501	119	117
1502	112	117
1503	108	116
1504	106	116
1505	105	120
1506	106	120
1507	108	121
1508	112	124
1509	118	124
1510	121	124
1511	125	124
1512	127	124
1513	127	120
1514	127	121
1515	126	118
1516	124	118
1517	123	119
1518	123	120
1519	124	120
1520	127	127
1521	132	127
1522	136	135
1523	144	135
1524	149	135
1525	153	138
1526	156	138
1527	157	134
1528	155	134
1529	153	135
1530	146	127
1531	139	127
1532	132	123
1533	125	122
1534	119	123
1535	116	122
1536	113	122
1537	113	126
1538	114	126
1539	116	127
1540	119	128
1541	121	127
1542	123	125
1543	123	125
1544	123	120
1545	120	119
1546	117	119
1547	115	117
1548	113	116
1549	112	119
1550	113	119
1551	115	119
1552	122	128
1553	128	128
1554	135	136
1555	143	136
1556	148	136
1557	154	138
1558	156	138
1559	156	134
1560	155	135
1561	152	129
1562	145	129
1563	140	130
1564	135	127
1565	130	127
1566	126	129
1567	124	129
1568	123	129
1569	125	133
1570	126	133
1571	127	132
1572	128	132
1573	128	132
1574	126	127
1575	123	127
1576	120	120
1577	115	120
1578	111	118
1579	107	117
1580	104	116
1581	104	120
1582	107	121
1583	109	128
1584	116	128
1585	123	128
1586	131	135
1587	139	135
1588	143	137
1589	149	137
1590	151	136
1591	151	134
1592	151	133
1593	148	130
1594	144	131
1595	139	131
1596	136	130
1597	134	131
1598	132	135
1599	133	135
1600	133	138
1601	136	138
1602	138	138
1603	137	137
1604	137	138
1605	136	131
1606	131	131
1607	127	130
1608	120	122
1609	114	123
1610	108	119
1611	104	119
1612	101	119
1613	101	122
1614	102	122
1615	106	129
1616	112	128
1617	119	128
1618	125	134
1619	132	135
1620	137	135
1621	141	134
1622	143	132
1623	143	131
1624	141	131
1625	139	130
1626	137	130
1627	135	133
1628	135	133
1629	134	133
1630	137	139
1631	140	139
1632	143	143
1633	146	143
1634	148	143
1635	147	142
1636	147	142
1637	143	134
1638	138	135
1639	132	132
1640	124	126
1641	118	126
1642	111	123
1643	106	123
1644	102	126
1645	103	125
1646	103	125
1647	107	131
1648	112	130
1649	117	133
1650	122	134
1651	127	133
1652	130	132
1653	132	133
1654	132	129
1655	131	129
1656	130	129
1657	129	128
1658	128	128
1659	128	133
1660	131	133
1661	133	138
1662	139	140
1663	143	140
1664	148	146
1665	152	146
1666	155	145
1667	155	144
1668	154	144
1669	150	138
1670	143	138
1671	138	131
1672	129	131
1673	123	131
1674	116	128
1675	111	128
1676	109	130
1677	108	130
1678	109	130
1679	112	134
1680	115	134
1681	119	135
1682	121	134
1683	124	132
1684	124	131
1685	124	131
1686	122	127
1687	119	127
1688	119	126
1689	118	127
1690	117	127
1691	120	132
1692	124	132
1693	128	141
1694	136	142
1695	141	141
1696	148	147
1697	154	147
1698	156	146
1699	158	146
1700	157	146
1701	152	140
1702	148	140
1703	140	134
1704	134	134
1705	128	134
1706	123	134
1707	120	133
1708	119	136
1709	118	136
1710	119	139
1711	120	138
1712	123	139
1713	124	137
1714	124	137
1715	123	131
1716	119	131
1717	118	131
1718	113	125
1719	110	126
1720	108	126
1721	108	126
1722	108	127
1723	112	132
1724	117	132
1725	123	140
1726	132	140
1727	138	146
1728	145	146
1729	151	146
1730	154	144
1731	155	146
1732	155	140
1733	150	140
1734	147	140
1735	141	137
1736	136	137
1737	133	138
1738	130	138
1739	128	138
1740	128	142
1741	129	142
1742	130	143
1743	131	143
1744	132	142
1745	131	140
1746	129	140
1747	125	132
1748	120	133
1749	116	126
1750	110	126
1751	105	126
1752	103	126
1753	102	126
1754	102	131
1755	107	132
1756	111	132
1757	119	139
1758	126	139
1759	132	143
1760	139	143
1761	144	143
1762	146	142
1763	147	142
1764	147	138
1765	144	139
1766	141	138
1767	139	138
1768	136	138
1769	135	141
1770	135	141
1771	135	146
1772	138	146
1773	140	146
1774	141	148
1775	143	148
1776	143	143
1777	140	143
1778	137	143
1779	130	135
1780	124	135
1781	117	129
1782	109	129
1783	105	129
1784	102	128
1785	100	128
1786	101	133
1787	104	132
1788	108	138
1789	115	138
1790	121	138
1791	127	140
1792	131	140
1793	135	138
1794	136	138
1795	136	138
1796	135	135
1797	134	135
1798	132	137
1799	132	137
1800	131	136
1801	135	142
1802	136	143
1803	139	148
1804	144	148
1805	147	149
1806	151	151
1807	151	151
1808	151	146
1809	148	146
1810	143	139
1811	135	138
1812	129	138
1813	121	131
1814	113	131
1815	108	131
1816	105	132
1817	104	131
1818	105	136
1819	107	136
1820	111	139
1821	115	139
1822	119	139
1823	123	139
1824	125	139
1825	127	135
1826	126	135
1827	125	133
1828	124	131
1829	122	132
1830	123	135
1831	124	135
1832	124	141
1833	131	142
1834	134	142
1835	141	149
1836	147	149
1837	151	151
1838	155	151
1839	156	151
1840	155	147
1841	152	147
1842	147	140
1843	140	140
1844	134	140
1845	126	135
1846	120	135
1847	115	136
1848	112	136
1849	112	138
1850	112	139
1851	114	139
1852	116	140
1853	119	140
1854	121	138
1855	122	137
1856	122	138
1857	119	132
1858	117	132
1859	115	129
1860	112	129
1861	111	129
1862	111	132
1863	113	132
1864	117	140
1865	125	140
1866	130	140
1867	138	148
1868	145	148
1869	150	150
1870	154	150
1871	156	147
1872	155	146
1873	152	146
1874	148	141
1875	141	141
1876	136	138
1877	131	138
1878	127	138
1879	124	140
1880	123	140
1881	123	143
1882	123	143
1883	125	143
1884	126	143
1885	126	143
1886	126	138
1887	123	138
1888	122	138
1889	116	131
1890	111	131
1891	108	127
1892	105	127
1893	103	130
1894	104	130
1895	106	130
1896	112	138
1897	118	138
1898	124	145
1899	133	145
1900	139	145
1901	145	147
1902	149	147
1903	151	143
1904	150	143
1905	148	143
1906	144	140
1907	140	139
1908	136	139
1909	133	139
1910	131	140
1911	131	143
1912	132	143
1913	133	147
1914	135	147
1915	136	146
1916	136	146
1917	136	146
1918	132	139
1919	128	139
1920	124	131
1921	116	131
1922	111	131
1923	105	127
1924	101	127
1925	99	130
1926	100	130
1927	102	130
1928	107	136
1929	114	136
1930	120	141
1931	127	141
1932	133	142
1933	137	142
1934	140	142
1935	141	138
1936	140	139
1937	139	137
1938	137	137
1939	135	137
1940	133	139
1941	133	139
1942	133	146
1943	137	146
1944	139	146
1945	143	149
1946	145	149
1947	147	148
1948	146	148
1949	144	148
1950	139	140
1951	134	140
1952	127	132
1953	119	132
1954	112	129
1955	107	129
1956	102	128
1957	100	131
1958	101	131
1959	103	136
1960	107	135
1961	112	135
1962	117	139
1963	123	139
1964	127	137
1965	129	137
1966	131	137
1967	130	134
1968	129	134
1969	128	132
1970	127	132
1971	126	133
1972	128	138
1973	129	138
1974	133	146
1975	139	145
1976	143	149
1977	148	149
1978	152	150
1979	153	148
1980	153	149
1981	151	141
1982	145	141
1983	140	141
1984	132	134
1985	125	134
1986	118	131
1987	112	131
1988	108	131
1989	107	133
1990	107	133
1991	108	137
1992	112	137
1993	115	138
1994	118	137
1995	121	137
1996	122	133
1997	121	132
1998	121	129
1999	119	128
2000	117	128
2001	116	128
2002	116	128
2003	116	134
2004	120	134
2005	123	134
2006	130	142
2007	137	142
2008	143	148
2009	149	148
2010	153	148
2011	156	147
2012	155	146
2013	153	140
2014	148	140
2015	143	138
2016	136	135
2017	130	135
2018	124	134
2019	120	133
2020	116	135
2021	116	136
2022	116	136
2023	118	139
2024	119	138
2025	122	136
2026	123	136
2027	123	136
2028	120	131
2029	117	130
2030	115	125
2031	110	124
2032	107	125
2033	107	124
2034	106	124
2035	108	130
2036	112	130
2037	117	137
2038	125	139
2039	132	139
2040	139	144
2041	146	143
2042	151	143
2043	152	143
2044	153	143
2045	151	138
2046	147	138
2047	143	135
2048	137	135
2049	133	134
2050	129	135
2051	127	135
2052	126	139
2053	127	139
2054	127	139
2055	129	141
2056	131	140
2057	131	137
2058	128	137
2059	127	131
2060	121	129
2061	116	130
2062	111	123
2063	105	123
2064	102	122
2065	100	122
2066	99	122
2067	103	127
2068	107	127
2069	112	135
2070	120	135
2071	127	135
2072	134	139
2073	140	138
2074	143	138
2075	144	138
2076	146	138
2077	143	134
2078	140	134
2079	138	132
2080	135	133
2081	133	135
2082	132	136
2083	132	136
2084	135	140
2085	137	140
2086	139	142
2087	140	142
2088	141	142
2089	139	138
2090	136	138
2091	132	129
2092	125	130
2093	119	130
2094	112	122
2095	105	122
2096	102	122
2097	99	122
2098	99	124
2099	101	126
2100	104	126
2101	110	131
2102	116	131
2103	122	134
2104	128	133
2105	132	134
2106	134	131
2107	135	131
2108	135	128
2109	133	128
2110	131	128
2111	131	130
2112	130	129
2113	131	134
2114	133	135
2115	135	135
2116	140	141
2117	144	141
2118	147	142
2119	149	143
2120	151	139
2121	148	138
2122	144	138
2123	138	130
2124	131	130
2125	124	123
2126	116	123
2127	110	123
2128	105	122
2129	103	123
2130	103	127
2131	104	126
2132	107	126
2133	111	130
2134	116	130
2135	120	129
2136	122	129
2137	126	129
2138	124	125
2139	124	124
2140	123	123
2141	121	122
2142	120	124
2143	121	124
2144	122	124
2145	126	132
2146	130	131
2147	135	139
2148	142	139
2149	147	139
2150	151	141
2151	154	141
2152	155	137
2153	152	137
2154	149	137
2155	143	130
2156	136	130
2157	128	124
2158	122	124
2159	116	125
2160	113	124
2161	111	125
2162	111	128
2163	112	128
2164	114	129
2165	117	129
2166	119	130
2167	120	126
2168	120	126
2169	120	120
2170	117	120
2171	115	120
2172	112	117
2173	110	117
2174	109	120
2175	111	120
2176	113	120
2177	120	128
2178	125	127
2179	132	135
2180	140	135
2181	145	136
2182	151	138
2183	155	138
2184	154	134
2185	152	134
2186	150	129
2187	144	128
2188	139	128
2189	133	125
2190	127	125
2191	124	127
2192	122	127
2193	121	127
2194	121	130
2195	123	131
2196	124	130
2197	125	130
2198	126	130
2199	124	125
2200	122	124
2201	118	117
2202	112	117
2203	108	114
2204	105	113
2205	103	114
2206	101	116
2207	104	116
2208	106	124
2209	113	124
2210	119	124
2211	127	131
2212	135	130
2213	141	132
2214	146	132
2215	149	132
2216	149	130
2217	148	130
2218	145	125
2219	141	125
2220	138	125
2221	135	125
2222	132	125
2223	131	129
2224	131	129
2225	132	131
2226	133	132
2227	135	132
2228	136	131
2229	135	131
2230	134	124
2231	129	124
2232	126	124
2233	119	116
2234	112	116
2235	107	111
2236	102	111
2237	99	111
2238	99	114
2239	99	114
2240	103	121
2241	110	121
2242	115	121
2243	123	126
2244	129	126
2245	135	126
2246	138	126
2247	140	123
2248	139	123
2249	139	123
2250	138	121
2251	135	122
2252	133	123
2253	133	124
2254	132	124
2255	135	129
2256	137	129
2257	140	134
2258	143	133
2259	145	134
2260	145	132
2261	145	132
2262	142	124
2263	136	124
2264	131	122
2265	123	116
2266	115	116
2267	110	112
2268	104	112
2269	100	114
2270	100	114
2271	100	114
2272	104	119
2273	109	119
2274	113	122
2275	120	122
2276	124	122
2277	127	121
2278	129	120
2279	130	117
2280	129	117
2281	128	117
2282	127	116
2283	126	116
2284	127	120
2285	128	120
2286	131	124
2287	135	128
2288	140	127
2289	145	133
2290	149	133
2291	152	131
2292	152	131
2293	152	131
2294	147	124
2295	142	124
2296	136	117
2297	128	117
2298	121	117
2299	115	114
2300	109	114
2301	107	116
2302	107	116
2303	107	116
2304	110	120
2305	113	119
2306	116	120
2307	119	120
2308	121	117
2309	121	116
2310	122	116
2311	120	111
2312	117	111
2313	116	111
2314	115	111
2315	115	111
2316	118	116
2317	121	117
2318	125	125
2319	133	125
2320	139	125
2321	145	131
2322	151	131
2323	155	130
2324	155	130
2325	156	130
2326	151	123
2327	147	123
2328	140	118
2329	133	118
2330	127	116
2331	122	116
2332	117	116
2333	116	119
2334	116	119
2335	116	121
2336	119	121
2337	121	121
2338	121	119
2339	123	119
2340	122	113
2341	119	113
2342	116	113
2343	112	108
2344	109	107
2345	107	107
2346	106	107
2347	106	109
2348	110	113
2349	114	113
2350	120	122
2351	128	122
2352	135	126
2353	143	127
2354	148	127
2355	151	126
2356	152	126
2357	152	121
2358	149	122
2359	145	121
2360	140	118
2361	136	117
2362	131	118
2363	129	118
2364	126	118
2365	127	122
2366	128	122
2367	128	124
2368	130	124
2369	131	122
2370	129	120
2371	128	120
2372	124	112
2373	119	112
2374	115	106
2375	108	106
2376	104	106
2377	102	106
2378	100	106
2379	101	111
2380	104	111
2381	108	111
2382	116	118
2383	123	118
2384	130	122
2385	138	122
2386	142	122
2387	144	121
2388	145	121
2389	145	117
2390	143	117
2391	140	117
2392	136	116
2393	135	116
2394	133	119
2395	133	119
2396	133	124
2397	136	124
2398	138	124
2399	140	126
2400	142	126
2401	142	122
2402	139	122
2403	136	122
2404	129	114
2405	123	114
2406	117	107
2407	109	107
2408	104	106
2409	101	106
2410	99	106
2411	100	110
2412	103	110
2413	107	115
2414	113	116
2415	119	116
2416	125	119
2417	131	117
2418	134	116
2419	135	116
2420	136	116
2421	135	112
2422	133	112
2423	132	114
2424	131	114
2425	131	114
2426	133	119
2427	135	119
2428	138	126
2429	143	125
2430	146	125
2431	149	127
2432	151	128
2433	150	123
2434	147	123
2435	143	115
2436	135	115
2437	128	115
2438	120	108
2439	113	108
2440	108	107
2441	105	108
2442	103	108
2443	103	111
2444	106	111
2445	109	115
2446	114	115
2447	119	115
2448	122	115
2449	125	114
2450	125	111
2451	125	111
2452	124	110
2453	123	108
2454	122	108
2455	122	110
2456	123	110
2457	124	117
2458	129	117
2459	133	118
2460	140	125
2461	146	125
2462	150	127
2463	154	127
2464	156	127
2465	155	124
2466	152	124
2467	148	116
2468	140	116
2469	134	116
2470	126	111
2471	120	111
2472	115	111
2473	112	111
2474	111	114
2475	112	115
2476	113	115
2477	116	116
2478	119	116
2479	121	114
2480	121	113
2481	122	114
2482	119	108
2483	117	108
2484	115	105
2485	112	105
2486	111	105
2487	111	107
2488	113	107
2489	117	115
2490	124	115
2491	128	116
2492	137	123
2493	144	123
2494	149	125
2495	153	126
2496	156	123
2497	155	122
2498	152	122
2499	148	116
2500	142	117
2501	137	114
2502	132	114
2503	127	114
2504	124	116
2505	123	116
2506	123	119
2507	123	119
2508	125	119
2509	126	119
2510	127	119
2511	126	114
2512	124	114
2513	123	114
2514	117	107
2515	112	107
2516	108	103
2517	105	103
2518	103	106
2519	104	106
2520	106	106
2521	111	114
2522	117	114
2523	124	121
2524	133	120
2525	139	121
2526	144	123
2527	148	123
2528	151	120
2529	151	120
2530	149	120
2531	145	116
2532	141	116
2533	137	116
2534	134	116
2535	132	117
2536	132	120
2537	132	120
2538	133	123
2539	136	123
2540	136	123
2541	137	123
2542	136	122
2543	133	116
2544	128	116
2545	125	107
2546	117	108
2547	111	108
2548	106	104
2549	102	104
2550	100	106
2551	100	106
2552	102	106
2553	108	113
2554	113	112
2555	119	118
2556	127	118
2557	132	119
2558	137	119
2559	141	119
2560	142	116
2561	141	116
2562	140	114
2563	138	114
2564	136	114
2565	134	116
2566	135	117
2567	134	123
2568	137	122
2569	140	122
2570	143	127
2571	146	127
2572	148	126
2573	147	126
2574	147	126
2575	141	119
2576	136	119
2577	129	111
2578	120	111
2579	114	108
2580	107	107
2581	103	106
2582	102	108
2583	102	108
2584	103	114
2585	108	114
2586	112	114
2587	118	117
2588	123	117
2589	127	116
2590	130	116
2591	131	116
2592	131	113
2593	131	113
2594	129	112
2595	128	112
2596	127	112
2597	129	116
2598	131	116
2599	135	124
2600	139	124
2601	144	128
2602	149	130
2603	152	130
2604	154	128
2605	154	128
2606	152	122
2607	147	122
2608	142	122
2609	135	114
2610	126	115
2611	120	111
2612	113	111
2613	109	111
2614	108	114
2615	108	113
2616	109	116
2617	112	117
2618	116	117
2619	119	118
2620	122	118
2621	123	114
2622	123	114
2623	123	110
2624	120	110
2625	119	109
2626	117	109
2627	117	110
2628	118	115
2629	121	115
2630	124	115
2631	131	124
2632	138	124
2633	144	129
2634	151	130
2635	155	129
2636	156	129
2637	157	128
2638	155	123
2639	150	123
2640	145	120
2641	139	117
2642	132	118
2643	127	116
2644	121	116
2645	119	119
2646	118	119
2647	117	119
2648	119	121
2649	122	121
2650	123	120
2651	123	120
2652	124	120
2653	122	115
2654	119	115
2655	116	108
2656	112	108
2657	111	108
2658	108	108
2659	107	108
2660	109	114
2661	113	114
2662	119	121
2663	126	123
2664	133	122
2665	141	129
2666	147	128
2667	152	128
2668	154	128
2669	155	128
2670	153	123
2671	149	123
2672	145	120
2673	140	120
2674	135	120
2675	132	121
2676	129	121
2677	128	124
2678	128	125
2679	129	125
2680	131	127
2681	132	127
2682	132	123
2683	131	123
2684	129	117
2685	123	116
2686	119	116
2687	114	110
2688	108	110
2689	105	109
2690	103	109
2691	101	108
2692	104	115
2693	108	115
2694	113	122
2695	121	122
2696	127	122
2697	135	126
2698	141	126
2699	145	126
2700	147	125
2701	148	126
2702	146	122
2703	143	122
2704	140	122
2705	138	122
2706	136	124
2707	135	124
2708	135	124
2709	137	130
2710	139	130
2711	140	132
2712	143	132
2713	144	132
2714	142	128
2715	139	128
2716	135	120
2717	128	119
2718	123	120
2719	115	113
2720	109	113
2721	104	112
2722	102	112
2723	100	114
2724	103	116
2725	107	117
2726	112	122
2727	118	122
2728	124	125
2729	129	124
2730	134	125
2731	136	123
2732	137	123
2733	137	120
2734	135	120
2735	133	120
2736	133	121
2737	132	121
2738	132	127
2739	135	127
2740	137	127
2741	142	133
2742	146	133
2743	149	136
2744	151	136
2745	152	133
2746	150	131
2747	148	131
2748	141	123
2749	134	123
2750	127	118
2751	119	117
2752	112	117
2753	109	117
2754	106	117
2755	104	120
2756	107	120
2757	108	120
2758	113	124
2759	118	124
2760	121	124
2761	125	124
2762	127	124
2763	127	121
2764	127	121
2765	125	118
2766	124	118
2767	123	120
2768	124	120
2769	124	120
2770	127	127
2771	132	127
2772	136	135
2773	144	135
2774	149	135
2775	154	138
2776	156	138
2777	158	135
2778	155	134
2779	152	134
2780	145	127
2781	139	127
2782	132	122
2783	125	122
2784	120	122
2785	116	122
2786	113	122
2787	112	126
2788	114	126
2789	116	127
2790	119	128
2791	121	128
2792	123	125
2793	123	125
2794	123	120
2795	120	120
2796	118	120
2797	115	117
2798	112	116
2799	112	119
2800	113	119
2801	115	119
2802	122	129
2803	128	128
2804	135	136
2805	143	136
2806	148	136
2807	153	138
2808	157	138
2809	157	135
2810	155	134
2811	152	130
2812	145	130
2813	140	130
2814	135	127
2815	129	128
2816	126	129
2817	125	130
2818	123	129
2819	124	132
2820	126	133
2821	127	132
2822	128	132
2823	128	132
2824	126	127
2825	124	127
2826	119	120
2827	115	120
2828	111	118
2829	107	117
2830	104	117
2831	104	120
2832	107	120
2833	110	128
2834	116	128
2835	123	128
2836	131	135
2837	139	135
2838	144	137
2839	149	136
2840	152	137
2841	152	134
2842	150	134
2843	148	130
2844	143	130
2845	139	130
2846	136	131
2847	134	130
2848	133	135
2849	133	135
2850	134	138
2851	136	138
2852	138	139
2853	138	137
2854	138	137
2855	136	131
2856	131	130
2857	127	131
2858	120	122
2859	113	122
2860	109	119
2861	104	119
2862	101	119
2863	101	122
2864	103	122
2865	107	128
2866	112	128
2867	118	129
2868	125	134
2869	132	134
2870	137	135
2871	141	134
2872	143	132
2873	143	132
2874	141	132
2875	140	130
2876	137	130
2877	136	133
2878	135	133
2879	135	132
2880	137	139
2881	140	139
2882	143	143
2883	146	143
2884	148	143
2885	148	141
2886	147	142
2887	144	134
2888	138	134
2889	132	132
2890	124	126
2891	117	127
2892	111	123
2893	106	123
2894	103	125
2895	103	125
2896	104	126
2897	107	131
2898	112	130
2899	116	134
2900	123	134
2901	127	134
2902	129	133
2903	132	132
2904	132	129
2905	131	129
2906	130	129
2907	129	128
2908	128	129
2909	128	133
2910	131	133
2911	133	137
2912	139	140
2913	143	140
2914	147	147
2915	151	146
2916	155	144
2917	155	144
2918	154	144
2919	150	138
2920	144	138
2921	138	130
2922	129	131
2923	123	131
2924	116	128
2925	111	128
2926	109	130
2927	108	131
2928	109	130
2929	112	134
2930	115	134
2931	119	135
2932	121	135
2933	124	132
2934	123	131
2935	123	131
2936	121	127
2937	120	127
2938	119	127
2939	117	127
2940	117	127
2941	120	132
2942	124	132
2943	128	141
2944	136	141
2945	141	141
2946	148	147
2947	154	147
2948	156	146
2949	157	146
2950	157	146
2951	152	140
2952	147	140
2953	141	135
2954	134	135
2955	128	134
2956	123	134
2957	119	134
2958	118	136
2959	118	136
2960	119	139
2961	121	139
2962	123	139
2963	123	137
2964	124	137
2965	123	131
2966	119	131
2967	118	131
2968	113	126
2969	111	126
2970	108	126
2971	108	126
2972	108	127
2973	112	132
2974	116	132
2975	124	140
2976	132	140
2977	139	146
2978	145	146
2979	151	146
2980	153	145
2981	155	145
2982	155	140
2983	151	140
2984	147	140
2985	142	137
2986	136	137
2987	132	138
2988	130	138
2989	128	138
2990	128	142
2991	129	142
2992	131	143
2993	132	143
2994	132	142
2995	131	140
2996	129	140
2997	125	132
2998	120	132
2999	116	127
3000	109	126
3001	106	127
3002	103	126
3003	101	126
3004	103	132
3005	107	131
3006	111	132
3007	119	139
3008	125	139
3009	132	143
3010	139	143
3011	144	143
3012	146	142
3013	148	142
3014	146	139
3015	144	138
3016	141	138
3017	139	138
3018	136	138
3019	135	141
3020	135	141
3021	135	146
3022	138	146
3023	140	147
3024	142	148
3025	143	148
3026	143	143
3027	139	143
3028	137	143
3029	130	135
3030	123	135
3031	117	129
3032	110	128
3033	105	129
3034	102	128
3035	100	128
3036	101	133
3037	104	133
3038	108	138
3039	115	139
3040	121	138
3041	127	140
3042	132	140
3043	135	138
3044	136	138
3045	136	138
3046	135	135
3047	135	136
3048	133	137
3049	132	137
3050	132	137
3051	135	143
3052	136	143
3053	140	149
3054	144	149
3055	148	149
3056	151	151
3057	152	150
3058	151	146
3059	147	146
3060	144	138
3061	135	138
3062	128	138
3063	121	132
3064	113	132
3065	108	132
3066	105	131
3067	104	131
3068	105	135
3069	107	135
3070	111	139
3071	115	139
3072	119	139
3073	123	138
3074	125	138
3075	127	135
3076	127	135
3077	125	134
3078	123	132
3079	122	132
3080	121	135
3081	124	135
3082	124	141
3083	130	142
3084	134	142
3085	140	149
3086	147	149
3087	151	151
3088	155	151
3089	157	152
3090	155	147
3091	152	147
3092	148	140
3093	140	139
3094	134	140
3095	126	135
3096	120	135
3097	116	135
3098	113	136
3099	111	138
3100	112	139
3101	115	139
3102	116	140
3103	120	140
3104	122	138
3105	122	138
3106	121	138
3107	120	132
3108	117	132
3109	115	129
3110	112	130
3111	111	129
3112	112	132
3113	114	132
3114	118	140
3115	125	140
3116	129	140
3117	139	148
3118	144	148
3119	150	150
3120	154	150
3121	156	147
3122	154	147
3123	152	146
3124	148	140
3125	142	140
3126	136	139
3127	131	138
3128	126	138
3129	124	140
3130	123	140
3131	122	143
3132	123	143
3133	125	143
3134	125	143
3135	127	143
3136	126	138
3137	123	138
3138	121	138
3139	116	131
3140	112	131
3141	108	127
3142	104	127
3143	103	130
3144	104	130
3145	107	130
3146	111	138
3147	118	138
3148	125	145
3149	133	145
3150	139	145
3151	145	147
3152	149	147
3153	151	143
3154	149	143
3155	148	143
3156	144	139
3157	140	139
3158	136	139
3159	134	139
3160	131	140
3161	132	143
3162	132	143
3163	133	147
3164	135	147
3165	136	146
3166	136	146
3167	136	146
3168	132	139
3169	128	139
3170	123	131
3171	116	131
3172	111	131
3173	105	127
3174	101	127
3175	99	130
3176	100	130
3177	102	130
3178	108	136
3179	113	136
3180	120	141
3181	127	141
3182	133	142
3183	137	142
3184	140	142
3185	141	139
3186	140	139
3187	139	137
3188	137	137
3189	135	137
3190	134	139
3191	133	139
3192	134	145
3193	137	145
3194	139	146
3195	143	150
3196	145	149
3197	147	148
3198	146	148
3199	144	148
3200	139	140
3201	134	141
3202	127	132
3203	119	132
3204	112	130
3205	107	128
3206	102	128
3207	100	131
3208	101	131
3209	103	135
3210	108	136
3211	112	136
3212	117	138
3213	123	139
3214	127	138
3215	129	137
3216	131	138
3217	130	133
3218	128	134
3219	128	132
3220	127	133
3221	126	132
3222	128	138
3223	130	138
3224	133	144
3225	139	144
3226	143	150
3227	148	150
3228	152	150
3229	153	148
3230	153	148
3231	151	141
3232	144	141
3233	140	141
3234	132	134
3235	124	134
3236	118	130
3237	112	131
3238	108	131
3239	106	133
3240	106	133
3241	108	137
3242	111	136
3243	115	137
3244	118	137
3245	120	137
3246	122	133
3247	121	133
3248	121	129
3249	119	128
3250	117	129
3251	116	129
3252	115	128
3253	116	134
3254	120	134
3255	123	134
3256	131	142
3257	137	142
3258	143	148
3259	150	148
3260	154	148
3261	155	147
3262	155	147
3263	153	141
3264	148	141
3265	143	138
3266	136	135
3267	129	135
3268	124	134
3269	120	134
3270	116	136
3271	116	136
3272	116	136
3273	119	139
3274	120	139
3275	121	137
3276	122	137
3277	123	137
3278	120	130
3279	117	131
3280	114	124
3281	110	125
3282	107	125
3283	106	124
3284	105	124
3285	107	130
3286	112	130
3287	117	137
3288	125	139
3289	133	139
3290	140	144
3291	146	143
3292	151	143
3293	152	143
3294	153	143
3295	151	138
3296	147	138
3297	143	134
3298	137	135
3299	132	134
3300	129	135
3301	127	135
3302	127	139
3303	127	139
3304	127	139
3305	130	141
3306	131	140
3307	131	137
3308	128	137
3309	127	130
3310	120	130
3311	117	130
3312	111	122
3313	106	123
3314	102	122
3315	100	122
3316	99	122
3317	103	128
3318	107	127
3319	112	135
3320	120	135
3321	127	135
3322	135	139
3323	140	138
3324	144	138
3325	145	138
3326	145	138
3327	143	134
3328	141	134
3329	139	132
3330	135	132
3331	133	135
3332	133	136
3333	132	136
3334	135	140
3335	137	141
3336	139	142
3337	140	142
3338	142	143
3339	140	138
3340	137	138
3341	133	129
3342	126	130
3343	120	130
3344	112	123
3345	106	122
3346	102	122
3347	99	122
3348	99	124
3349	101	127
3350	104	127
3351	110	132
3352	116	131
3353	122	133
3354	127	134
3355	132	134
3356	134	131
3357	135	131
3358	135	128
3359	133	128
3360	132	128
3361	131	129
3362	130	129
3363	131	135
3364	133	135
3365	135	134
3366	140	141
3367	144	140
3368	147	143
3369	149	142
3370	150	139
3371	147	138
3372	144	138
3373	139	129
3374	131	130
3375	124	124
3376	115	123
3377	110	123
3378	105	123
3379	103	123
3380	102	127
3381	104	126
3382	107	126
3383	111	130
3384	116	130
3385	120	129
3386	123	129
3387	124	129
3388	125	125
3389	123	125
3390	123	122
3391	121	122
3392	120	124
3393	121	124
3394	122	124
3395	126	131
3396	130	131
3397	135	139
3398	142	139
3399	147	139
3400	151	141
3401	154	140
3402	155	137
3403	152	137
3404	150	137
3405	142	130
3406	136	130
3407	128	125
3408	122	124
3409	117	124
3410	112	124
3411	111	124
3412	111	128
3413	112	128
3414	114	129
3415	117	130
3416	119	130
3417	120	126
3418	120	126
3419	120	120
3420	117	120
3421	115	120
3422	112	117
3423	109	117
3424	109	120
3425	112	120
3426	113	120
3427	119	128
3428	125	128
3429	132	135
3430	140	135
3431	147	135
3432	151	138
3433	154	138
3434	155	134
3435	152	134
3436	150	129
3437	143	128
3438	139	128
3439	132	126
3440	127	126
3441	124	127
3442	122	127
3443	120	127
3444	121	130
3445	123	130
3446	124	130
3447	125	130
3448	126	130
3449	123	124
3450	121	125
3451	118	117
3452	112	117
3453	109	114
3454	105	113
3455	102	114
3456	102	116
3457	104	116
3458	106	123
3459	113	124
3460	119	124
3461	127	131
3462	135	131
3463	140	132
3464	145	132
3465	149	132
3466	149	129
3467	148	129
3468	146	126
3469	141	125
3470	138	126
3471	135	125
3472	131	125
3473	131	129
3474	131	129
3475	131	132
3476	133	132
3477	135	132
3478	135	131
3479	135	131
3480	134	124
3481	129	124
3482	125	124
3483	119	116
3484	112	116
3485	107	112
3486	102	111
3487	99	112
3488	99	114
3489	100	114
3490	103	121
3491	109	121
3492	115	120
3493	123	126
3494	129	126
3495	135	127
3496	138	127
3497	140	123
3498	140	123
3499	139	123
3500	137	122
3501	135	121
3502	133	123
3503	132	123
3504	132	123
3505	135	130
3506	137	129
3507	140	134
3508	143	133
3509	145	134
3510	145	132
3511	145	132
3512	142	125
3513	136	124
3514	130	123
3515	123	116
3516	115	116
3517	109	112
3518	104	112
3519	100	114
3520	99	114
3521	101	114
3522	104	119
3523	109	119
3524	113	122
3525	120	122
3526	124	122
3527	127	121
3528	129	121
3529	131	117
3530	129	117
3531	128	117
3532	127	116
3533	126	116
3534	127	120
3535	128	120
3536	130	124
3537	136	128
3538	140	128
3539	144	133
3540	149	133
3541	152	131
3542	152	131
3543	152	131
3544	147	124
3545	142	124
3546	136	117
3547	128	117
3548	121	117
3549	115	114
3550	110	114
3551	107	116
3552	106	116
3553	107	116
3554	110	119
3555	113	119
3556	116	120
3557	119	120
3558	121	117
3559	121	116
3560	122	116
3561	120	111
3562	118	112
3563	116	111
3564	115	111
3565	115	111
3566	118	117
3567	121	116
3568	125	125
3569	133	125
3570	138	125
3571	145	131
3572	151	130
3573	155	130
3574	155	129
3575	155	130
3576	151	124
3577	147	124
3578	140	118
3579	133	118
3580	127	116
3581	122	116
3582	117	116
3583	116	119
3584	116	119
3585	117	121
3586	119	121
3587	120	121
3588	121	119
3589	122	119
3590	121	113
3591	119	114
3592	116	113
3593	112	108
3594	109	108
3595	107	107
3596	106	107
3597	107	108
3598	110	113
3599	115	114
3600	120	122
3601	129	122
3602	135	126
3603	143	127
3604	148	126
3605	151	126
3606	152	126
3607	153	122
3608	149	121
3609	146	122
3610	140	118
3611	135	118
3612	131	119
3613	129	118
3614	127	118
3615	127	122
3616	127	122
3617	129	123
3618	130	124
3619	131	122
3620	130	120
3621	128	120
3622	124	112
3623	119	112
3624	115	106
3625	109	106
3626	104	106
3627	102	106
3628	100	106
3629	100	111
3630	105	111
3631	108	111
3632	116	118
3633	124	118
3634	130	122
3635	137	122
3636	142	122
3637	144	122
3638	145	121
3639	145	117
3640	143	117
3641	140	116
3642	137	116
3643	134	116
3644	133	119
3645	133	119
3646	133	124
3647	136	124
3648	138	124
3649	140	126
3650	141	126
3651	141	122
3652	138	122
3653	136	122
3654	129	113
3655	123	113
3656	117	106
3657	110	107
3658	104	106
3659	100	106
3660	99	106
3661	100	110
3662	103	110
3663	107	115
3664	114	116
3665	120	116
3666	125	118
3667	130	118
3668	133	115
3669	135	116
3670	135	116
3671	135	112
3672	133	112
3673	132	114
3674	131	114
3675	131	114
3676	133	119
3677	135	119
3678	138	125
3679	143	126
3680	146	126
3681	149	127
3682	151	128
3683	150	123
3684	147	122
3685	143	116
3686	135	115
3687	128	115
3688	120	108
3689	113	108
3690	108	107
3691	105	108
3692	103	107
3693	104	111
3694	106	111
3695	109	115
3696	114	115
3697	119	115
3698	122	115
3699	124	115
3700	125	111
3701	125	111
3702	124	109
3703	123	108
3704	122	108
3705	122	111
3706	122	110
3707	124	117
3708	129	118
3709	133	118
3710	139	125
3711	146	124
3712	150	127
3713	154	127
3714	156	127
3715	155	123
3716	152	123
3717	148	116
3718	140	116
3719	134	116
3720	127	111
3721	120	111
3722	115	111
3723	112	111
3724	111	114
3725	112	115
3726	114	115
3727	116	116
3728	119	116
3729	121	114
3730	121	113
3731	122	113
3732	119	108
3733	117	108
3734	115	104
3735	112	105
3736	111	105
3737	112	107
3738	113	107
3739	117	116
3740	124	115
3741	129	115
3742	137	123
3743	143	123
3744	149	126
3745	154	125
3746	156	123
3747	155	122
3748	152	122
3749	148	117
3750	143	116
3751	137	114
3752	131	114
3753	127	114
3754	124	116
3755	123	116
3756	123	119
3757	124	119
3758	124	119
3759	126	119
3760	127	119
3761	127	114
3762	124	114
3763	123	114
3764	116	107
3765	112	107
3766	108	103
3767	105	103
3768	103	106
3769	104	106
3770	106	106
3771	111	114
3772	117	113
3773	123	121
3774	132	121
3775	139	120
3776	144	123
3777	149	123
3778	151	120
3779	150	120
3780	148	119
3781	144	116
3782	141	116
3783	137	116
3784	134	116
3785	132	116
3786	132	120
3787	132	120
3788	133	123
3789	135	123
3790	136	122
3791	137	123
3792	136	123
3793	133	116
3794	129	116
3795	125	108
3796	117	108
3797	111	107
3798	106	103
3799	102	103
3800	100	106
3801	101	106
3802	101	106
3803	107	112
3804	113	112
3805	120	118
3806	127	118
3807	132	119
3808	137	119
3809	141	119
3810	142	116
3811	142	117
3812	140	114
3813	139	114
3814	135	114
3815	135	117
3816	134	116
3817	135	122
3818	138	123
3819	140	122
3820	143	127
3821	146	127
3822	147	126
3823	147	126
3824	146	126
3825	141	119
3826	135	119
3827	129	110
3828	121	110
3829	115	107
3830	108	107
3831	103	107
3832	101	108
3833	102	108
3834	103	114
3835	108	114
3836	112	114
3837	118	117
3838	123	117
3839	127	116
3840	130	116
3841	132	116
3842	131	112
3843	131	113
3844	129	111
3845	128	112
3846	127	112
3847	129	116
3848	131	116
3849	135	124
3850	140	123
3851	143	128
3852	149	129
3853	152	129
3854	154	128
3855	154	128
3856	153	122
3857	148	122
3858	142	122
3859	134	114
3860	126	114
3861	120	111
3862	113	111
3863	109	111
3864	108	113
3865	108	113
3866	109	117
3867	112	116
3868	115	117
3869	119	118
3870	122	118
3871	123	114
3872	123	114
3873	123	110
3874	120	110
3875	118	110
3876	117	109
3877	117	110
3878	117	115
3879	121	115
3880	124	115
3881	132	124
3882	138	123
3883	144	130
3884	151	130
3885	155	129
3886	156	129
3887	157	129
3888	155	123
3889	151	123
3890	145	120
3891	138	118
3892	132	118
3893	127	116
3894	121	116
3895	119	119
3896	118	119
3897	119	119
3898	119	122
3899	121	122
3900	123	120
3901	123	120
3902	124	120
3903	122	114
3904	119	114
3905	117	108
3906	112	108
3907	110	108
3908	108	108
3909	107	108
3910	109	114
3911	113	115
3912	118	121
3913	127	122
3914	133	123
3915	140	128
3916	148	128
3917	152	127
3918	155	128
3919	155	128
3920	152	123
3921	150	123
3922	145	120
3923	140	120
3924	135	120
3925	132	121
3926	129	121
3927	128	124
3928	129	124
3929	130	124
3930	131	127
3931	132	126
3932	132	123
3933	131	123
3934	129	117
3935	124	116
3936	120	116
3937	114	110
3938	108	110
3939	105	109
3940	103	109
3941	102	108
3942	104	115
3943	108	115
3944	113	122
3945	122	122
3946	128	122
3947	135	127
3948	142	127
3949	145	125
3950	147	126
3951	148	126
3952	147	122
3953	143	122
3954	140	121
3955	138	122
3956	136	124
3957	135	124
3958	135	124
3959	136	130
3960	138	130
3961	141	132
3962	143	132
3963	144	132
3964	142	127
3965	139	128
3966	135	120
3967	128	120
3968	123	120
3969	116	112
3970	108	113
3971	104	112
3972	101	111
3973	101	115
3974	103	116
3975	107	116
3976	111	122
3977	118	122
3978	123	125
3979	129	125
3980	134	125
3981	136	123
3982	137	123
3983	137	120
3984	135	120
3985	134	120
3986	133	121
3987	132	121
3988	132	127
3989	135	127
3990	137	127
3991	142	133
3992	146	133
3993	149	136
3994	151	136
3995	152	132
3996	150	131
3997	147	131
3998	141	124
3999	134	123
4000	127	117
4001	119	117
4002	113	118
4003	108	117
4004	105	116
4005	104	120
4006	107	120
4007	108	120
4008	113	124
4009	118	124
4010	121	125
4011	124	124
4012	127	124
4013	127	120
4014	127	120
4015	126	118
4016	124	118
4017	123	119
4018	123	120
4019	124	120
4020	127	127
4021	132	127
4022	136	135
4023	144	135
4024	148	135
4025	154	138
4026	156	138
4027	157	134
4028	155	134
4029	152	135
4030	145	127
4031	139	127
4032	132	122
4033	125	122
4034	120	122
4035	116	123
4036	113	123
4037	113	126
4038	115	126
4039	116	127
4040	119	127
4041	122	128
4042	123	125
4043	123	125
4044	123	120
4045	119	119
4046	118	120
4047	115	116
4048	112	117
4049	112	119
4050	114	119
4051	116	119
4052	121	128
4053	127	128
4054	134	135
4055	143	135
4056	148	136
4057	154	138
4058	156	138
4059	157	134
4060	155	135
4061	152	130
4062	145	130
4063	140	130
4064	135	127
4065	130	127
4066	126	129
4067	124	129
4068	123	129
4069	124	132
4070	125	132
4071	127	132
4072	127	132
4073	128	132
4074	126	127
4075	123	127
4076	119	120
4077	115	120
4078	111	118
4079	107	117
4080	105	117
4081	105	120
4082	107	120
4083	109	128
4084	117	128
4085	123	128
4086	131	135
4087	138	135
4088	144	137
4089	149	137
4090	151	136
4091	151	134
4092	150	134
4093	148	130
4094	143	130
4095	139	131
