  Hz	 Vrms	dBV	deg
100.0	0.653	-3.726
120.0	0.652	-3.732
140.0	0.651	-3.750
160.0	0.648	-3.791
180.0	0.650	-3.766
200.0	0.649	-3.773
220.0	0.648	-3.792
240.0	0.651	-3.745
260.0	0.648	-3.788
280.0	0.645	-3.828
300.0	0.645	-3.831
320.0	0.647	-3.808
340.0	0.646	-3.818
360.0	0.644	-3.840
380.0	0.643	-3.856
400.0	0.645	-3.829
420.0	0.642	-3.866
440.0	0.641	-3.880
460.0	0.643	-3.858
480.0	0.641	-3.887
500.0	0.635	-3.966
520.0	0.639	-3.912
540.0	0.637	-3.943
560.0	0.634	-3.977
580.0	0.636	-3.958
600.0	0.631	-4.018
620.0	0.637	-3.932
640.0	0.634	-3.982
660.0	0.633	-3.991
680.0	0.630	-4.038
700.0	0.630	-4.032
720.0	0.628	-4.065
740.0	0.631	-4.017
760.0	0.628	-4.061
780.0	0.624	-4.112
800.0	0.625	-4.097
820.0	0.625	-4.102
840.0	0.618	-4.195
860.0	0.620	-4.167
880.0	0.619	-4.182
900.0	0.615	-4.241
920.0	0.618	-4.198
940.0	0.618	-4.198
960.0	0.612	-4.283
980.0	0.616	-4.235
1000.0	0.611	-4.294
1020.0	0.608	-4.345
1220.0	0.599	-4.469
1420.0	0.587	-4.654
1620.0	0.571	-4.891
1820.0	0.557	-5.100
2020.0	0.539	-5.392
2220.0	0.523	-5.653
2420.0	0.510	-5.871
2620.0	0.493	-6.161
2820.0	0.478	-6.439
3020.0	0.463	-6.711
3220.0	0.448	-7.001
3420.0	0.432	-7.308
3620.0	0.419	-7.581
3820.0	0.410	-7.772
4020.0	0.396	-8.067
4220.0	0.387	-8.259
4420.0	0.375	-8.529
4620.0	0.364	-8.801
4820.0	0.351	-9.112
5020.0	0.341	-9.360
5220.0	0.332	-9.609
5420.0	0.327	-9.728
5620.0	0.314	-10.072
5820.0	0.307	-10.276
6020.0	0.302	-10.411
6220.0	0.297	-10.558
6420.0	0.288	-10.832
6620.0	0.280	-11.093
6820.0	0.271	-11.347
7020.0	0.264	-11.595
7220.0	0.256	-11.864
7420.0	0.250	-12.049
7620.0	0.246	-12.204
7820.0	0.243	-12.313
8020.0	0.236	-12.556
8220.0	0.233	-12.670
8420.0	0.229	-12.832
8620.0	0.223	-13.045
8820.0	0.219	-13.200
9020.0	0.216	-13.335
9220.0	0.212	-13.486
9420.0	0.208	-13.645
9620.0	0.205	-13.779
9820.0	0.202	-13.923
10020	0.197	-14.109
12020	0.166	-15.572
14020	0.144	-16.803
16020	0.127	-17.952
18020	0.114	-18.883
20020	0.103	-19.764
22020	0.094	-20.525
24020	0.086	-21.323
26020	0.080	-21.977
28020	0.074	-22.619
30020	0.069	-23.251
32020	0.066	-23.652
34020	0.061	-24.259
36020	0.057	-24.912
38020	0.054	-25.351
40020	0.051	-25.861
42020	0.049	-26.237
44020	0.047	-26.600
46020	0.045	-27.010
48020	0.043	-27.400
50020	0.041	-27.717
52020	0.040	-28.047
54020	0.038	-28.339
56020	0.037	-28.646
58020	0.035	-29.000
60020	0.034	-29.277
62020	0.033	-29.545
64020	0.033	-29.760
66020	0.032	-30.010
68020	0.031	-30.306
70020	0.030	-30.498
72020	0.029	-30.737
74020	0.028	-31.000
76020	0.027	-31.274
78020	0.026	-31.550
80020	0.026	-31.757
82020	0.025	-31.998
84020	0.024	-32.221
86020	0.024	-32.382
88020	0.024	-32.568
90020	0.023	-32.726
92020	0.023	-32.939
94020	0.022	-33.115
96020	0.022	-33.266
98020	0.021	-33.439
100020	0.021	-33.591
