
TIME STEP:
125 = 50us

VOLTAGE STEP:
CH1:  32 = 1V
CH2:  32 = 1V
GND	121	122
N	CH1	CH2

0	48	48
1	48	48
2	48	48
3	48	48
4	48	48
5	48	48
6	48	48
7	48	48
8	48	48
9	48	48
10	48	47
11	48	48
12	48	48
13	48	48
14	48	48
15	48	48
16	48	48
17	48	48
18	48	48
19	48	48
20	48	48
21	48	48
22	48	48
23	48	48
24	48	48
25	48	48
26	48	48
27	48	48
28	48	48
29	48	48
30	48	48
31	48	48
32	48	48
33	48	48
34	48	48
35	48	48
36	48	48
37	48	48
38	48	48
39	48	48
40	48	48
41	48	48
42	48	48
43	48	48
44	48	48
45	48	48
46	48	48
47	48	48
48	48	48
49	48	48
50	48	48
51	47	48
52	48	48
53	48	48
54	48	48
55	48	48
56	48	48
57	48	48
58	47	48
59	48	48
60	48	48
61	48	48
62	48	48
63	48	48
64	48	48
65	48	48
66	48	48
67	48	48
68	48	48
69	48	48
70	48	48
71	48	48
72	48	48
73	48	48
74	48	48
75	48	48
76	48	48
77	48	48
78	48	48
79	48	48
80	48	48
81	48	48
82	48	48
83	48	48
84	48	48
85	48	48
86	48	48
87	48	48
88	48	48
89	48	48
90	48	48
91	48	48
92	48	48
93	48	48
94	48	48
95	48	48
96	48	48
97	48	48
98	48	48
99	48	48
100	48	48
101	48	48
102	48	48
103	48	48
104	48	48
105	48	48
106	48	49
107	48	48
108	48	48
109	48	48
110	48	48
111	48	48
112	48	48
113	48	48
114	48	48
115	48	48
116	48	48
117	48	49
118	48	48
119	48	48
120	48	48
121	48	48
122	48	48
123	48	48
124	47	48
125	47	48
126	48	48
127	48	48
128	48	48
129	48	48
130	48	48
131	48	48
132	48	48
133	47	48
134	48	48
135	48	48
136	48	48
137	48	48
138	48	48
139	48	49
140	48	48
141	48	48
142	48	48
143	48	48
144	48	48
145	48	48
146	48	48
147	48	48
148	48	48
149	48	48
150	48	48
151	48	48
152	48	48
153	48	48
154	48	48
155	48	48
156	48	48
157	48	48
158	48	48
159	48	48
160	48	48
161	48	48
162	48	48
163	48	48
164	48	47
165	48	48
166	48	48
167	48	48
168	48	48
169	48	48
170	48	48
171	48	48
172	48	49
173	47	48
174	48	48
175	48	48
176	48	48
177	48	48
178	48	48
179	48	48
180	48	48
181	48	48
182	48	48
183	48	48
184	48	48
185	48	48
186	48	48
187	48	48
188	48	47
189	48	48
190	48	48
191	48	48
192	48	48
193	48	48
194	48	48
195	48	48
196	48	49
197	48	48
198	48	48
199	48	48
200	48	48
201	48	48
202	48	48
203	48	48
204	48	49
205	48	48
206	48	48
207	48	48
208	48	48
209	48	49
210	48	48
211	48	48
212	48	48
213	48	48
214	48	48
215	48	48
216	48	48
217	48	48
218	48	48
219	48	48
220	48	48
221	48	48
222	48	48
223	48	48
224	48	48
225	48	48
226	48	48
227	48	48
228	48	48
229	48	48
230	48	48
231	48	48
232	48	48
233	48	48
234	48	48
235	48	48
236	48	47
237	48	49
238	48	48
239	48	48
240	48	48
241	48	49
242	48	48
243	48	49
244	48	48
245	48	49
246	48	48
247	48	48
248	48	48
249	48	48
250	48	48
251	48	48
252	48	48
253	48	49
254	48	48
255	48	48
256	48	48
257	48	48
258	48	48
259	48	48
260	48	48
261	47	49
262	48	48
263	48	48
264	48	48
265	48	48
266	48	48
267	48	48
268	48	48
269	48	48
270	48	47
271	48	48
272	48	48
273	48	48
274	48	48
275	48	48
276	48	48
277	48	48
278	48	48
279	48	48
280	48	48
281	48	49
282	48	48
283	48	48
284	48	48
285	48	48
286	48	48
287	48	49
288	48	48
289	48	48
290	48	48
291	48	48
292	48	48
293	48	48
294	48	48
295	48	48
296	48	48
297	48	48
298	48	49
299	48	48
300	48	48
301	48	47
302	48	48
303	48	48
304	48	48
305	48	48
306	48	48
307	48	48
308	48	48
309	48	48
310	48	48
311	48	48
312	48	48
313	48	49
314	48	48
315	48	48
316	48	48
317	48	48
318	48	48
319	48	48
320	48	48
321	48	48
322	48	48
323	48	48
324	48	48
325	48	48
326	48	48
327	48	48
328	48	48
329	48	48
330	48	48
331	48	48
332	48	48
333	48	49
334	48	48
335	48	48
336	48	48
337	48	48
338	48	49
339	48	48
340	48	48
341	48	48
342	48	48
343	48	48
344	48	48
345	48	48
346	48	48
347	48	48
348	48	48
349	48	48
350	48	48
351	48	49
352	48	48
353	48	48
354	48	48
355	48	48
356	48	49
357	48	48
358	48	48
359	48	48
360	48	48
361	48	48
362	48	49
363	48	48
364	48	48
365	48	48
366	48	47
367	48	48
368	48	48
369	48	49
370	48	48
371	48	48
372	48	48
373	48	48
374	48	48
375	48	48
376	48	48
377	48	48
378	48	48
379	48	48
380	48	49
381	48	48
382	48	48
383	48	48
384	48	48
385	48	48
386	48	48
387	47	48
388	48	48
389	48	48
390	48	48
391	48	48
392	48	48
393	48	48
394	48	48
395	48	48
396	48	48
397	48	48
398	48	48
399	48	48
400	48	48
401	48	48
402	48	48
403	48	48
404	48	48
405	48	48
406	48	48
407	48	47
408	48	48
409	48	48
410	48	48
411	48	48
412	48	48
413	48	48
414	48	48
415	48	48
416	47	48
417	48	48
418	48	48
419	48	48
420	48	48
421	48	47
422	48	49
423	48	49
424	48	48
425	48	48
426	48	48
427	48	48
428	48	48
429	48	48
430	48	48
431	48	48
432	48	48
433	48	48
434	48	48
435	48	48
436	48	48
437	48	48
438	47	48
439	48	48
440	48	48
441	48	48
442	48	48
443	48	48
444	48	48
445	48	48
446	48	48
447	48	48
448	48	48
449	48	48
450	48	48
451	48	48
452	48	48
453	48	48
454	48	48
455	48	48
456	48	48
457	48	48
458	48	48
459	48	48
460	48	48
461	48	48
462	48	48
463	48	48
464	48	48
465	48	48
466	48	48
467	48	48
468	48	48
469	48	48
470	48	48
471	48	48
472	48	48
473	48	48
474	48	48
475	48	48
476	48	49
477	48	48
478	48	48
479	48	48
480	47	48
481	48	48
482	48	48
483	48	48
484	48	49
485	48	48
486	48	49
487	48	48
488	48	48
489	48	48
490	48	48
491	48	48
492	48	48
493	48	48
494	47	48
495	48	48
496	48	48
497	48	48
498	48	48
499	48	48
500	48	48
501	48	48
502	48	48
503	48	48
504	48	48
505	48	48
506	48	48
507	47	48
508	48	48
509	48	48
510	48	47
511	48	48
512	48	48
513	48	48
514	48	48
515	48	48
516	48	48
517	48	48
518	48	48
519	48	48
520	48	48
521	48	48
522	48	48
523	48	48
524	48	48
525	48	48
526	48	48
527	48	48
528	48	48
529	48	48
530	48	48
531	48	48
532	47	48
533	48	48
534	48	48
535	48	48
536	48	48
537	48	48
538	48	48
539	48	48
540	48	48
541	48	48
542	48	48
543	48	48
544	48	47
545	47	48
546	48	48
547	48	48
548	48	48
549	48	48
550	48	48
551	48	48
552	48	48
553	47	48
554	48	48
555	48	48
556	47	48
557	48	48
558	48	48
559	48	48
560	48	48
561	48	48
562	48	48
563	48	48
564	48	48
565	48	48
566	48	48
567	48	48
568	48	48
569	48	48
570	48	48
571	48	48
572	48	48
573	48	48
574	48	48
575	47	47
576	48	49
577	47	48
578	48	48
579	48	49
580	48	48
581	48	48
582	48	48
583	47	48
584	48	48
585	48	48
586	48	48
587	48	48
588	48	48
589	48	48
590	48	48
591	48	48
592	48	48
593	48	48
594	48	48
595	48	48
596	48	49
597	48	48
598	48	49
599	48	47
600	48	48
601	48	48
602	48	48
603	47	48
604	48	48
605	48	48
606	48	48
607	47	48
608	48	49
609	48	48
610	48	48
611	48	48
612	48	48
613	48	48
614	48	48
615	48	48
616	48	48
617	48	48
618	48	48
619	48	48
620	48	48
621	48	48
622	48	48
623	48	48
624	48	48
625	48	48
626	48	48
627	48	48
628	48	48
629	48	48
630	48	48
631	48	48
632	48	48
633	48	48
634	48	48
635	48	48
636	48	48
637	48	48
638	48	48
639	48	48
640	48	48
641	48	48
642	48	48
643	48	48
644	48	48
645	48	48
646	48	48
647	48	47
648	48	48
649	48	48
650	48	48
651	48	49
652	48	48
653	48	48
654	48	48
655	48	48
656	48	49
657	48	48
658	48	48
659	48	48
660	48	48
661	48	48
662	48	48
663	48	48
664	47	48
665	48	48
666	48	48
667	48	48
668	48	48
669	48	48
670	48	48
671	48	48
672	47	48
673	48	48
674	48	48
675	48	48
676	48	48
677	48	48
678	48	49
679	48	48
680	48	49
681	48	48
682	48	48
683	48	49
684	48	48
685	48	48
686	48	48
687	48	48
688	48	48
689	48	48
690	48	48
691	48	48
692	48	48
693	48	49
694	48	48
695	48	47
696	48	48
697	48	48
698	48	48
699	48	48
700	48	48
701	48	48
702	48	48
703	48	48
704	48	48
705	48	48
706	48	48
707	48	48
708	48	48
709	48	48
710	48	48
711	48	48
712	47	48
713	47	48
714	48	48
715	48	48
716	48	48
717	48	49
718	48	48
719	48	48
720	48	48
721	48	48
722	48	48
723	48	48
724	48	48
725	48	48
726	48	48
727	48	48
728	48	48
729	48	47
730	48	48
731	48	48
732	48	48
733	48	48
734	48	48
735	48	48
736	48	48
737	48	48
738	48	48
739	48	49
740	48	48
741	48	48
742	48	48
743	48	48
744	48	48
745	48	48
746	48	49
747	48	48
748	48	48
749	47	48
750	48	48
751	48	48
752	47	48
753	48	48
754	48	48
755	48	48
756	48	48
757	48	48
758	48	48
759	48	48
760	48	48
761	47	48
762	48	48
763	48	48
764	48	48
765	48	48
766	48	48
767	47	48
768	48	48
769	48	48
770	48	48
771	48	48
772	48	48
773	48	48
774	48	49
775	48	48
776	48	48
777	48	48
778	48	48
779	48	48
780	48	48
781	48	47
782	48	48
783	48	48
784	48	48
785	48	48
786	48	48
787	48	48
788	48	48
789	48	48
790	47	48
791	48	48
792	48	48
793	48	48
794	48	48
795	48	48
796	48	48
797	48	48
798	48	48
799	48	48
800	48	48
801	48	48
802	48	48
803	48	48
804	48	48
805	48	48
806	48	48
807	48	48
808	48	48
809	48	48
810	48	48
811	48	48
812	48	47
813	48	48
814	48	48
815	48	48
816	48	48
817	48	48
818	48	48
819	48	48
820	48	48
821	48	48
822	48	48
823	48	48
824	47	48
825	47	48
826	47	48
827	47	48
828	48	48
829	48	48
830	48	48
831	48	48
832	48	48
833	48	48
834	48	48
835	48	48
836	48	48
837	48	48
838	48	48
839	47	48
840	48	49
841	48	48
842	48	48
843	48	48
844	48	48
845	48	48
846	48	48
847	48	48
848	48	48
849	48	47
850	48	48
851	48	48
852	48	48
853	48	48
854	48	48
855	48	48
856	48	48
857	48	48
858	48	48
859	47	48
860	48	48
861	48	48
862	48	48
863	48	48
864	48	48
865	48	48
866	48	48
867	48	48
868	48	48
869	47	48
870	48	48
871	48	48
872	48	48
873	48	47
874	48	48
875	48	48
876	48	48
877	48	48
878	48	48
879	48	48
880	48	48
881	48	48
882	48	48
883	48	48
884	48	48
885	48	48
886	48	48
887	47	48
888	48	48
889	48	49
890	47	48
891	48	48
892	47	48
893	48	48
894	48	48
895	48	48
896	48	48
897	47	48
898	48	48
899	48	48
900	48	48
901	48	48
902	48	48
903	48	48
904	48	48
905	48	48
906	48	48
907	48	48
908	48	48
909	48	48
910	48	48
911	48	48
912	48	48
913	47	48
914	48	48
915	48	48
916	48	48
917	48	48
918	48	48
919	48	49
920	48	48
921	48	48
922	48	48
923	47	48
924	48	47
925	47	48
926	48	48
927	48	48
928	48	48
929	48	48
930	48	47
931	48	49
932	48	48
933	47	48
934	48	48
935	47	48
936	48	48
937	48	48
938	48	48
939	48	48
940	48	48
941	48	48
942	48	47
943	48	48
944	48	48
945	48	48
946	47	48
947	48	48
948	48	48
949	48	48
950	48	48
951	48	48
952	48	48
953	48	48
954	48	48
955	47	47
956	48	48
957	48	48
958	48	48
959	48	48
960	48	48
961	48	48
962	48	47
963	48	48
964	48	48
965	48	48
966	48	48
967	48	48
968	48	47
969	48	47
970	47	48
971	48	48
972	48	48
973	48	48
974	48	48
975	48	48
976	48	49
977	48	48
978	48	49
979	48	48
980	48	48
981	48	48
982	48	48
983	47	48
984	48	48
985	48	48
986	48	47
987	48	48
988	48	48
989	48	48
990	48	49
991	48	48
992	48	48
993	48	48
994	48	48
995	48	48
996	48	48
997	48	48
998	48	48
999	48	48
1000	48	48
1001	48	48
1002	48	48
1003	48	48
1004	48	48
1005	48	48
1006	48	48
1007	48	48
1008	48	48
1009	48	48
1010	48	48
1011	48	48
1012	48	48
1013	48	49
1014	48	48
1015	48	48
1016	48	48
1017	48	116
1018	48	197
1019	48	198
1020	48	198
1021	48	197
1022	48	198
1023	49	196
1024	49	197
1025	49	196
1026	49	196
1027	49	197
1028	49	197
1029	49	196
1030	49	197
1031	50	197
1032	50	197
1033	50	197
1034	51	197
1035	50	197
1036	51	197
1037	51	197
1038	51	197
1039	51	197
1040	51	197
1041	51	196
1042	51	197
1043	51	196
1044	52	196
1045	52	197
1046	52	197
1047	52	197
1048	52	197
1049	52	197
1050	52	196
1051	52	196
1052	53	197
1053	53	196
1054	53	197
1055	53	197
1056	53	197
1057	53	197
1058	53	197
1059	53	196
1060	53	196
1061	54	197
1062	54	197
1063	54	197
1064	54	196
1065	54	197
1066	55	197
1067	54	196
1068	55	197
1069	55	196
1070	55	196
1071	55	197
1072	55	197
1073	55	196
1074	55	196
1075	55	197
1076	56	197
1077	56	197
1078	56	197
1079	56	197
1080	56	197
1081	56	197
1082	56	197
1083	56	197
1084	56	196
1085	57	196
1086	57	197
1087	57	197
1088	57	197
1089	57	196
1090	57	197
1091	58	197
1092	57	196
1093	58	197
1094	58	197
1095	58	197
1096	58	196
1097	58	197
1098	59	197
1099	59	196
1100	59	197
1101	59	197
1102	59	197
1103	59	197
1104	59	197
1105	59	197
1106	59	196
1107	59	197
1108	59	197
1109	59	196
1110	60	197
1111	60	197
1112	60	197
1113	60	197
1114	60	197
1115	60	197
1116	60	197
1117	61	197
1118	60	197
1119	60	197
1120	61	197
1121	61	197
1122	61	197
1123	61	196
1124	61	197
1125	61	197
1126	61	197
1127	62	197
1128	62	196
1129	62	197
1130	62	196
1131	62	196
1132	63	197
1133	63	197
1134	63	197
1135	63	197
1136	63	197
1137	63	197
1138	63	197
1139	63	197
1140	63	196
1141	63	197
1142	63	197
1143	64	197
1144	64	197
1145	63	197
1146	64	197
1147	64	197
1148	64	197
1149	64	197
1150	64	197
1151	64	198
1152	64	197
1153	65	197
1154	64	196
1155	65	197
1156	65	197
1157	65	197
1158	65	197
1159	65	197
1160	66	197
1161	65	197
1162	66	197
1163	66	197
1164	66	197
1165	66	197
1166	67	197
1167	67	198
1168	66	197
1169	67	196
1170	67	197
1171	67	198
1172	67	197
1173	67	197
1174	67	197
1175	68	197
1176	67	197
1177	67	197
1178	67	197
1179	68	197
1180	68	197
1181	68	197
1182	68	196
1183	68	198
1184	68	197
1185	68	197
1186	68	197
1187	68	197
1188	68	196
1189	68	197
1190	69	197
1191	69	197
1192	69	197
1193	69	197
1194	69	197
1195	69	197
1196	70	198
1197	70	197
1198	70	198
1199	70	197
1200	69	197
1201	70	197
1202	71	197
1203	71	197
1204	70	197
1205	71	197
1206	71	197
1207	71	198
1208	71	197
1209	71	197
1210	71	197
1211	71	197
1212	71	197
1213	72	198
1214	72	198
1215	71	197
1216	71	197
1217	72	197
1218	72	197
1219	72	198
1220	72	198
1221	72	197
1222	72	197
1223	72	197
1224	72	197
1225	72	197
1226	73	197
1227	73	197
1228	73	197
1229	72	196
1230	74	197
1231	74	197
1232	73	197
1233	73	197
1234	74	198
1235	74	197
1236	74	197
1237	75	197
1238	75	197
1239	74	197
1240	75	197
1241	75	197
1242	75	197
1243	75	197
1244	75	198
1245	75	198
1246	75	197
1247	75	198
1248	75	198
1249	75	197
1250	75	197
1251	76	197
1252	76	198
1253	76	198
1254	75	197
1255	76	197
1256	76	197
1257	76	197
1258	76	198
1259	76	197
1260	76	197
1261	76	197
1262	76	197
1263	76	198
1264	77	197
1265	77	197
1266	77	198
1267	77	198
1268	77	197
1269	77	197
1270	78	197
1271	78	197
1272	78	198
1273	78	198
1274	78	198
1275	78	197
1276	78	197
1277	79	197
1278	79	197
1279	79	198
1280	79	198
1281	79	198
1282	79	197
1283	79	198
1284	79	197
1285	79	197
1286	79	197
1287	79	197
1288	79	197
1289	79	198
1290	79	198
1291	80	197
1292	80	198
1293	80	198
1294	80	197
1295	80	197
1296	80	197
1297	80	198
1298	80	197
1299	80	197
1300	80	198
1301	80	198
1302	81	198
1303	80	198
1304	81	197
1305	81	198
1306	81	197
1307	81	197
1308	82	198
1309	81	197
1310	81	197
1311	82	198
1312	82	198
1313	82	198
1314	83	198
1315	83	198
1316	82	197
1317	82	197
1318	83	198
1319	82	197
1320	83	198
1321	83	197
1322	83	198
1323	83	197
1324	83	198
1325	83	197
1326	83	197
1327	83	197
1328	84	198
1329	83	198
1330	84	198
1331	84	198
1332	84	197
1333	84	198
1334	84	198
1335	84	198
1336	84	198
1337	84	198
1338	84	198
1339	84	198
1340	84	197
1341	85	197
1342	85	198
1343	85	198
1344	85	198
1345	85	198
1346	85	198
1347	86	198
1348	85	198
1349	86	198
1350	85	198
1351	85	198
1352	86	198
1353	85	198
1354	86	198
1355	87	198
1356	86	198
1357	87	198
1358	87	198
1359	87	198
1360	87	198
1361	87	198
1362	87	198
1363	87	198
1364	87	197
1365	87	198
1366	87	197
1367	87	198
1368	87	198
1369	87	198
1370	87	197
1371	88	198
1372	88	198
1373	88	197
1374	88	198
1375	88	198
1376	88	198
1377	88	198
1378	88	198
1379	88	198
1380	88	197
1381	88	198
1382	88	197
1383	89	198
1384	88	198
1385	88	198
1386	89	198
1387	89	198
1388	89	198
1389	89	198
1390	89	198
1391	89	198
1392	90	198
1393	90	198
1394	90	198
1395	90	198
1396	90	198
1397	91	197
1398	90	198
1399	91	198
1400	91	198
1401	91	198
1402	91	198
1403	91	198
1404	91	198
1405	91	198
1406	91	198
1407	91	198
1408	91	198
1409	91	198
1410	91	198
1411	91	198
1412	91	198
1413	92	198
1414	92	198
1415	92	199
1416	92	198
1417	92	198
1418	92	198
1419	92	198
1420	92	198
1421	92	197
1422	92	198
1423	93	198
1424	92	198
1425	93	198
1426	93	198
1427	93	198
1428	93	198
1429	93	198
1430	93	198
1431	94	198
1432	93	198
1433	93	198
1434	93	198
1435	93	198
1436	94	197
1437	94	198
1438	94	198
1439	94	198
1440	94	198
1441	94	198
1442	95	198
1443	95	198
1444	95	198
1445	95	198
1446	95	198
1447	95	198
1448	95	198
1449	95	198
1450	95	198
1451	95	198
1452	95	198
1453	95	198
1454	95	198
1455	95	198
1456	95	198
1457	96	198
1458	96	198
1459	95	198
1460	96	198
1461	96	198
1462	96	198
1463	96	198
1464	96	198
1465	95	198
1466	96	198
1467	96	198
1468	96	198
1469	96	198
1470	96	198
1471	97	198
1472	97	198
1473	97	198
1474	97	198
1475	97	198
1476	97	198
1477	97	199
1478	97	198
1479	97	198
1480	98	198
1481	98	198
1482	98	198
1483	98	198
1484	98	198
1485	98	199
1486	98	198
1487	98	198
1488	98	198
1489	99	198
1490	99	198
1491	98	198
1492	98	198
1493	99	198
1494	99	198
1495	99	199
1496	99	198
1497	99	198
1498	99	199
1499	99	198
1500	99	198
1501	99	199
1502	100	198
1503	99	198
1504	100	198
1505	99	198
1506	100	198
1507	100	198
1508	100	198
1509	100	199
1510	100	198
1511	100	198
1512	100	198
1513	100	198
1514	100	198
1515	100	199
1516	100	198
1517	100	198
1518	101	198
1519	101	198
1520	101	198
1521	101	198
1522	100	198
1523	101	198
1524	101	198
1525	101	198
1526	101	199
1527	101	198
1528	101	199
1529	102	198
1530	102	198
1531	102	198
1532	102	199
1533	101	199
1534	102	198
1535	102	199
1536	102	198
1537	103	199
1538	102	198
1539	102	199
1540	103	198
1541	103	199
1542	103	198
1543	103	199
1544	103	198
1545	103	198
1546	103	199
1547	103	198
1548	103	198
1549	104	198
1550	104	198
1551	103	198
1552	104	199
1553	103	199
1554	104	199
1555	104	199
1556	104	198
1557	104	199
1558	104	198
1559	104	199
1560	104	199
1561	105	199
1562	104	199
1563	104	199
1564	104	199
1565	104	198
1566	105	199
1567	105	198
1568	105	198
1569	105	199
1570	105	199
1571	105	198
1572	105	199
1573	105	198
1574	105	198
1575	106	199
1576	105	198
1577	105	199
1578	105	199
1579	105	199
1580	106	199
1581	106	199
1582	106	199
1583	106	199
1584	105	198
1585	106	198
1586	106	199
1587	106	199
1588	107	199
1589	107	199
1590	107	199
1591	107	198
1592	107	199
1593	107	199
1594	107	199
1595	107	198
1596	107	198
1597	107	199
1598	107	199
1599	107	198
1600	107	198
1601	107	199
1602	107	198
1603	108	199
1604	107	199
1605	107	199
1606	108	198
1607	108	199
1608	108	198
1609	108	198
1610	108	198
1611	108	198
1612	108	199
1613	108	199
1614	108	198
1615	108	199
1616	108	199
1617	109	199
1618	109	198
1619	109	199
1620	108	198
1621	109	199
1622	109	199
1623	109	199
1624	109	199
1625	109	199
1626	109	199
1627	109	199
1628	110	199
1629	109	199
1630	110	199
1631	110	199
1632	109	199
1633	109	199
1634	110	199
1635	110	199
1636	110	198
1637	110	199
1638	110	199
1639	110	198
1640	110	198
1641	110	199
1642	111	199
1643	111	199
1644	110	198
1645	111	199
1646	111	199
1647	111	198
1648	111	199
1649	111	199
1650	111	198
1651	111	199
1652	111	199
1653	111	199
1654	111	198
1655	111	199
1656	111	199
1657	111	199
1658	111	199
1659	111	199
1660	112	199
1661	111	198
1662	112	198
1663	112	199
1664	112	199
1665	112	199
1666	112	199
1667	112	199
1668	112	199
1669	112	199
1670	112	198
1671	112	199
1672	112	199
1673	113	199
1674	113	199
1675	112	199
1676	113	199
1677	113	199
1678	113	199
1679	113	199
1680	113	199
1681	114	199
1682	113	199
1683	114	199
1684	114	199
1685	113	199
1686	114	199
1687	113	199
1688	114	198
1689	114	199
1690	114	199
1691	114	199
1692	114	199
1693	115	199
1694	115	199
1695	115	199
1696	115	199
1697	115	199
1698	115	199
1699	115	199
1700	115	199
1701	115	199
1702	115	199
1703	115	199
1704	116	199
1705	115	199
1706	115	199
1707	115	199
1708	116	199
1709	116	199
1710	116	199
1711	116	199
1712	116	199
1713	116	199
1714	116	199
1715	116	199
1716	116	199
1717	116	199
1718	116	199
1719	116	199
1720	116	199
1721	116	199
1722	116	199
1723	116	199
1724	116	199
1725	116	199
1726	117	199
1727	117	199
1728	117	199
1729	116	199
1730	116	199
1731	117	199
1732	117	199
1733	117	199
1734	117	199
1735	117	199
1736	117	199
1737	117	199
1738	117	199
1739	118	199
1740	118	199
1741	118	199
1742	118	199
1743	117	199
1744	118	199
1745	118	199
1746	118	199
1747	118	199
1748	118	199
1749	119	199
1750	119	199
1751	119	199
1752	119	199
1753	119	199
1754	118	199
1755	119	199
1756	119	199
1757	119	199
1758	119	199
1759	119	199
1760	119	199
1761	119	199
1762	119	199
1763	119	199
1764	119	199
1765	119	199
1766	119	199
1767	120	199
1768	120	199
1769	119	199
1770	120	199
1771	120	199
1772	120	199
1773	120	199
1774	120	199
1775	120	199
1776	120	199
1777	120	198
1778	120	199
1779	120	199
1780	120	199
1781	120	199
1782	120	199
1783	120	199
1784	120	199
1785	120	199
1786	121	199
1787	121	199
1788	120	199
1789	121	199
1790	121	199
1791	121	198
1792	121	199
1793	121	199
1794	121	199
1795	122	199
1796	122	199
1797	121	199
1798	121	199
1799	121	199
1800	122	199
1801	122	199
1802	122	199
1803	122	199
1804	122	199
1805	122	199
1806	123	199
1807	123	199
1808	122	199
1809	123	199
1810	123	199
1811	122	199
1812	123	199
1813	123	199
1814	123	199
1815	123	199
1816	123	199
1817	123	199
1818	123	199
1819	123	199
1820	123	199
1821	123	199
1822	123	199
1823	123	199
1824	123	199
1825	123	199
1826	124	199
1827	123	199
1828	123	199
1829	123	199
1830	124	199
1831	124	199
1832	124	199
1833	124	199
1834	123	199
1835	124	199
1836	124	199
1837	124	199
1838	124	199
1839	124	199
1840	124	199
1841	124	199
1842	124	199
1843	124	199
1844	125	199
1845	125	199
1846	124	199
1847	125	199
1848	125	199
1849	124	199
1850	125	199
1851	125	199
1852	125	199
1853	125	199
1854	126	199
1855	125	199
1856	125	199
1857	125	199
1858	125	199
1859	126	199
1860	126	199
1861	125	199
1862	126	199
1863	126	199
1864	126	199
1865	126	199
1866	126	199
1867	127	199
1868	126	199
1869	126	199
1870	126	199
1871	127	199
1872	127	199
1873	127	199
1874	127	199
1875	127	199
1876	127	200
1877	127	199
1878	127	199
1879	127	199
1880	127	199
1881	127	199
1882	127	200
1883	127	199
1884	127	199
1885	127	199
1886	127	199
1887	128	199
1888	128	199
1889	127	199
1890	127	200
1891	128	199
1892	128	199
1893	127	199
1894	128	199
1895	128	200
1896	128	199
1897	128	199
1898	128	199
1899	128	199
1900	128	199
1901	128	199
1902	128	200
1903	128	200
1904	128	200
1905	128	199
1906	128	199
1907	129	199
1908	128	199
1909	129	199
1910	128	199
1911	128	199
1912	129	199
1913	129	199
1914	128	199
1915	129	199
1916	129	199
1917	129	199
1918	129	200
1919	129	199
1920	129	199
1921	129	199
1922	129	200
1923	129	199
1924	129	199
1925	129	199
1926	129	200
1927	130	199
1928	130	199
1929	130	199
1930	129	200
1931	130	199
1932	130	199
1933	130	199
1934	130	200
1935	131	199
1936	130	199
1937	131	199
1938	131	200
1939	130	200
1940	131	200
1941	131	199
1942	131	199
1943	130	200
1944	131	200
1945	131	199
1946	131	199
1947	131	199
1948	131	199
1949	131	200
1950	131	199
1951	131	199
1952	131	199
1953	131	199
1954	131	199
1955	131	199
1956	131	200
1957	132	199
1958	132	199
1959	132	200
1960	131	199
1961	132	199
1962	132	199
1963	132	200
1964	132	199
1965	132	199
1966	132	199
1967	132	199
1968	132	199
1969	132	199
1970	132	199
1971	132	199
1972	132	199
1973	132	199
1974	132	199
1975	132	200
1976	132	199
1977	132	199
1978	133	200
1979	133	199
1980	132	200
1981	133	200
1982	133	199
1983	133	199
1984	133	199
1985	133	199
1986	133	199
1987	133	200
1988	133	200
1989	133	199
1990	133	199
1991	133	199
1992	133	199
1993	133	200
1994	133	200
1995	134	200
1996	134	200
1997	134	199
1998	134	200
1999	135	200
2000	134	199
2001	134	199
2002	134	199
2003	134	199
2004	134	199
2005	135	200
2006	134	200
2007	134	200
2008	135	200
2009	135	199
2010	135	199
2011	135	200
2012	135	200
2013	135	200
2014	135	199
2015	135	199
2016	135	199
2017	135	199
2018	135	199
2019	135	199
2020	135	200
2021	135	200
2022	135	199
2023	135	199
2024	135	199
2025	135	200
2026	136	199
2027	135	199
2028	135	199
2029	136	199
2030	136	200
2031	136	200
2032	136	200
2033	136	200
2034	136	200
2035	136	199
2036	136	200
2037	136	200
2038	136	200
2039	136	200
2040	136	200
2041	136	200
2042	136	200
2043	136	200
2044	136	199
2045	136	200
2046	136	200
2047	136	200
2048	136	200
2049	137	200
2050	136	200
2051	136	199
2052	136	200
2053	136	200
2054	137	200
2055	137	200
2056	137	199
2057	137	200
2058	137	200
2059	137	200
2060	137	200
2061	137	200
2062	137	199
2063	138	200
2064	137	199
2065	138	199
2066	137	199
2067	138	199
2068	138	200
2069	138	200
2070	138	200
2071	138	200
2072	138	199
2073	138	200
2074	138	200
2075	138	200
2076	138	200
2077	138	200
2078	138	199
2079	139	199
2080	139	200
2081	139	200
2082	138	199
2083	139	200
2084	139	199
2085	138	200
2086	139	200
2087	139	199
2088	139	200
2089	139	200
2090	139	200
2091	139	199
2092	139	200
2093	139	200
2094	139	200
2095	139	200
2096	139	199
2097	139	199
2098	140	199
2099	139	200
2100	139	200
2101	140	199
2102	139	200
2103	139	200
2104	140	200
2105	140	200
2106	139	199
2107	140	200
2108	139	200
2109	140	200
2110	140	200
2111	140	200
2112	140	200
2113	140	200
2114	140	200
2115	140	200
2116	140	200
2117	140	199
2118	140	200
2119	140	200
2120	140	200
2121	141	200
2122	141	200
2123	141	200
2124	140	200
2125	141	200
2126	141	200
2127	141	200
2128	141	200
2129	141	200
2130	141	200
2131	141	199
2132	141	200
2133	140	200
2134	141	199
2135	141	200
2136	141	200
2137	141	200
2138	141	200
2139	141	200
2140	141	200
2141	142	199
2142	142	200
2143	141	200
2144	141	200
2145	141	200
2146	142	200
2147	141	200
2148	142	200
2149	142	200
2150	142	200
2151	142	200
2152	142	200
2153	143	200
2154	142	199
2155	142	200
2156	142	200
2157	142	200
2158	142	200
2159	142	200
2160	143	200
2161	143	200
2162	143	200
2163	143	200
2164	143	200
2165	143	200
2166	143	200
2167	143	200
2168	143	200
2169	143	200
2170	143	200
2171	143	200
2172	143	200
2173	143	200
2174	143	200
2175	143	200
2176	143	200
2177	143	200
2178	143	200
2179	143	200
2180	143	200
2181	143	200
2182	143	200
2183	143	200
2184	144	200
2185	143	200
2186	144	200
2187	144	200
2188	144	199
2189	144	200
2190	144	200
2191	144	200
2192	144	200
2193	144	200
2194	144	200
2195	144	200
2196	144	200
2197	144	200
2198	144	200
2199	144	200
2200	144	200
2201	144	200
2202	144	199
2203	144	200
2204	144	200
2205	144	200
2206	145	200
2207	145	200
2208	145	200
2209	144	200
2210	145	200
2211	144	200
2212	145	200
2213	144	200
2214	144	200
2215	145	200
2216	145	200
2217	145	200
2218	145	200
2219	145	199
2220	145	200
2221	145	200
2222	145	200
2223	145	200
2224	146	200
2225	145	200
2226	146	200
2227	145	200
2228	145	200
2229	146	200
2230	145	200
2231	146	200
2232	146	200
2233	147	200
2234	146	200
2235	146	200
2236	146	200
2237	147	200
2238	146	200
2239	146	200
2240	146	200
2241	146	200
2242	146	200
2243	147	200
2244	146	200
2245	147	200
2246	147	200
2247	147	201
2248	147	200
2249	147	200
2250	146	200
2251	147	200
2252	147	201
2253	147	200
2254	147	200
2255	147	200
2256	147	200
2257	147	200
2258	147	200
2259	147	200
2260	147	200
2261	147	201
2262	147	200
2263	147	200
2264	147	200
2265	148	200
2266	148	200
2267	147	200
2268	148	200
2269	147	200
2270	148	200
2271	148	200
2272	148	200
2273	147	200
2274	148	200
2275	148	200
2276	148	200
2277	148	200
2278	148	200
2279	148	200
2280	148	200
2281	148	200
2282	148	200
2283	148	200
2284	148	199
2285	148	200
2286	149	200
2287	148	201
2288	148	200
2289	148	200
2290	148	200
2291	148	200
2292	149	200
2293	149	200
2294	149	200
2295	149	200
2296	149	200
2297	148	200
2298	149	201
2299	149	200
2300	149	200
2301	149	200
2302	149	200
2303	149	201
2304	149	200
2305	149	200
2306	149	200
2307	149	200
2308	150	200
2309	150	200
2310	149	200
2311	150	200
2312	150	201
2313	150	200
2314	150	200
2315	150	200
2316	150	200
2317	150	201
2318	150	200
2319	151	200
2320	151	200
2321	150	200
2322	150	200
2323	150	201
2324	150	200
2325	150	199
2326	151	200
2327	151	200
2328	151	200
2329	150	201
2330	151	200
2331	151	200
2332	151	200
2333	151	201
2334	151	200
2335	151	200
2336	151	200
2337	151	201
2338	151	200
2339	151	200
2340	151	200
2341	151	200
2342	151	200
2343	151	200
2344	151	200
2345	151	200
2346	151	200
2347	151	200
2348	151	200
2349	151	200
2350	151	200
2351	151	200
2352	151	200
2353	151	201
2354	151	200
2355	152	200
2356	151	200
2357	151	200
2358	151	200
2359	151	200
2360	151	200
2361	151	200
2362	152	200
2363	152	200
2364	151	200
2365	152	200
2366	152	201
2367	152	200
2368	152	200
2369	152	201
2370	152	201
2371	152	200
2372	152	201
2373	152	200
2374	152	200
2375	152	200
2376	152	200
2377	152	200
2378	152	201
2379	152	200
2380	152	200
2381	152	201
2382	152	200
2383	152	201
2384	152	201
2385	152	201
2386	153	201
2387	152	200
2388	153	200
2389	153	200
2390	152	200
2391	153	200
2392	153	200
2393	153	200
2394	153	200
2395	153	201
2396	153	200
2397	153	200
2398	153	201
2399	153	200
2400	153	200
2401	153	201
2402	153	201
2403	153	200
2404	153	200
2405	154	201
2406	153	200
2407	154	201
2408	154	201
2409	154	201
2410	154	201
2411	154	200
2412	153	201
2413	153	200
2414	153	200
2415	154	200
2416	154	201
2417	155	201
2418	155	201
2419	154	200
2420	154	200
2421	154	200
2422	154	201
2423	154	201
2424	155	201
2425	155	200
2426	154	201
2427	155	200
2428	155	201
2429	154	200
2430	155	200
2431	154	201
2432	155	200
2433	155	200
2434	155	200
2435	155	201
2436	155	201
2437	155	200
2438	155	200
2439	155	200
2440	155	201
2441	155	201
2442	155	201
2443	155	200
2444	155	201
2445	155	200
2446	155	200
2447	155	200
2448	155	201
2449	155	201
2450	155	201
2451	155	201
2452	155	201
2453	155	200
2454	155	201
2455	156	200
2456	156	201
2457	155	201
2458	156	201
2459	155	200
2460	156	200
2461	155	201
2462	156	199
2463	156	200
2464	156	201
2465	156	200
2466	156	201
2467	156	200
2468	156	200
2469	156	200
2470	156	200
2471	156	201
2472	156	201
2473	156	200
2474	156	201
2475	156	200
2476	156	201
2477	156	201
2478	156	201
2479	156	201
2480	156	201
2481	156	200
2482	156	201
2483	157	200
2484	157	201
2485	156	200
2486	156	200
2487	156	200
2488	156	200
2489	157	200
2490	157	201
2491	157	200
2492	157	200
2493	156	200
2494	156	201
2495	157	200
2496	157	200
2497	157	200
2498	157	200
2499	157	200
2500	157	201
2501	157	200
2502	157	201
2503	157	200
2504	158	200
2505	157	200
2506	157	201
2507	157	201
2508	158	200
2509	157	200
2510	157	200
2511	157	201
2512	158	201
2513	158	200
2514	158	201
2515	157	200
2516	157	200
2517	157	200
2518	158	201
2519	158	200
2520	158	200
2521	158	201
2522	158	201
2523	158	201
2524	158	200
2525	158	200
2526	158	200
2527	158	200
2528	158	200
2529	158	201
2530	158	201
2531	158	201
2532	158	200
2533	159	201
2534	159	201
2535	159	201
2536	159	200
2537	159	201
2538	159	200
2539	159	201
2540	159	201
2541	159	201
2542	159	201
2543	159	201
2544	159	201
2545	159	201
2546	159	201
2547	159	200
2548	159	200
2549	159	201
2550	159	201
2551	159	201
2552	159	201
2553	159	201
2554	159	201
2555	159	200
2556	159	200
2557	159	201
2558	159	201
2559	159	200
2560	159	201
2561	159	201
2562	159	201
2563	159	201
2564	159	201
2565	159	200
2566	159	201
2567	159	201
2568	159	201
2569	160	201
2570	160	201
2571	160	200
2572	160	201
2573	159	200
2574	160	201
2575	160	201
2576	160	201
2577	160	200
2578	159	200
2579	160	201
2580	160	202
2581	160	201
2582	160	201
2583	160	200
2584	160	200
2585	160	202
2586	160	201
2587	160	201
2588	160	201
2589	160	201
2590	160	201
2591	160	201
2592	160	201
2593	160	201
2594	160	202
2595	160	201
2596	160	201
2597	160	201
2598	160	200
2599	160	200
2600	160	201
2601	160	201
2602	161	201
2603	160	201
2604	160	201
2605	160	201
2606	160	200
2607	161	200
2608	160	201
2609	160	201
2610	161	201
2611	161	202
2612	161	201
2613	161	200
2614	161	201
2615	161	201
2616	161	201
2617	161	201
2618	161	201
2619	161	201
2620	161	201
2621	161	201
2622	161	201
2623	161	201
2624	161	201
2625	162	201
2626	161	201
2627	161	201
2628	161	200
2629	161	201
2630	161	200
2631	162	200
2632	162	201
2633	161	202
2634	162	201
2635	162	201
2636	162	201
2637	162	201
2638	161	201
2639	162	201
2640	162	201
2641	161	201
2642	162	201
2643	162	201
2644	162	201
2645	162	201
2646	162	201
2647	162	200
2648	162	200
2649	162	201
2650	162	201
2651	162	201
2652	162	201
2653	162	201
2654	162	201
2655	162	201
2656	163	201
2657	162	201
2658	163	202
2659	163	201
2660	163	201
2661	162	201
2662	163	201
2663	163	201
2664	163	201
2665	163	201
2666	163	201
2667	163	201
2668	163	200
2669	163	201
2670	163	202
2671	163	201
2672	163	201
2673	163	202
2674	163	201
2675	163	201
2676	163	201
2677	163	201
2678	163	201
2679	163	201
2680	163	200
2681	163	201
2682	163	202
2683	163	201
2684	163	201
2685	163	201
2686	163	201
2687	163	201
2688	163	201
2689	163	200
2690	163	201
2691	163	202
2692	163	201
2693	163	201
2694	164	201
2695	163	200
2696	163	201
2697	163	201
2698	164	201
2699	164	201
2700	163	201
2701	163	201
2702	164	200
2703	164	200
2704	163	201
2705	164	202
2706	164	201
2707	164	202
2708	164	201
2709	164	201
2710	164	202
2711	164	202
2712	164	201
2713	164	201
2714	164	201
2715	164	202
2716	164	201
2717	164	201
2718	164	201
2719	164	200
2720	164	201
2721	164	201
2722	164	201
2723	164	201
2724	164	201
2725	164	201
2726	164	201
2727	164	201
2728	164	201
2729	164	202
2730	164	201
2731	164	201
2732	164	201
2733	164	201
2734	164	201
2735	164	202
2736	164	201
2737	165	201
2738	164	202
2739	165	202
2740	165	201
2741	165	202
2742	165	201
2743	164	201
2744	165	201
2745	165	201
2746	165	201
2747	165	201
2748	165	202
2749	165	201
2750	165	200
2751	165	201
2752	165	201
2753	165	201
2754	165	201
2755	166	201
2756	166	201
2757	166	201
2758	166	201
2759	166	202
2760	165	201
2761	166	202
2762	165	202
2763	165	201
2764	166	201
2765	166	202
2766	165	201
2767	166	200
2768	166	201
2769	166	201
2770	166	201
2771	166	201
2772	166	202
2773	166	202
2774	166	201
2775	167	202
2776	166	201
2777	167	201
2778	167	202
2779	166	201
2780	167	201
2781	166	201
2782	166	201
2783	166	201
2784	166	201
2785	166	202
2786	167	201
2787	167	201
2788	166	201
2789	167	202
2790	167	201
2791	167	201
2792	167	202
2793	167	201
2794	167	202
2795	167	201
2796	167	202
2797	167	201
2798	167	201
2799	167	202
2800	167	201
2801	167	202
2802	167	201
2803	167	202
2804	167	202
2805	167	201
2806	167	201
2807	167	201
2808	167	201
2809	167	201
2810	167	202
2811	167	201
2812	167	201
2813	167	201
2814	167	201
2815	168	202
2816	167	201
2817	167	202
2818	167	201
2819	167	201
2820	167	201
2821	167	201
2822	168	201
2823	167	201
2824	167	201
2825	167	201
2826	167	202
2827	168	202
2828	168	201
2829	167	202
2830	168	201
2831	167	201
2832	168	201
2833	168	201
2834	168	202
2835	168	201
2836	168	202
2837	168	202
2838	168	200
2839	168	202
2840	168	201
2841	168	201
2842	168	201
2843	168	201
2844	168	202
2845	168	202
2846	168	202
2847	168	202
2848	168	201
2849	168	202
2850	168	201
2851	168	202
2852	169	201
2853	168	202
2854	168	201
2855	168	201
2856	168	202
2857	168	202
2858	168	201
2859	168	202
2860	169	201
2861	169	201
2862	168	202
2863	168	202
2864	169	202
2865	168	201
2866	168	201
2867	168	201
2868	168	201
2869	169	201
2870	169	201
2871	169	201
2872	168	201
2873	168	200
2874	169	202
2875	168	202
2876	169	202
2877	169	202
2878	168	201
2879	169	201
2880	169	201
2881	169	202
2882	169	202
2883	169	202
2884	169	201
2885	169	201
2886	169	201
2887	169	200
2888	169	201
2889	169	202
2890	169	202
2891	169	202
2892	169	202
2893	169	201
2894	169	201
2895	170	202
2896	170	202
2897	169	202
2898	169	202
2899	169	202
2900	170	202
2901	169	202
2902	169	202
2903	169	202
2904	169	201
2905	170	201
2906	170	201
2907	170	201
2908	170	202
2909	170	202
2910	170	202
2911	169	201
2912	170	201
2913	170	202
2914	170	202
2915	171	201
2916	170	202
2917	170	202
2918	170	202
2919	170	202
2920	170	202
2921	171	201
2922	171	202
2923	170	202
2924	170	201
2925	170	201
2926	171	202
2927	171	202
2928	170	201
2929	171	202
2930	170	202
2931	170	202
2932	171	201
2933	171	201
2934	171	202
2935	171	201
2936	171	202
2937	171	202
2938	171	202
2939	171	202
2940	170	202
2941	171	202
2942	171	202
2943	171	202
2944	171	202
2945	171	202
2946	171	201
2947	171	202
2948	171	202
2949	171	202
2950	171	202
2951	171	202
2952	171	202
2953	171	202
2954	171	201
2955	171	202
2956	171	201
2957	171	201
2958	171	201
2959	171	202
2960	171	202
2961	171	202
2962	171	202
2963	171	202
2964	171	202
2965	171	201
2966	171	201
2967	172	202
2968	171	202
2969	171	201
2970	171	202
2971	171	202
2972	171	202
2973	171	202
2974	171	202
2975	171	202
2976	172	202
2977	172	201
2978	172	202
2979	171	201
2980	171	202
2981	172	201
2982	172	202
2983	172	202
2984	172	202
2985	172	201
2986	172	202
2987	172	202
2988	172	202
2989	171	202
2990	171	201
2991	172	202
2992	172	202
2993	172	202
2994	172	202
2995	172	202
2996	172	201
2997	172	202
2998	172	201
2999	172	202
3000	172	202
3001	172	202
3002	172	202
3003	172	202
3004	172	202
3005	172	202
3006	172	201
3007	172	202
3008	172	202
3009	172	202
3010	172	201
3011	172	202
3012	172	201
3013	172	202
3014	172	202
3015	172	202
3016	172	202
3017	172	201
3018	172	202
3019	172	202
3020	172	202
3021	173	201
3022	173	202
3023	173	202
3024	173	201
3025	173	202
3026	173	202
3027	173	202
3028	172	202
3029	173	202
3030	173	202
3031	173	202
3032	173	201
3033	173	202
3034	173	202
3035	173	201
3036	173	202
3037	172	202
3038	173	202
3039	173	201
3040	173	202
3041	172	201
3042	173	202
3043	173	202
3044	173	202
3045	173	202
3046	173	202
3047	173	202
3048	173	202
3049	173	202
3050	173	202
3051	173	201
3052	173	202
3053	173	202
3054	173	202
3055	173	201
3056	173	202
3057	173	202
3058	174	201
3059	174	202
3060	173	202
3061	173	202
3062	174	202
3063	174	202
3064	174	201
3065	173	201
3066	174	202
3067	174	202
3068	174	202
3069	174	202
3070	174	201
3071	174	202
3072	174	201
3073	174	202
3074	174	202
3075	174	201
3076	174	202
3077	174	202
3078	175	202
3079	175	201
3080	175	202
3081	174	202
3082	175	202
3083	174	202
3084	175	202
3085	175	202
3086	174	202
3087	174	202
3088	175	202
3089	174	202
3090	175	202
3091	175	201
3092	174	202
3093	174	202
3094	175	202
3095	175	202
3096	175	202
3097	175	202
3098	175	202
3099	175	202
3100	175	202
3101	175	202
3102	175	202
3103	175	201
3104	175	202
3105	175	202
3106	175	201
3107	175	202
3108	175	202
3109	175	202
3110	175	202
3111	175	202
3112	175	202
3113	175	201
3114	175	202
3115	175	202
3116	175	202
3117	175	202
3118	175	202
3119	175	202
3120	175	202
3121	175	202
3122	175	202
3123	175	202
3124	175	201
3125	175	202
3126	175	202
3127	175	202
3128	175	202
3129	175	202
3130	175	202
3131	175	202
3132	175	202
3133	175	202
3134	175	202
3135	175	202
3136	175	202
3137	175	202
3138	175	202
3139	175	202
3140	175	202
3141	175	202
3142	175	202
3143	175	202
3144	175	202
3145	175	202
3146	176	202
3147	175	201
3148	175	202
3149	176	202
3150	175	202
3151	176	202
3152	175	202
3153	176	202
3154	175	202
3155	175	202
3156	176	202
3157	176	202
3158	176	202
3159	175	202
3160	176	202
3161	176	201
3162	176	202
3163	176	202
3164	176	202
3165	176	202
3166	176	202
3167	175	202
3168	176	202
3169	176	202
3170	176	202
3171	176	202
3172	176	202
3173	176	202
3174	176	201
3175	176	202
3176	176	202
3177	176	202
3178	176	201
3179	176	202
3180	176	202
3181	176	202
3182	176	201
3183	176	202
3184	176	202
3185	176	202
3186	176	202
3187	176	202
3188	176	202
3189	176	202
3190	176	202
3191	176	202
3192	176	202
3193	176	202
3194	176	201
3195	176	202
3196	176	202
3197	176	202
3198	176	202
3199	176	202
3200	176	201
3201	177	202
3202	176	201
3203	176	202
3204	176	202
3205	177	202
3206	177	202
3207	176	202
3208	176	202
3209	177	201
3210	177	202
3211	176	202
3212	176	202
3213	177	202
3214	177	202
3215	177	202
3216	177	202
3217	177	202
3218	177	202
3219	177	202
3220	177	202
3221	177	202
3222	177	202
3223	177	202
3224	177	202
3225	177	202
3226	177	202
3227	178	202
3228	178	202
3229	177	202
3230	177	202
3231	177	202
3232	177	202
3233	177	202
3234	177	202
3235	177	202
3236	177	202
3237	177	202
3238	178	202
3239	178	202
3240	177	202
3241	177	202
3242	178	202
3243	177	201
3244	178	202
3245	177	202
3246	177	202
3247	177	202
3248	178	202
3249	178	202
3250	178	201
3251	178	202
3252	179	202
3253	178	202
3254	178	202
3255	178	202
3256	178	202
3257	178	202
3258	178	202
3259	178	202
3260	178	202
3261	178	202
3262	179	202
3263	179	202
3264	178	202
3265	178	202
3266	178	202
3267	178	202
3268	178	202
3269	178	201
3270	177	202
3271	179	202
3272	179	202
3273	178	202
3274	179	202
3275	178	202
3276	179	202
3277	179	202
3278	178	202
3279	179	202
3280	179	202
3281	179	202
3282	178	202
3283	179	202
3284	178	201
3285	179	202
3286	179	202
3287	178	202
3288	178	202
3289	179	202
3290	179	202
3291	179	202
3292	179	202
3293	179	202
3294	179	202
3295	179	202
3296	179	202
3297	179	202
3298	179	202
3299	179	202
3300	179	202
3301	179	202
3302	179	202
3303	179	202
3304	179	202
3305	179	202
3306	179	202
3307	179	202
3308	179	202
3309	179	202
3310	179	202
3311	179	202
3312	179	202
3313	179	202
3314	179	202
3315	179	202
3316	179	202
3317	179	202
3318	179	202
3319	179	202
3320	179	202
3321	179	202
3322	179	202
3323	179	202
3324	179	202
3325	179	202
3326	179	202
3327	179	202
3328	179	202
3329	179	202
3330	179	202
3331	179	202
3332	180	202
3333	179	202
3334	180	202
3335	180	202
3336	179	202
3337	179	202
3338	180	202
3339	179	201
3340	180	202
3341	179	202
3342	179	202
3343	179	202
3344	179	202
3345	180	202
3346	180	202
3347	179	202
3348	180	202
3349	180	202
3350	180	202
3351	180	202
3352	179	202
3353	180	202
3354	180	201
3355	180	202
3356	180	202
3357	180	202
3358	180	202
3359	179	202
3360	179	202
3361	180	202
3362	179	202
3363	180	202
3364	180	202
3365	180	202
3366	180	202
3367	179	202
3368	180	202
3369	180	202
3370	180	202
3371	180	202
3372	180	202
3373	180	202
3374	180	202
3375	180	202
3376	180	202
3377	180	202
3378	180	202
3379	180	202
3380	180	201
3381	180	202
3382	180	202
3383	180	202
3384	180	202
3385	180	202
3386	180	202
3387	180	202
3388	180	202
3389	180	202
3390	180	202
3391	181	202
3392	180	202
3393	180	202
3394	180	202
3395	181	202
3396	180	202
3397	180	202
3398	181	202
3399	180	202
3400	180	202
3401	181	202
3402	181	202
3403	180	202
3404	181	202
3405	180	202
3406	181	202
3407	181	202
3408	180	202
3409	180	202
3410	181	202
3411	181	202
3412	180	202
3413	181	202
3414	181	202
3415	181	202
3416	181	202
3417	181	202
3418	181	202
3419	181	202
3420	181	202
3421	181	200
3422	181	202
3423	181	202
3424	181	202
3425	181	202
3426	181	202
3427	181	202
3428	181	202
3429	181	202
3430	181	202
3431	181	202
3432	181	202
3433	181	202
3434	181	202
3435	181	202
3436	181	202
3437	181	202
3438	181	202
3439	181	202
3440	181	202
3441	181	202
3442	181	202
3443	181	202
3444	181	202
3445	181	202
3446	181	202
3447	181	202
3448	181	202
3449	181	202
3450	181	202
3451	181	202
3452	182	202
3453	181	202
3454	181	202
3455	182	202
3456	182	202
3457	182	202
3458	182	202
3459	182	202
3460	181	202
3461	181	202
3462	181	202
3463	182	202
3464	182	202
3465	181	202
3466	182	202
3467	182	202
3468	182	202
3469	182	202
3470	182	202
3471	182	202
3472	182	202
3473	181	202
3474	181	202
3475	182	202
3476	182	202
3477	182	202
3478	182	202
3479	182	202
3480	182	202
3481	182	202
3482	182	202
3483	182	201
3484	182	202
3485	182	202
3486	182	202
3487	182	202
3488	183	202
3489	182	202
3490	183	202
3491	182	202
3492	183	202
3493	182	202
3494	183	202
3495	183	202
3496	182	202
3497	183	202
3498	183	202
3499	182	202
3500	183	202
3501	183	202
3502	183	202
3503	183	202
3504	182	202
3505	183	202
3506	182	202
3507	183	202
3508	183	202
3509	183	202
3510	183	202
3511	183	202
3512	183	202
3513	183	202
3514	183	202
3515	183	202
3516	183	202
3517	183	202
3518	183	202
3519	183	202
3520	183	202
3521	183	202
3522	183	202
3523	182	202
3524	183	202
3525	183	202
3526	183	202
3527	183	202
3528	183	202
3529	183	202
3530	183	202
3531	183	202
3532	183	202
3533	183	202
3534	183	202
3535	183	202
3536	183	202
3537	183	202
3538	183	202
3539	183	202
3540	183	202
3541	183	202
3542	183	202
3543	183	202
3544	183	202
3545	183	202
3546	183	202
3547	183	202
3548	183	202
3549	183	202
3550	183	202
3551	183	202
3552	183	202
3553	183	202
3554	183	202
3555	183	202
3556	183	202
3557	183	202
3558	183	201
3559	183	202
3560	183	202
3561	183	202
3562	183	202
3563	183	202
3564	183	202
3565	183	202
3566	183	202
3567	183	202
3568	183	202
3569	183	202
3570	183	202
3571	183	202
3572	183	202
3573	183	202
3574	183	202
3575	183	202
3576	183	202
3577	183	202
3578	184	202
3579	183	202
3580	184	202
3581	184	202
3582	184	202
3583	183	202
3584	184	202
3585	183	202
3586	183	202
3587	184	202
3588	183	202
3589	183	201
3590	183	202
3591	184	202
3592	184	202
3593	184	202
3594	184	202
3595	184	202
3596	184	202
3597	184	202
3598	184	202
3599	184	202
3600	183	202
3601	184	202
3602	184	202
3603	184	202
3604	184	202
3605	184	202
3606	184	202
3607	184	202
3608	184	202
3609	183	202
3610	184	202
3611	184	202
3612	184	202
3613	184	202
3614	184	202
3615	184	202
3616	183	202
3617	184	202
3618	184	202
3619	184	202
3620	184	202
3621	184	202
3622	184	202
3623	184	202
3624	184	202
3625	184	202
3626	184	202
3627	184	202
3628	184	202
3629	184	202
3630	184	202
3631	184	202
3632	184	202
3633	184	202
3634	184	202
3635	184	202
3636	184	202
3637	184	202
3638	184	202
3639	184	202
3640	184	202
3641	184	202
3642	185	202
3643	184	202
3644	184	202
3645	184	202
3646	185	202
3647	184	202
3648	184	202
3649	184	202
3650	184	202
3651	184	202
3652	184	202
3653	184	202
3654	184	202
3655	184	202
3656	184	202
3657	184	202
3658	185	202
3659	185	202
3660	185	202
3661	184	202
3662	185	202
3663	185	202
3664	185	202
3665	185	202
3666	185	202
3667	185	202
3668	185	202
3669	184	202
3670	185	202
3671	185	202
3672	185	202
3673	185	202
3674	184	202
3675	184	202
3676	184	202
3677	185	202
3678	185	202
3679	185	202
3680	185	202
3681	185	202
3682	185	202
3683	185	202
3684	185	202
3685	184	202
3686	185	202
3687	185	202
3688	185	202
3689	185	202
3690	185	202
3691	185	202
3692	185	202
3693	185	202
3694	185	202
3695	184	202
3696	185	202
3697	185	202
3698	185	202
3699	185	202
3700	185	202
3701	185	202
3702	186	202
3703	186	202
3704	186	202
3705	185	202
3706	185	202
3707	185	202
3708	185	202
3709	185	202
3710	186	202
3711	186	202
3712	185	202
3713	186	202
3714	185	202
3715	185	202
3716	185	202
3717	185	202
3718	185	202
3719	186	202
3720	185	202
3721	186	202
3722	186	202
3723	187	202
3724	186	202
3725	185	202
3726	185	202
3727	186	202
3728	186	202
3729	186	202
3730	186	202
3731	186	202
3732	185	202
3733	186	202
3734	186	202
3735	186	202
3736	186	202
3737	186	202
3738	186	202
3739	186	202
3740	186	202
3741	186	202
3742	186	202
3743	186	202
3744	187	202
3745	186	202
3746	186	202
3747	186	202
3748	186	202
3749	186	202
3750	186	202
3751	187	202
3752	186	202
3753	186	202
3754	186	202
3755	186	202
3756	186	202
3757	186	202
3758	186	202
3759	187	202
3760	186	202
3761	187	202
3762	187	202
3763	186	202
3764	185	202
3765	186	202
3766	187	202
3767	187	202
3768	187	202
3769	187	202
3770	186	202
3771	186	202
3772	187	202
3773	187	202
3774	187	202
3775	187	202
3776	187	202
3777	187	202
3778	187	202
3779	187	202
3780	187	202
3781	186	202
3782	187	202
3783	187	202
3784	187	202
3785	187	202
3786	187	202
3787	187	202
3788	187	202
3789	187	202
3790	187	202
3791	187	202
3792	187	202
3793	187	202
3794	187	202
3795	187	202
3796	187	202
3797	187	202
3798	187	202
3799	187	202
3800	187	202
3801	187	202
3802	187	202
3803	187	202
3804	187	202
3805	187	202
3806	187	202
3807	187	202
3808	187	202
3809	187	202
3810	187	202
3811	187	202
3812	187	202
3813	187	202
3814	187	202
3815	187	202
3816	187	202
3817	187	202
3818	187	202
3819	187	202
3820	187	202
3821	187	202
3822	187	202
3823	187	202
3824	187	202
3825	187	202
3826	187	202
3827	187	202
3828	187	202
3829	187	202
3830	187	202
3831	187	202
3832	187	202
3833	187	202
3834	187	202
3835	187	202
3836	187	202
3837	187	202
3838	187	202
3839	187	202
3840	187	202
3841	187	202
3842	187	202
3843	187	202
3844	187	202
3845	187	202
3846	187	202
3847	187	202
3848	187	202
3849	187	202
3850	187	202
3851	187	202
3852	188	202
3853	187	202
3854	188	202
3855	187	202
3856	187	202
3857	187	202
3858	187	202
3859	187	202
3860	187	202
3861	187	202
3862	187	202
3863	187	202
3864	188	202
3865	187	202
3866	187	202
3867	187	202
3868	188	202
3869	187	202
3870	187	202
3871	187	202
3872	188	202
3873	187	202
3874	187	202
3875	187	202
3876	187	202
3877	188	202
3878	188	202
3879	188	202
3880	187	202
3881	188	202
3882	187	202
3883	187	202
3884	188	202
3885	187	202
3886	188	202
3887	187	202
3888	188	202
3889	188	202
3890	188	202
3891	188	202
3892	188	202
3893	188	202
3894	188	202
3895	187	202
3896	188	202
3897	188	202
3898	188	202
3899	188	202
3900	188	202
3901	188	202
3902	188	202
3903	188	202
3904	188	202
3905	188	202
3906	188	202
3907	188	202
3908	188	202
3909	188	202
3910	188	202
3911	188	202
3912	188	202
3913	188	202
3914	188	203
3915	188	202
3916	188	202
3917	188	202
3918	188	202
3919	188	202
3920	188	202
3921	188	202
3922	188	202
3923	188	202
3924	188	202
3925	188	202
3926	188	202
3927	188	202
3928	188	202
3929	188	202
3930	188	202
3931	188	202
3932	188	202
3933	189	203
3934	188	202
3935	188	202
3936	188	203
3937	189	202
3938	188	202
3939	188	203
3940	188	202
3941	188	202
3942	188	202
3943	188	202
3944	188	202
3945	188	202
3946	188	202
3947	188	202
3948	188	202
3949	188	202
3950	189	202
3951	188	202
3952	188	203
3953	188	202
3954	188	202
3955	188	202
3956	188	202
3957	188	202
3958	188	202
3959	188	202
3960	188	202
3961	188	202
3962	188	202
3963	188	202
3964	188	202
3965	189	202
3966	188	202
3967	188	202
3968	188	203
3969	188	202
3970	188	202
3971	189	202
3972	189	202
3973	188	202
3974	188	202
3975	188	202
3976	188	202
3977	188	202
3978	189	202
3979	188	202
3980	189	202
3981	189	202
3982	188	202
3983	188	202
3984	188	202
3985	188	202
3986	189	202
3987	188	202
3988	188	202
3989	189	202
3990	189	202
3991	189	202
3992	188	202
3993	188	202
3994	189	202
3995	189	202
3996	188	202
3997	189	202
3998	189	202
3999	189	202
4000	188	202
4001	189	202
4002	189	202
4003	189	202
4004	189	202
4005	189	202
4006	189	202
4007	189	202
4008	189	202
4009	189	202
4010	189	202
4011	189	202
4012	189	202
4013	189	202
4014	189	202
4015	189	202
4016	189	202
4017	189	202
4018	189	202
4019	189	202
4020	189	202
4021	189	202
4022	189	202
4023	189	202
4024	189	202
4025	189	202
4026	189	202
4027	189	202
4028	189	202
4029	189	202
4030	189	202
4031	189	202
4032	189	202
4033	189	202
4034	189	202
4035	189	202
4036	189	202
4037	189	202
4038	189	202
4039	189	202
4040	189	202
4041	189	203
4042	189	202
4043	190	202
4044	189	202
4045	189	202
4046	189	202
4047	189	202
4048	190	203
4049	189	202
4050	189	202
4051	189	202
4052	189	202
4053	189	202
4054	189	202
4055	189	202
4056	190	202
4057	190	202
4058	190	202
4059	190	202
4060	189	202
4061	189	202
4062	190	202
4063	189	202
4064	190	202
4065	189	202
4066	190	202
4067	189	202
4068	190	202
4069	190	202
4070	190	202
4071	189	202
4072	189	202
4073	190	202
4074	190	202
4075	190	202
4076	190	202
4077	190	202
4078	190	202
4079	190	202
4080	190	202
4081	190	202
4082	190	202
4083	190	202
4084	190	202
4085	190	202
4086	190	202
4087	191	202
4088	190	202
4089	190	202
4090	190	202
4091	191	202
4092	190	202
4093	190	202
4094	190	202
4095	190	202
