N	f/[kHz]	V/[dBV]
0	0.0153	-170.2
1	0.0458	-16.4
2	0.0763	-2.9
3	0.1068	-2.9
4	0.1373	-11.4
5	0.1678	-18.6
6	0.1984	-22.4
7	0.2289	-24.6
8	0.2594	-26.5
9	0.2899	-28.4
10	0.3204	-29.6
11	0.3510	-30.2
12	0.3815	-31.5
13	0.4120	-31.5
14	0.4425	-32.8
15	0.4730	-33.7
16	0.5035	-33.7
17	0.5341	-35.3
18	0.5646	-35.6
19	0.5951	-36.2
20	0.6256	-36.8
21	0.6561	-36.8
22	0.6866	-37.1
23	0.7172	-38.1
24	0.7477	-38.4
25	0.7782	-39.0
26	0.8087	-39.3
27	0.8392	-39.3
28	0.8698	-39.3
29	0.9003	-39.7
30	0.9308	-39.7
31	0.9613	-40.0
32	0.9918	-40.0
33	1.0223	-41.2
34	1.0529	-41.2
35	1.0834	-41.2
36	1.1139	-41.2
37	1.1444	-42.2
38	1.1749	-42.2
39	1.2054	-42.2
40	1.2360	-43.1
41	1.2665	-43.4
42	1.2970	-43.4
43	1.3275	-44.0
44	1.3580	-44.4
45	1.3885	-43.1
46	1.4191	-43.1
47	1.4496	-45.0
48	1.4801	-45.0
49	1.5106	-45.0
50	1.5411	-44.7
51	1.5717	-44.7
52	1.6022	-43.7
53	1.6327	-43.7
54	1.6632	-45.3
55	1.6937	-45.0
56	1.7242	-44.0
57	1.7548	-44.0
58	1.7853	-45.6
59	1.8158	-47.8
60	1.8463	-47.5
61	1.8768	-47.5
62	1.9073	-47.5
63	1.9379	-47.2
64	1.9684	-47.2
65	1.9989	-47.5
66	2.0294	-47.8
67	2.0599	-47.2
68	2.0905	-47.2
69	2.1210	-48.4
70	2.1515	-48.8
71	2.1820	-47.2
72	2.2125	-47.2
73	2.2430	-49.4
74	2.2736	-47.2
75	2.3041	-47.2
76	2.3346	-49.4
77	2.3651	-49.4
78	2.3956	-48.8
79	2.4261	-48.8
80	2.4567	-47.8
81	2.4872	-47.8
82	2.5177	-48.1
83	2.5482	-49.4
84	2.5787	-49.4
85	2.6093	-49.4
86	2.6398	-47.2
87	2.6703	-47.2
88	2.7008	-48.4
89	2.7313	-47.5
90	2.7618	-47.5
91	2.7924	-46.6
92	2.8229	-46.6
93	2.8534	-47.5
94	2.8839	-49.1
95	2.9144	-46.6
96	2.9449	-46.6
97	2.9755	-47.2
98	3.0060	-45.3
99	3.0365	-44.4
100	3.0670	-44.0
101	3.0975	-42.8
102	3.1281	-42.8
103	3.1586	-44.0
104	3.1891	-38.4
105	3.2196	-38.4
106	3.2501	-40.6
107	3.2806	-41.2
108	3.3112	-37.5
109	3.3417	-36.8
110	3.3722	-34.9
111	3.4027	-34.9
112	3.4332	-33.1
113	3.4637	-31.2
114	3.4943	-27.7
115	3.5248	-24.6
116	3.5553	-18.6
117	3.5858	10.2
118	3.6163	10.2
119	3.6469	-19.6
120	3.6774	-25.8
121	3.7079	-29.3
122	3.7384	-29.3
123	3.7689	-33.1
124	3.7994	-28.7
125	3.8300	-28.7
126	3.8605	-32.8
127	3.8910	-34.0
128	3.9215	-37.8
129	3.9520	-37.8
130	3.9825	-38.4
131	4.0131	-38.7
132	4.0436	-38.7
133	4.0741	-39.0
134	4.1046	-39.0
135	4.1351	-41.5
136	4.1656	-41.8
137	4.1962	-38.7
138	4.2267	-38.7
139	4.2572	-41.2
140	4.2877	-41.8
141	4.3182	-43.1
142	4.3488	-43.1
143	4.3793	-40.3
144	4.4098	-40.3
145	4.4403	-43.7
146	4.4708	-43.7
147	4.5013	-44.4
148	4.5319	-46.2
149	4.5624	-45.3
150	4.5929	-44.0
151	4.6234	-44.0
152	4.6539	-45.9
153	4.6844	-45.9
154	4.7150	-45.9
155	4.7455	-45.9
156	4.7760	-44.4
157	4.8065	-44.4
158	4.8370	-46.9
159	4.8676	-46.6
160	4.8981	-46.6
161	4.9286	-48.1
162	4.9591	-48.1
163	4.9896	-44.7
164	5.0201	-44.7
165	5.0507	-46.6
166	5.0812	-46.6
167	5.1117	-47.5
168	5.1422	-47.2
169	5.1727	-47.2
170	5.2032	-47.5
171	5.2338	-49.1
172	5.2643	-49.4
173	5.2948	-48.8
174	5.3253	-47.2
175	5.3558	-47.2
176	5.3864	-49.7
177	5.4169	-51.3
178	5.4474	-51.3
179	5.4779	-46.2
180	5.5084	-46.2
181	5.5389	-49.1
182	5.5695	-49.1
183	5.6000	-50.3
184	5.6305	-50.0
185	5.6610	-50.0
186	5.6915	-50.0
187	5.7220	-49.4
188	5.7526	-49.4
189	5.7831	-49.4
190	5.8136	-49.7
191	5.8441	-51.3
192	5.8746	-49.4
193	5.9052	-49.4
194	5.9357	-49.4
195	5.9662	-47.8
196	5.9967	-47.8
197	6.0272	-51.3
198	6.0577	-50.3
199	6.0883	-49.7
200	6.1188	-49.7
201	6.1493	-51.3
202	6.1798	-51.3
203	6.2103	-51.3
204	6.2408	-51.9
205	6.2714	-50.3
206	6.3019	-49.7
207	6.3324	-49.7
208	6.3629	-50.9
209	6.3934	-50.9
210	6.4240	-50.9
211	6.4545	-51.9
212	6.4850	-51.9
213	6.5155	-54.1
214	6.5460	-54.1
215	6.5765	-54.1
216	6.6071	-50.6
217	6.6376	-50.6
218	6.6681	-50.6
219	6.6986	-50.6
220	6.7291	-53.5
221	6.7596	-53.5
222	6.7902	-54.7
223	6.8207	-54.7
224	6.8512	-52.2
225	6.8817	-52.2
226	6.9122	-54.4
227	6.9427	-52.5
228	6.9733	-52.5
229	7.0038	-52.8
230	7.0343	-49.4
231	7.0648	-46.9
232	7.0953	-46.9
233	7.1259	-48.4
234	7.1564	-54.4
235	7.1869	-54.4
236	7.2174	-59.1
237	7.2479	-59.1
238	7.2784	-47.5
239	7.3090	-47.5
240	7.3395	-54.4
241	7.3700	-57.2
242	7.4005	-57.8
243	7.4310	-55.7
244	7.4615	-55.7
245	7.4921	-55.7
246	7.5226	-60.7
247	7.5531	-54.7
248	7.5836	-51.9
249	7.6141	-51.9
250	7.6447	-63.5
251	7.6752	-63.5
252	7.7057	-68.2
253	7.7362	-63.2
254	7.7667	-54.4
255	7.7972	-54.4
256	7.8278	-54.7
257	7.8583	-53.1
258	7.8888	-45.6
259	7.9193	-44.4
260	7.9498	-38.7
261	7.9803	-18.9
262	8.0109	-18.9
263	8.0414	-33.4
264	8.0719	-39.3
265	8.1024	-41.8
266	8.1329	-45.6
267	8.1635	-45.6
268	8.1940	-45.6
269	8.2245	-45.6
270	8.2550	-46.9
271	8.2855	-46.9
272	8.3160	-47.5
273	8.3466	-50.9
274	8.3771	-48.4
275	8.4076	-48.4
276	8.4381	-50.0
277	8.4686	-51.3
278	8.4991	-49.7
279	8.5297	-49.7
280	8.5602	-51.6
281	8.5907	-51.6
282	8.6212	-50.6
283	8.6517	-50.6
284	8.6823	-51.3
285	8.7128	-53.5
286	8.7433	-49.7
287	8.7738	-49.7
288	8.8043	-50.0
289	8.8348	-52.2
290	8.8654	-52.5
291	8.8959	-52.5
292	8.9264	-51.9
293	8.9569	-51.9
294	8.9874	-51.3
295	9.0179	-51.3
296	9.0485	-51.3
297	9.0790	-55.0
298	9.1095	-53.8
299	9.1400	-53.8
300	9.1705	-56.0
301	9.2010	-55.0
302	9.2316	-55.0
303	9.2621	-55.0
304	9.2926	-51.6
305	9.3231	-51.6
306	9.3536	-52.5
307	9.3842	-54.1
308	9.4147	-54.1
309	9.4452	-54.1
310	9.4757	-52.8
311	9.5062	-51.3
312	9.5367	-51.3
313	9.5673	-51.3
314	9.5978	-56.0
315	9.6283	-52.2
316	9.6588	-52.2
317	9.6893	-54.1
318	9.7198	-55.0
319	9.7504	-55.0
320	9.7809	-52.8
321	9.8114	-52.8
322	9.8419	-56.3
323	9.8724	-54.1
324	9.9030	-54.1
