
TIME STEP:
125 = 5us

VOLTAGE STEP:
CH1:  32 = 0.3V~
CH2:  32 = 0.3V~
GND	125	126
N	CH1	CH2

0	92	122
1	92	122
2	92	122
3	92	122
4	91	122
5	91	121
6	92	122
7	91	121
8	91	121
9	91	120
10	91	121
11	91	120
12	91	120
13	90	120
14	91	120
15	90	119
16	89	119
17	89	119
18	89	119
19	89	119
20	88	118
21	88	118
22	88	119
23	88	118
24	88	117
25	88	117
26	88	117
27	88	117
28	87	116
29	87	116
30	87	116
31	87	116
32	87	115
33	86	115
34	87	116
35	86	115
36	85	114
37	86	114
38	86	115
39	86	114
40	85	114
41	85	114
42	85	114
43	85	114
44	84	113
45	84	113
46	84	112
47	84	112
48	83	112
49	84	112
50	83	112
51	83	112
52	83	111
53	83	111
54	83	111
55	83	111
56	82	110
57	81	109
58	82	110
59	82	109
60	81	109
61	80	108
62	81	108
63	80	108
64	80	108
65	79	108
66	80	108
67	80	107
68	79	107
69	79	107
70	79	107
71	79	107
72	79	106
73	79	106
74	79	106
75	78	106
76	78	106
77	78	105
78	78	106
79	77	105
80	77	104
81	77	104
82	77	105
83	77	104
84	76	103
85	76	103
86	76	104
87	76	104
88	76	103
89	76	103
90	76	103
91	76	103
92	75	102
93	75	102
94	75	102
95	75	102
96	75	101
97	75	101
98	75	101
99	75	101
100	75	101
101	73	100
102	74	100
103	74	100
104	73	100
105	73	99
106	73	99
107	73	99
108	72	99
109	72	98
110	72	99
111	72	98
112	72	98
113	72	98
114	72	98
115	72	98
116	71	98
117	71	97
118	71	98
119	71	98
120	71	96
121	71	96
122	71	96
123	71	96
124	69	95
125	69	95
126	69	95
127	69	95
128	69	94
129	69	94
130	69	95
131	69	95
132	68	94
133	68	94
134	69	94
135	68	94
136	68	93
137	67	92
138	68	93
139	67	93
140	67	92
141	67	91
142	67	92
143	67	92
144	67	91
145	67	91
146	67	92
147	67	91
148	66	91
149	66	91
150	66	90
151	66	90
152	65	90
153	65	90
154	65	90
155	65	90
156	64	89
157	65	89
158	64	89
159	64	89
160	64	89
161	64	88
162	64	88
163	64	88
164	63	87
165	63	87
166	63	87
167	63	87
168	63	86
169	63	86
170	63	86
171	63	86
172	62	86
173	62	85
174	62	86
175	62	85
176	62	84
177	61	84
178	61	84
179	61	84
180	61	84
181	61	83
182	61	84
183	60	84
184	60	83
185	60	83
186	60	83
187	60	83
188	59	82
189	60	82
190	60	83
191	60	82
192	60	82
193	59	81
194	59	81
195	59	81
196	59	80
197	59	80
198	59	80
199	58	80
200	58	79
201	57	79
202	57	79
203	58	79
204	57	79
205	57	78
206	57	79
207	57	78
208	56	78
209	56	78
210	57	78
211	56	78
212	56	78
213	56	77
214	56	78
215	56	77
216	56	77
217	56	77
218	56	77
219	56	76
220	55	76
221	55	75
222	55	76
223	55	76
224	55	75
225	55	75
226	55	76
227	55	75
228	55	75
229	55	74
230	55	75
231	55	74
232	54	74
233	54	74
234	54	74
235	54	74
236	53	74
237	53	73
238	53	74
239	53	73
240	53	72
241	52	72
242	53	72
243	53	72
244	52	71
245	52	71
246	52	71
247	52	71
248	52	71
249	52	71
250	52	71
251	52	71
252	51	71
253	51	70
254	51	70
255	51	70
256	51	69
257	51	69
258	51	69
259	51	68
260	50	68
261	49	68
262	51	68
263	50	68
264	50	68
265	50	68
266	50	68
267	50	68
268	49	67
269	49	67
270	50	67
271	49	67
272	49	67
273	49	66
274	49	67
275	49	66
276	48	66
277	48	66
278	48	66
279	48	66
280	48	66
281	48	66
282	48	65
283	48	65
284	47	65
285	47	64
286	47	64
287	47	64
288	47	64
289	47	63
290	47	63
291	47	63
292	47	63
293	47	63
294	47	63
295	47	63
296	47	62
297	46	63
298	47	63
299	46	62
300	46	62
301	47	62
302	46	62
303	46	62
304	46	61
305	45	61
306	45	61
307	45	61
308	44	60
309	44	60
310	45	60
311	45	60
312	44	59
313	44	59
314	44	60
315	44	59
316	44	58
317	44	59
318	44	59
319	44	59
320	43	58
321	44	58
322	44	59
323	43	58
324	43	58
325	43	57
326	43	58
327	44	58
328	43	57
329	43	58
330	43	57
331	43	56
332	43	56
333	43	56
334	43	56
335	43	56
336	42	56
337	42	55
338	43	55
339	42	55
340	42	55
341	42	55
342	41	55
343	43	55
344	41	54
345	40	55
346	42	54
347	43	54
348	40	55
349	41	54
350	42	53
351	40	54
352	40	53
353	41	52
354	41	53
355	40	53
356	40	52
357	40	52
358	40	53
359	40	52
360	40	51
361	40	52
362	40	53
363	41	52
364	40	51
365	40	52
366	40	52
367	40	51
368	40	51
369	39	51
370	39	51
371	39	50
372	39	51
373	39	50
374	40	51
375	39	50
376	39	50
377	39	50
378	39	50
379	39	50
380	39	49
381	39	49
382	39	50
383	39	50
384	39	48
385	38	48
386	38	48
387	38	48
388	39	48
389	38	47
390	38	47
391	38	48
392	38	47
393	38	47
394	38	47
395	38	47
396	38	47
397	37	47
398	38	46
399	37	46
400	37	46
401	37	46
402	37	46
403	37	46
404	37	46
405	37	46
406	37	46
407	37	46
408	36	45
409	37	45
410	37	45
411	36	45
412	37	44
413	36	44
414	36	45
415	37	44
416	36	44
417	35	44
418	36	44
419	37	43
420	36	44
421	36	44
422	36	43
423	36	44
424	36	43
425	36	43
426	36	43
427	36	43
428	35	43
429	36	42
430	36	43
431	35	43
432	36	42
433	36	42
434	36	43
435	36	43
436	36	42
437	36	42
438	35	42
439	36	42
440	35	42
441	35	42
442	35	42
443	35	42
444	35	41
445	35	41
446	35	41
447	35	41
448	35	41
449	35	40
450	35	41
451	35	40
452	35	40
453	35	40
454	35	40
455	35	40
456	34	39
457	34	39
458	34	39
459	35	39
460	35	39
461	34	39
462	35	39
463	35	39
464	35	39
465	34	38
466	34	38
467	35	38
468	34	38
469	33	38
470	34	38
471	34	38
472	35	38
473	35	38
474	35	38
475	35	38
476	34	38
477	34	38
478	35	38
479	35	38
480	34	38
481	34	37
482	35	37
483	35	38
484	34	37
485	34	37
486	34	37
487	34	37
488	34	37
489	34	36
490	34	37
491	34	36
492	33	36
493	33	36
494	34	36
495	34	36
496	34	35
497	33	36
498	34	36
499	34	35
500	33	35
501	33	35
502	33	36
503	34	35
504	33	35
505	33	35
506	34	35
507	33	35
508	33	34
509	33	35
510	33	35
511	33	35
512	33	35
513	33	34
514	34	35
515	34	34
516	33	34
517	33	34
518	33	34
519	34	34
520	33	34
521	33	34
522	34	34
523	33	34
524	33	34
525	33	34
526	34	34
527	33	34
528	33	34
529	33	34
530	34	34
531	33	34
532	33	33
533	34	33
534	34	33
535	33	32
536	33	32
537	33	32
538	33	32
539	33	32
540	33	32
541	33	32
542	34	32
543	33	32
544	33	32
545	33	32
546	34	32
547	33	32
548	33	31
549	33	32
550	33	32
551	33	31
552	33	31
553	33	31
554	33	31
555	33	31
556	32	31
557	33	31
558	33	31
559	33	31
560	33	31
561	33	31
562	33	31
563	34	31
564	33	31
565	33	31
566	33	31
567	33	30
568	33	30
569	33	30
570	33	30
571	33	31
572	33	30
573	33	30
574	34	30
575	33	30
576	33	30
577	33	30
578	33	30
579	34	30
580	33	30
581	34	30
582	34	30
583	34	30
584	34	30
585	34	29
586	34	30
587	34	30
588	34	29
589	34	30
590	35	30
591	34	30
592	34	29
593	34	29
594	35	30
595	35	29
596	34	29
597	34	29
598	35	29
599	34	29
600	34	28
601	34	29
602	35	29
603	35	29
604	35	28
605	34	28
606	35	28
607	35	28
608	35	28
609	35	28
610	35	28
611	35	28
612	35	28
613	35	28
614	35	28
615	35	28
616	35	28
617	35	28
618	35	28
619	35	28
620	35	28
621	35	28
622	35	28
623	35	28
624	35	28
625	35	28
626	35	28
627	35	28
628	35	28
629	36	28
630	36	28
631	36	28
632	36	28
633	35	28
634	36	28
635	35	28
636	35	27
637	35	28
638	36	28
639	36	28
640	35	27
641	36	28
642	36	28
643	36	27
644	36	27
645	36	27
646	36	27
647	36	28
648	36	27
649	36	27
650	36	27
651	36	27
652	36	27
653	36	27
654	37	27
655	36	27
656	36	27
657	37	27
658	37	27
659	37	27
660	37	27
661	36	27
662	37	27
663	37	27
664	37	27
665	37	27
666	37	27
667	37	27
668	37	27
669	37	27
670	37	27
671	37	27
672	37	26
673	37	27
674	37	27
675	37	27
676	38	27
677	38	27
678	39	27
679	38	28
680	38	27
681	38	27
682	39	27
683	38	27
684	38	27
685	39	27
686	39	27
687	39	27
688	39	27
689	39	26
690	39	27
691	39	27
692	39	27
693	39	27
694	39	27
695	39	27
696	39	27
697	39	27
698	39	27
699	39	27
700	39	27
701	39	27
702	39	27
703	39	28
704	39	27
705	40	27
706	40	27
707	40	27
708	40	27
709	40	27
710	40	27
711	40	27
712	40	27
713	40	27
714	41	28
715	40	27
716	41	27
717	41	28
718	42	28
719	42	28
720	41	27
721	41	27
722	41	28
723	42	28
724	42	28
725	42	28
726	43	28
727	42	28
728	42	28
729	42	28
730	43	28
731	43	28
732	42	28
733	42	28
734	43	28
735	43	28
736	43	28
737	43	28
738	43	28
739	43	28
740	43	28
741	43	28
742	43	27
743	43	27
744	43	27
745	43	28
746	44	28
747	43	28
748	43	28
749	44	28
750	44	29
751	44	28
752	44	28
753	44	28
754	45	29
755	45	28
756	44	28
757	45	29
758	45	29
759	45	29
760	45	29
761	45	29
762	45	29
763	45	29
764	45	29
765	45	29
766	45	29
767	46	29
768	46	29
769	46	29
770	46	29
771	46	29
772	46	29
773	46	29
774	46	30
775	47	29
776	46	29
777	47	30
778	47	30
779	47	30
780	46	30
781	48	30
782	48	30
783	47	30
784	47	29
785	48	30
786	47	31
787	47	30
788	48	30
789	48	30
790	48	31
791	48	30
792	48	30
793	48	31
794	48	31
795	49	30
796	48	31
797	49	31
798	49	31
799	49	31
800	49	31
801	49	31
802	51	31
803	50	31
804	49	31
805	49	31
806	51	31
807	50	31
808	50	31
809	51	31
810	51	31
811	51	32
812	51	31
813	51	32
814	52	32
815	51	32
816	51	31
817	51	32
818	51	32
819	52	32
820	51	32
821	51	31
822	52	32
823	52	32
824	52	32
825	52	32
826	53	33
827	53	33
828	52	33
829	53	32
830	53	33
831	53	34
832	53	33
833	53	32
834	54	34
835	54	33
836	54	33
837	54	34
838	54	34
839	55	34
840	54	34
841	55	34
842	55	34
843	55	34
844	55	34
845	55	35
846	56	34
847	55	34
848	55	34
849	56	34
850	55	35
851	56	34
852	56	34
853	55	35
854	56	35
855	57	35
856	56	35
857	56	35
858	57	35
859	57	35
860	56	36
861	57	35
862	58	35
863	57	35
864	57	36
865	59	36
866	59	36
867	58	36
868	58	36
869	59	35
870	59	37
871	59	37
872	59	36
873	59	36
874	59	36
875	59	36
876	59	36
877	59	36
878	59	36
879	59	36
880	59	36
881	59	37
882	60	37
883	60	37
884	60	37
885	60	37
886	61	38
887	61	38
888	60	37
889	61	38
890	61	38
891	61	38
892	61	38
893	61	38
894	62	38
895	62	38
896	63	38
897	63	38
898	63	38
899	63	39
900	62	39
901	63	39
902	63	39
903	63	39
904	63	39
905	63	39
906	64	39
907	63	39
908	64	39
909	64	39
910	65	40
911	64	40
912	64	40
913	64	40
914	65	40
915	65	40
916	65	40
917	65	41
918	66	41
919	66	41
920	66	41
921	66	42
922	67	42
923	66	42
924	67	42
925	67	42
926	67	42
927	67	42
928	67	42
929	67	42
930	67	43
931	68	42
932	67	42
933	68	42
934	68	43
935	68	43
936	68	42
937	68	42
938	68	43
939	69	43
940	69	43
941	69	43
942	69	43
943	69	44
944	69	44
945	70	43
946	70	44
947	70	44
948	70	43
949	70	44
950	71	44
951	71	45
952	71	44
953	71	44
954	71	45
955	71	45
956	71	45
957	72	45
958	72	46
959	72	46
960	72	45
961	73	46
962	73	46
963	73	46
964	73	46
965	73	47
966	74	47
967	73	47
968	73	47
969	74	47
970	75	47
971	74	47
972	75	47
973	75	47
974	75	48
975	75	48
976	75	48
977	76	48
978	76	49
979	76	48
980	76	48
981	76	49
982	76	50
983	77	49
984	76	49
985	77	49
986	77	50
987	77	50
988	77	50
989	77	50
990	78	51
991	78	50
992	78	50
993	79	51
994	79	51
995	79	51
996	79	51
997	79	51
998	79	52
999	79	52
1000	79	51
1001	80	51
1002	80	52
1003	80	52
1004	79	52
1005	80	52
1006	80	52
1007	80	52
1008	81	52
1009	81	52
1010	81	53
1011	82	53
1012	81	53
1013	81	53
1014	82	53
1015	82	53
1016	82	54
1017	83	54
1018	83	54
1019	83	54
1020	83	54
1021	83	55
1022	84	55
1023	84	55
1024	83	55
1025	84	55
1026	84	55
1027	84	55
1028	84	55
1029	84	55
1030	85	56
1031	85	56
1032	85	56
1033	85	56
1034	86	57
1035	86	57
1036	86	57
1037	86	57
1038	87	58
1039	87	58
1040	87	58
1041	87	58
1042	87	58
1043	87	58
1044	87	58
1045	88	58
1046	88	59
1047	88	59
1048	88	59
1049	88	59
1050	88	59
1051	89	59
1052	89	59
1053	89	60
1054	90	60
1055	90	60
1056	90	60
1057	90	60
1058	91	60
1059	91	61
1060	90	61
1061	90	61
1062	91	61
1063	91	62
1064	91	62
1065	92	62
1066	92	62
1067	92	62
1068	92	62
1069	92	62
1070	93	63
1071	93	63
1072	93	63
1073	94	63
1074	94	64
1075	94	64
1076	94	63
1077	94	64
1078	95	65
1079	95	64
1080	95	64
1081	95	64
1082	95	65
1083	95	64
1084	95	64
1085	95	65
1086	96	65
1087	96	66
1088	96	66
1089	96	66
1090	96	66
1091	96	66
1092	96	66
1093	97	66
1094	97	67
1095	97	67
1096	97	67
1097	97	67
1098	98	67
1099	98	68
1100	98	67
1101	99	68
1102	99	68
1103	99	68
1104	99	68
1105	99	68
1106	100	69
1107	100	69
1108	100	69
1109	100	70
1110	100	70
1111	101	70
1112	100	70
1113	101	70
1114	102	71
1115	102	71
1116	102	71
1117	102	71
1118	102	71
1119	103	72
1120	103	72
1121	103	72
1122	103	72
1123	103	72
1124	103	73
1125	104	73
1126	104	74
1127	104	73
1128	104	74
1129	104	74
1130	105	74
1131	105	74
1132	104	74
1133	105	74
1134	105	74
1135	105	74
1136	105	74
1137	105	74
1138	106	75
1139	106	75
1140	105	75
1141	107	75
1142	107	76
1143	107	76
1144	107	76
1145	107	76
1146	108	76
1147	108	76
1148	108	76
1149	108	77
1150	108	77
1151	108	77
1152	108	76
1153	108	77
1154	109	77
1155	109	77
1156	109	78
1157	110	78
1158	110	79
1159	110	78
1160	110	79
1161	111	79
1162	111	79
1163	111	80
1164	111	79
1165	111	80
1166	112	80
1167	111	80
1168	112	80
1169	112	81
1170	112	82
1171	112	82
1172	112	82
1173	113	82
1174	113	82
1175	113	83
1176	113	82
1177	114	83
1178	115	83
1179	115	83
1180	115	83
1181	115	83
1182	115	84
1183	115	84
1184	115	84
1185	116	84
1186	116	84
1187	116	85
1188	116	84
1189	116	85
1190	117	85
1191	117	86
1192	117	86
1193	117	86
1194	117	86
1195	118	86
1196	117	86
1197	117	86
1198	118	87
1199	118	87
1200	118	87
1201	119	87
1202	119	87
1203	119	87
1204	119	88
1205	119	88
1206	120	88
1207	120	89
1208	120	88
1209	120	89
1210	121	90
1211	120	89
1212	120	89
1213	121	90
1214	121	90
1215	122	90
1216	122	90
1217	122	90
1218	123	91
1219	123	91
1220	122	90
1221	123	91
1222	124	91
1223	123	91
1224	123	92
1225	124	91
1226	124	92
1227	124	93
1228	124	92
1229	125	92
1230	125	94
1231	124	94
1232	126	93
1233	125	94
1234	125	95
1235	126	94
1236	127	94
1237	126	95
1238	127	95
1239	127	95
1240	127	95
1241	127	96
1242	128	96
1243	127	96
1244	127	96
1245	128	96
1246	128	97
1247	128	97
1248	128	97
1249	128	98
1250	129	98
1251	129	98
1252	129	98
1253	130	98
1254	131	99
1255	130	99
1256	130	99
1257	131	99
1258	131	99
1259	131	99
1260	131	99
1261	131	99
1262	132	100
1263	132	100
1264	131	100
1265	132	100
1266	132	101
1267	133	101
1268	132	100
1269	132	101
1270	133	102
1271	133	102
1272	133	101
1273	133	102
1274	133	102
1275	134	102
1276	134	102
1277	134	103
1278	135	103
1279	135	103
1280	135	103
1281	135	103
1282	135	104
1283	136	104
1284	135	104
1285	136	104
1286	136	105
1287	136	105
1288	136	105
1289	136	106
1290	138	106
1291	138	106
1292	136	106
1293	138	106
1294	139	107
1295	138	108
1296	138	107
1297	139	107
1298	139	108
1299	139	108
1300	140	108
1301	140	108
1302	140	110
1303	140	109
1304	140	108
1305	141	109
1306	141	111
1307	141	110
1308	141	109
1309	141	110
1310	141	111
1311	142	111
1312	142	111
1313	143	111
1314	143	112
1315	143	111
1316	143	112
1317	143	112
1318	144	112
1319	143	112
1320	143	113
1321	143	113
1322	144	114
1323	144	114
1324	144	114
1325	144	114
1326	145	115
1327	145	114
1328	145	115
1329	145	115
1330	146	115
1331	146	115
1332	146	115
1333	146	115
1334	147	116
1335	146	116
1336	147	116
1337	147	116
1338	148	117
1339	147	117
1340	147	117
1341	148	117
1342	148	118
1343	148	118
1344	148	118
1345	148	118
1346	149	118
1347	149	118
1348	148	118
1349	148	118
1350	149	119
1351	149	119
1352	149	119
1353	150	119
1354	150	120
1355	151	120
1356	151	120
1357	150	119
1358	151	121
1359	151	121
1360	151	120
1361	151	121
1362	152	122
1363	152	122
1364	152	122
1365	152	122
1366	153	123
1367	153	123
1368	153	123
1369	153	123
1370	154	124
1371	154	124
1372	154	124
1373	155	125
1374	155	125
1375	155	126
1376	155	125
1377	155	126
1378	155	126
1379	156	127
1380	156	126
1381	156	126
1382	156	127
1383	156	127
1384	156	127
1385	157	127
1386	157	128
1387	157	128
1388	157	128
1389	158	128
1390	158	129
1391	159	130
1392	158	129
1393	159	130
1394	159	130
1395	159	130
1396	159	130
1397	159	130
1398	160	130
1399	159	130
1400	159	131
1401	160	131
1402	160	131
1403	160	131
1404	160	131
1405	160	132
1406	161	132
1407	161	132
1408	161	132
1409	161	132
1410	161	133
1411	161	133
1412	161	133
1413	161	133
1414	162	134
1415	162	134
1416	162	134
1417	163	134
1418	163	135
1419	163	135
1420	163	134
1421	163	135
1422	164	135
1423	163	135
1424	163	135
1425	164	135
1426	164	136
1427	164	136
1428	164	136
1429	164	136
1430	164	138
1431	164	137
1432	165	137
1433	165	138
1434	165	138
1435	166	138
1436	165	138
1437	165	138
1438	167	138
1439	166	139
1440	166	139
1441	167	139
1442	167	139
1443	167	139
1444	167	140
1445	167	140
1446	168	140
1447	168	141
1448	168	140
1449	168	141
1450	169	142
1451	169	142
1452	168	142
1453	169	142
1454	169	143
1455	169	143
1456	169	142
1457	170	143
1458	171	144
1459	171	143
1460	170	144
1461	171	144
1462	171	145
1463	171	145
1464	171	145
1465	172	145
1466	172	146
1467	172	146
1468	172	146
1469	172	146
1470	173	147
1471	172	147
1472	172	147
1473	173	147
1474	173	147
1475	173	147
1476	173	147
1477	173	148
1478	175	148
1479	175	148
1480	174	148
1481	175	148
1482	175	149
1483	175	149
1484	175	149
1485	175	149
1486	175	150
1487	175	150
1488	175	150
1489	175	150
1490	176	151
1491	176	151
1492	176	151
1493	176	151
1494	177	151
1495	176	151
1496	176	151
1497	176	151
1498	177	152
1499	177	152
1500	176	151
1501	177	152
1502	179	153
1503	178	153
1504	178	153
1505	179	154
1506	179	154
1507	179	154
1508	179	154
1509	179	154
1510	179	155
1511	180	155
1512	179	155
1513	180	155
1514	180	155
1515	180	155
1516	179	155
1517	180	155
1518	181	156
1519	180	156
1520	180	156
1521	181	157
1522	181	157
1523	181	158
1524	181	157
1525	182	158
1526	183	158
1527	182	158
1528	183	158
1529	182	158
1530	183	159
1531	183	159
1532	183	159
1533	183	159
1534	183	159
1535	183	159
1536	183	160
1537	184	160
1538	184	160
1539	184	161
1540	184	161
1541	184	161
1542	184	162
1543	185	162
1544	184	162
1545	185	162
1546	185	163
1547	185	163
1548	185	162
1549	185	163
1550	187	163
1551	186	163
1552	186	163
1553	186	164
1554	187	164
1555	187	164
1556	187	164
1557	187	164
1558	187	165
1559	187	165
1560	187	164
1561	187	165
1562	188	165
1563	188	165
1564	188	165
1565	188	166
1566	188	166
1567	188	166
1568	188	166
1569	188	167
1570	189	167
1571	189	167
1572	189	167
1573	189	167
1574	190	168
1575	189	168
1576	189	168
1577	190	168
1578	190	168
1579	190	168
1580	190	168
1581	190	168
1582	191	170
1583	191	170
1584	191	170
1585	191	170
1586	192	170
1587	191	170
1588	191	170
1589	191	170
1590	192	171
1591	192	171
1592	192	171
1593	192	171
1594	192	172
1595	192	172
1596	192	172
1597	193	172
1598	193	172
1599	193	173
1600	193	172
1601	193	173
1602	193	174
1603	194	173
1604	193	173
1605	193	173
1606	194	174
1607	194	174
1608	193	174
1609	194	174
1610	195	175
1611	195	174
1612	194	175
1613	195	175
1614	195	176
1615	195	176
1616	195	175
1617	195	176
1618	196	176
1619	195	176
1620	195	176
1621	195	176
1622	196	177
1623	196	177
1624	195	176
1625	196	177
1626	196	178
1627	197	178
1628	196	178
1629	196	178
1630	197	179
1631	197	178
1632	196	179
1633	197	179
1634	198	179
1635	198	180
1636	198	180
1637	199	180
1638	199	180
1639	198	180
1640	199	180
1641	199	180
1642	199	181
1643	199	181
1644	199	181
1645	199	181
1646	200	182
1647	200	182
1648	199	182
1649	199	182
1650	200	183
1651	200	183
1652	199	183
1653	200	182
1654	200	183
1655	199	184
1656	200	183
1657	200	183
1658	200	184
1659	200	184
1660	200	183
1661	201	184
1662	200	185
1663	201	185
1664	201	184
1665	200	184
1666	201	186
1667	201	186
1668	201	185
1669	201	185
1670	202	186
1671	202	186
1672	201	186
1673	202	186
1674	203	187
1675	203	187
1676	202	187
1677	202	187
1678	203	188
1679	203	188
1680	203	187
1681	203	187
1682	204	188
1683	203	188
1684	203	187
1685	203	188
1686	203	188
1687	203	188
1688	203	189
1689	203	189
1690	204	189
1691	204	189
1692	204	189
1693	204	189
1694	204	190
1695	204	190
1696	204	190
1697	204	190
1698	205	190
1699	205	191
1700	204	190
1701	205	190
1702	205	191
1703	205	191
1704	205	191
1705	205	192
1706	206	192
1707	206	192
1708	205	192
1709	205	192
1710	207	193
1711	206	193
1712	205	192
1713	207	193
1714	207	193
1715	205	194
1716	207	193
1717	207	193
1718	207	194
1719	207	194
1720	207	194
1721	207	194
1722	207	195
1723	207	195
1724	207	194
1725	207	195
1726	208	195
1727	208	195
1728	207	195
1729	207	196
1730	208	196
1731	208	196
1732	207	196
1733	208	196
1734	208	196
1735	208	197
1736	208	196
1737	208	196
1738	209	197
1739	209	197
1740	208	197
1741	208	196
1742	209	198
1743	208	198
1744	208	197
1745	209	198
1746	209	199
1747	209	198
1748	209	198
1749	209	199
1750	210	199
1751	210	199
1752	209	199
1753	210	199
1754	210	200
1755	210	200
1756	209	199
1757	210	199
1758	211	200
1759	211	200
1760	210	200
1761	211	201
1762	211	201
1763	211	201
1764	210	201
1765	211	201
1766	211	202
1767	211	202
1768	211	200
1769	211	201
1770	212	202
1771	211	202
1772	211	202
1773	211	202
1774	212	202
1775	211	202
1776	211	203
1777	211	203
1778	212	203
1779	212	203
1780	211	203
1781	212	203
1782	212	204
1783	212	204
1784	212	203
1785	212	204
1786	212	204
1787	212	204
1788	212	204
1789	212	204
1790	212	204
1791	212	204
1792	212	204
1793	213	205
1794	213	205
1795	213	205
1796	213	205
1797	212	205
1798	213	206
1799	213	206
1800	213	206
1801	213	206
1802	213	206
1803	214	206
1804	213	207
1805	213	207
1806	214	207
1807	214	207
1808	213	207
1809	213	207
1810	214	207
1811	214	207
1812	213	207
1813	214	207
1814	215	208
1815	214	208
1816	213	208
1817	214	207
1818	215	208
1819	215	208
1820	214	207
1821	214	208
1822	215	209
1823	215	209
1824	215	208
1825	214	208
1826	215	209
1827	215	209
1828	214	209
1829	215	210
1830	215	210
1831	215	210
1832	215	210
1833	215	210
1834	215	210
1835	215	210
1836	215	210
1837	215	210
1838	215	210
1839	215	210
1840	215	210
1841	215	211
1842	216	211
1843	215	211
1844	215	211
1845	215	211
1846	215	211
1847	215	212
1848	215	211
1849	215	211
1850	216	212
1851	215	212
1852	215	212
1853	216	212
1854	216	212
1855	215	212
1856	215	212
1857	216	212
1858	216	213
1859	216	212
1860	215	212
1861	216	212
1862	216	213
1863	216	213
1864	215	212
1865	215	212
1866	216	213
1867	216	213
1868	215	213
1869	216	213
1870	216	214
1871	216	214
1872	215	214
1873	216	214
1874	216	215
1875	216	214
1876	215	214
1877	216	214
1878	216	215
1879	216	215
1880	216	215
1881	216	215
1882	216	215
1883	216	215
1884	216	215
1885	216	215
1886	216	215
1887	216	215
1888	216	215
1889	216	215
1890	217	216
1891	217	216
1892	216	216
1893	216	216
1894	217	217
1895	217	216
1896	216	216
1897	216	216
1898	217	216
1899	216	216
1900	216	216
1901	216	216
1902	217	216
1903	216	217
1904	216	216
1905	216	216
1906	217	217
1907	216	217
1908	216	216
1909	216	217
1910	217	218
1911	217	218
1912	216	218
1913	216	218
1914	217	218
1915	216	218
1916	216	218
1917	216	218
1918	216	218
1919	216	218
1920	216	218
1921	216	218
1922	217	219
1923	217	218
1924	216	218
1925	216	218
1926	216	219
1927	217	219
1928	216	218
1929	216	218
1930	217	219
1931	217	219
1932	216	219
1933	216	218
1934	217	219
1935	216	219
1936	216	219
1937	216	219
1938	217	219
1939	216	219
1940	216	219
1941	216	220
1942	216	220
1943	217	220
1944	216	219
1945	216	219
1946	217	220
1947	217	220
1948	216	219
1949	217	219
1950	216	220
1951	216	220
1952	216	220
1953	216	220
1954	217	220
1955	217	220
1956	216	220
1957	216	220
1958	217	221
1959	216	221
1960	216	221
1961	216	221
1962	216	221
1963	216	221
1964	216	220
1965	216	220
1966	216	221
1967	216	221
1968	215	221
1969	216	220
1970	216	221
1971	216	221
1972	216	221
1973	216	220
1974	216	221
1975	216	221
1976	215	220
1977	215	220
1978	215	221
1979	216	221
1980	215	221
1981	216	221
1982	216	222
1983	216	222
1984	215	221
1985	216	222
1986	216	222
1987	216	222
1988	215	222
1989	215	222
1990	216	222
1991	216	222
1992	215	222
1993	216	222
1994	216	222
1995	216	222
1996	215	222
1997	215	222
1998	216	223
1999	215	223
2000	215	223
2001	215	223
2002	216	223
2003	215	223
2004	215	222
2005	215	222
2006	215	223
2007	215	223
2008	215	222
2009	215	222
2010	215	223
2011	215	223
2012	215	222
2013	215	222
2014	215	223
2015	215	223
2016	214	222
2017	214	222
2018	215	223
2019	215	223
2020	214	223
2021	214	223
2022	215	223
2023	215	223
2024	214	223
2025	214	223
2026	215	223
2027	215	223
2028	213	223
2029	214	223
2030	215	224
2031	214	224
2032	214	223
2033	214	223
2034	215	224
2035	215	224
2036	214	223
2037	214	223
2038	214	224
2039	215	224
2040	213	223
2041	213	224
2042	213	223
2043	213	224
2044	213	223
2045	213	223
2046	213	224
2047	213	224
2048	213	223
2049	213	224
2050	214	224
2051	213	224
2052	212	223
2053	213	223
2054	213	224
2055	213	224
2056	212	223
2057	212	223
2058	213	224
2059	213	223
2060	212	224
2061	212	224
2062	213	224
2063	212	224
2064	212	224
2065	213	223
2066	212	224
2067	212	224
2068	212	223
2069	212	223
2070	212	224
2071	212	224
2072	212	223
2073	211	224
2074	211	224
2075	212	224
2076	211	224
2077	211	224
2078	212	224
2079	212	224
2080	211	224
2081	211	224
2082	211	224
2083	211	224
2084	211	224
2085	211	223
2086	212	224
2087	211	224
2088	210	224
2089	211	223
2090	211	224
2091	211	224
2092	210	223
2093	210	223
2094	211	224
2095	210	224
2096	210	224
2097	211	224
2098	210	224
2099	210	224
2100	209	223
2101	209	223
2102	209	224
2103	209	223
2104	208	223
2105	208	223
2106	209	224
2107	208	223
2108	208	223
2109	208	223
2110	208	223
2111	208	223
2112	208	223
2113	207	222
2114	207	223
2115	207	223
2116	207	223
2117	207	223
2118	208	223
2119	207	223
2120	207	223
2121	207	223
2122	207	223
2123	207	223
2124	207	223
2125	207	223
2126	207	223
2127	207	223
2128	207	223
2129	207	223
2130	207	223
2131	207	223
2132	207	223
2133	206	223
2134	206	223
2135	207	223
2136	206	223
2137	205	223
2138	207	223
2139	207	223
2140	205	223
2141	205	222
2142	207	222
2143	205	223
2144	204	223
2145	206	222
2146	205	223
2147	204	223
2148	204	222
2149	205	222
2150	205	223
2151	204	223
2152	204	221
2153	204	222
2154	204	222
2155	204	222
2156	204	222
2157	204	222
2158	204	222
2159	204	222
2160	204	222
2161	204	222
2162	204	222
2163	204	222
2164	203	222
2165	203	221
2166	203	222
2167	203	221
2168	202	221
2169	203	221
2170	203	222
2171	203	222
2172	202	221
2173	203	221
2174	203	221
2175	203	221
2176	202	221
2177	201	220
2178	202	221
2179	202	220
2180	201	220
2181	201	220
2182	201	220
2183	201	220
2184	200	220
2185	200	220
2186	201	220
2187	200	220
2188	200	220
2189	200	220
2190	201	220
2191	200	220
2192	200	220
2193	200	220
2194	200	220
2195	200	220
2196	199	219
2197	199	219
2198	200	220
2199	199	220
2200	199	219
2201	199	219
2202	199	219
2203	199	219
2204	199	219
2205	198	219
2206	199	219
2207	199	219
2208	198	219
2209	197	218
2210	198	219
2211	198	219
2212	197	218
2213	197	218
2214	198	219
2215	197	219
2216	197	218
2217	196	218
2218	196	218
2219	196	218
2220	196	218
2221	196	218
2222	196	218
2223	196	218
2224	196	218
2225	196	218
2226	196	218
2227	196	218
2228	195	218
2229	196	218
2230	196	218
2231	196	218
2232	195	217
2233	195	217
2234	195	217
2235	195	217
2236	195	216
2237	195	216
2238	194	218
2239	195	217
2240	193	216
2241	193	216
2242	194	216
2243	193	216
2244	193	216
2245	193	216
2246	193	216
2247	193	215
2248	192	215
2249	192	215
2250	193	215
2251	192	215
2252	192	215
2253	192	215
2254	192	215
2255	191	215
2256	191	215
2257	191	215
2258	191	215
2259	191	215
2260	191	214
2261	191	215
2262	191	215
2263	191	215
2264	191	214
2265	190	214
2266	191	215
2267	191	215
2268	190	214
2269	190	214
2270	190	214
2271	190	214
2272	189	214
2273	189	214
2274	189	214
2275	189	214
2276	188	213
2277	189	213
2278	189	214
2279	189	214
2280	188	213
2281	188	212
2282	188	213
2283	188	213
2284	187	212
2285	187	212
2286	188	213
2287	188	212
2288	188	212
2289	187	212
2290	187	212
2291	187	212
2292	187	212
2293	187	212
2294	187	212
2295	187	212
2296	186	211
2297	186	211
2298	186	212
2299	186	211
2300	185	210
2301	185	211
2302	185	211
2303	185	211
2304	184	210
2305	184	210
2306	184	211
2307	184	211
2308	184	210
2309	184	210
2310	184	210
2311	183	210
2312	183	210
2313	183	210
2314	183	210
2315	183	210
2316	183	208
2317	183	208
2318	183	209
2319	183	208
2320	182	207
2321	182	208
2322	182	208
2323	182	209
2324	181	208
2325	181	208
2326	181	208
2327	181	208
2328	180	207
2329	181	207
2330	180	207
2331	181	207
2332	180	207
2333	180	207
2334	180	207
2335	179	207
2336	179	206
2337	179	206
2338	179	206
2339	179	206
2340	179	206
2341	179	205
2342	179	206
2343	178	206
2344	178	205
2345	177	205
2346	178	205
2347	177	205
2348	176	204
2349	176	204
2350	177	205
2351	176	204
2352	176	204
2353	176	204
2354	176	203
2355	176	204
2356	176	203
2357	175	203
2358	176	204
2359	175	203
2360	175	203
2361	175	202
2362	175	203
2363	175	203
2364	175	203
2365	174	203
2366	175	203
2367	175	203
2368	173	202
2369	173	202
2370	174	202
2371	173	202
2372	172	202
2373	172	201
2374	173	202
2375	172	202
2376	172	201
2377	172	201
2378	172	201
2379	172	201
2380	171	200
2381	171	200
2382	172	201
2383	172	200
2384	171	200
2385	171	199
2386	171	199
2387	171	199
2388	170	199
2389	170	199
2390	171	199
2391	170	199
2392	169	199
2393	169	198
2394	169	199
2395	169	199
2396	169	198
2397	169	198
2398	169	199
2399	169	198
2400	168	198
2401	168	197
2402	168	198
2403	168	198
2404	167	197
2405	167	197
2406	167	196
2407	167	196
2408	166	196
2409	166	196
2410	167	196
2411	167	196
2412	166	195
2413	166	195
2414	167	195
2415	166	196
2416	165	195
2417	165	195
2418	165	195
2419	165	195
2420	164	195
2421	164	194
2422	164	195
2423	164	194
2424	164	194
2425	163	193
2426	163	194
2427	163	194
2428	163	193
2429	163	193
2430	163	193
2431	163	193
2432	161	192
2433	161	192
2434	162	192
2435	161	192
2436	161	192
2437	161	191
2438	162	192
2439	161	192
2440	160	191
2441	160	191
2442	161	191
2443	160	191
2444	160	191
2445	160	191
2446	160	191
2447	160	191
2448	159	190
2449	159	190
2450	159	190
2451	159	189
2452	159	189
2453	158	188
2454	159	189
2455	159	189
2456	157	188
2457	158	188
2458	157	188
2459	157	188
2460	157	188
2461	156	187
2462	157	187
2463	157	188
2464	156	187
2465	156	186
2466	156	187
2467	156	187
2468	155	186
2469	155	186
2470	155	186
2471	155	186
2472	155	186
2473	155	186
2474	155	186
2475	155	186
2476	154	185
2477	154	186
2478	154	186
2479	153	185
2480	153	184
2481	152	184
2482	152	184
2483	153	185
2484	152	183
2485	151	183
2486	152	183
2487	152	183
2488	151	183
2489	151	183
2490	152	182
2491	151	183
2492	150	183
2493	151	182
2494	151	182
2495	150	182
2496	150	181
2497	150	180
2498	150	181
2499	149	181
2500	149	180
2501	148	180
2502	148	180
2503	148	180
2504	148	179
2505	148	180
2506	148	180
2507	148	179
2508	147	179
2509	147	179
2510	147	179
2511	147	178
2512	146	178
2513	146	178
2514	146	178
2515	146	178
2516	145	178
2517	145	177
2518	145	178
2519	145	177
2520	144	177
2521	144	176
2522	145	176
2523	144	177
2524	144	176
2525	144	176
2526	144	176
2527	144	176
2528	144	175
2529	143	175
2530	144	175
2531	143	175
2532	143	175
2533	143	175
2534	143	175
2535	142	174
2536	142	174
2537	142	174
2538	142	175
2539	142	174
2540	141	173
2541	141	173
2542	141	173
2543	140	173
2544	140	172
2545	140	172
2546	140	173
2547	140	172
2548	139	171
2549	139	172
2550	139	171
2551	139	172
2552	138	171
2553	139	171
2554	139	171
2555	138	171
2556	139	170
2557	138	170
2558	137	171
2559	137	170
2560	137	169
2561	136	169
2562	136	170
2563	137	168
2564	136	168
2565	135	169
2566	136	168
2567	136	168
2568	135	168
2569	135	168
2570	136	167
2571	135	167
2572	134	167
2573	134	166
2574	135	167
2575	134	167
2576	133	166
2577	133	165
2578	133	166
2579	132	166
2580	133	165
2581	132	165
2582	132	165
2583	132	165
2584	132	164
2585	131	164
2586	131	164
2587	132	164
2588	131	163
2589	131	163
2590	131	163
2591	131	163
2592	130	162
2593	130	162
2594	131	163
2595	130	162
2596	129	162
2597	129	162
2598	129	162
2599	129	162
2600	128	162
2601	128	161
2602	128	161
2603	128	161
2604	127	160
2605	127	160
2606	127	160
2607	127	160
2608	127	159
2609	127	159
2610	127	159
2611	127	159
2612	126	159
2613	126	158
2614	126	159
2615	126	158
2616	125	158
2617	124	157
2618	125	158
2619	125	157
2620	124	156
2621	124	156
2622	124	156
2623	124	156
2624	123	156
2625	123	156
2626	123	156
2627	123	156
2628	123	155
2629	123	155
2630	123	155
2631	122	155
2632	122	154
2633	122	154
2634	122	154
2635	122	154
2636	121	154
2637	121	154
2638	121	154
2639	121	153
2640	120	153
2641	120	152
2642	120	153
2643	120	153
2644	119	152
2645	119	152
2646	120	152
2647	119	151
2648	119	151
2649	119	151
2650	119	151
2651	119	151
2652	118	150
2653	118	150
2654	118	150
2655	118	150
2656	117	150
2657	117	150
2658	117	150
2659	117	149
2660	116	148
2661	116	148
2662	116	148
2663	116	148
2664	115	148
2665	115	148
2666	115	148
2667	115	147
2668	113	147
2669	114	147
2670	115	147
2671	115	147
2672	114	146
2673	114	147
2674	114	146
2675	113	146
2676	113	146
2677	113	145
2678	112	146
2679	112	145
2680	112	144
2681	111	143
2682	111	144
2683	112	143
2684	111	143
2685	111	143
2686	111	143
2687	111	143
2688	110	142
2689	110	142
2690	110	142
2691	110	142
2692	109	142
2693	109	141
2694	109	141
2695	109	141
2696	108	140
2697	108	140
2698	108	140
2699	108	140
2700	108	140
2701	107	139
2702	108	139
2703	107	139
2704	107	139
2705	107	139
2706	107	139
2707	107	139
2708	106	138
2709	106	138
2710	106	138
2711	106	138
2712	105	137
2713	105	136
2714	105	137
2715	105	136
2716	104	136
2717	104	136
2718	104	136
2719	104	136
2720	104	135
2721	104	135
2722	104	135
2723	104	135
2724	103	135
2725	103	134
2726	103	135
2727	103	134
2728	102	133
2729	101	132
2730	102	133
2731	102	133
2732	101	132
2733	101	132
2734	101	132
2735	101	132
2736	100	132
2737	100	132
2738	101	132
2739	100	131
2740	100	131
2741	100	131
2742	100	131
2743	100	131
2744	99	130
2745	99	130
2746	99	130
2747	99	130
2748	99	130
2749	99	130
2750	99	130
2751	99	129
2752	98	129
2753	98	128
2754	98	129
2755	97	128
2756	97	128
2757	96	127
2758	96	127
2759	96	127
2760	96	126
2761	95	126
2762	95	127
2763	95	127
2764	95	126
2765	95	125
2766	95	126
2767	95	125
2768	94	124
2769	95	124
2770	94	124
2771	94	124
2772	93	123
2773	93	123
2774	93	123
2775	93	123
2776	93	123
2777	92	123
2778	92	123
2779	92	122
2780	92	122
2781	92	122
2782	92	122
2783	92	122
2784	91	121
2785	91	121
2786	91	122
2787	91	121
2788	91	120
2789	90	120
2790	91	120
2791	90	120
2792	90	119
2793	89	119
2794	89	119
2795	90	119
2796	89	118
2797	89	118
2798	89	118
2799	88	118
2800	88	118
2801	88	117
2802	88	118
2803	88	117
2804	87	116
2805	87	116
2806	87	117
2807	87	116
2808	87	116
2809	87	116
2810	87	116
2811	87	116
2812	86	115
2813	86	115
2814	86	115
2815	86	115
2816	85	114
2817	85	114
2818	85	114
2819	85	114
2820	84	114
2821	84	113
2822	84	114
2823	84	112
2824	83	112
2825	83	111
2826	84	112
2827	84	112
2828	83	112
2829	83	111
2830	84	111
2831	83	111
2832	82	110
2833	82	110
2834	82	110
2835	81	110
2836	81	110
2837	81	109
2838	81	110
2839	81	109
2840	80	108
2841	80	108
2842	80	109
2843	80	108
2844	80	108
2845	79	107
2846	79	107
2847	79	107
2848	79	107
2849	79	106
2850	79	107
2851	79	106
2852	78	106
2853	78	106
2854	79	106
2855	78	106
2856	77	105
2857	77	104
2858	78	105
2859	78	104
2860	76	104
2861	76	103
2862	76	103
2863	77	104
2864	75	103
2865	76	102
2866	76	102
2867	75	102
2868	75	102
2869	75	102
2870	75	102
2871	75	102
2872	75	101
2873	75	101
2874	75	101
2875	75	101
2876	74	100
2877	74	100
2878	74	101
2879	74	100
2880	73	100
2881	73	99
2882	73	100
2883	73	99
2884	72	99
2885	72	99
2886	72	99
2887	73	99
2888	72	98
2889	72	98
2890	72	98
2891	71	98
2892	71	98
2893	71	98
2894	72	98
2895	71	97
2896	71	97
2897	71	96
2898	71	96
2899	71	96
2900	70	96
2901	70	96
2902	71	96
2903	70	96
2904	69	95
2905	70	95
2906	69	94
2907	69	95
2908	69	94
2909	69	94
2910	68	94
2911	68	94
2912	69	93
2913	68	94
2914	68	94
2915	68	93
2916	68	93
2917	67	93
2918	68	92
2919	68	92
2920	67	92
2921	67	91
2922	67	92
2923	67	91
2924	66	91
2925	66	91
2926	67	91
2927	66	91
2928	66	90
2929	66	90
2930	65	90
2931	65	90
2932	65	90
2933	65	89
2934	65	89
2935	65	89
2936	64	88
2937	64	88
2938	64	89
2939	64	88
2940	64	87
2941	64	87
2942	64	87
2943	63	87
2944	63	87
2945	63	87
2946	63	87
2947	63	87
2948	63	86
2949	63	86
2950	63	86
2951	63	86
2952	62	86
2953	62	85
2954	62	85
2955	62	85
2956	61	84
2957	61	84
2958	61	84
2959	61	84
2960	60	83
2961	61	83
2962	60	83
2963	61	83
2964	60	83
2965	60	83
2966	60	83
2967	60	83
2968	59	82
2969	59	82
2970	59	82
2971	59	82
2972	59	81
2973	59	80
2974	59	80
2975	59	81
2976	59	80
2977	57	80
2978	58	80
2979	59	79
2980	58	80
2981	57	79
2982	58	79
2983	57	79
2984	56	79
2985	56	78
2986	58	78
2987	56	78
2988	56	77
2989	57	77
2990	56	77
2991	56	78
2992	56	76
2993	56	77
2994	56	77
2995	56	77
2996	56	76
2997	55	76
2998	55	76
2999	55	76
3000	55	75
3001	55	75
3002	55	75
3003	55	75
3004	55	75
3005	55	75
3006	55	75
3007	55	75
3008	55	74
3009	54	74
3010	54	74
3011	54	74
3012	54	74
3013	53	74
3014	53	74
3015	54	74
3016	53	73
3017	53	72
3018	53	72
3019	52	73
3020	52	72
3021	52	72
3022	53	72
3023	53	72
3024	52	71
3025	52	71
3026	52	71
3027	52	71
3028	52	70
3029	51	70
3030	51	70
3031	51	70
3032	51	70
3033	51	69
3034	51	70
3035	51	69
3036	50	69
3037	50	69
3038	50	68
3039	50	68
3040	50	68
3041	50	68
3042	50	68
3043	50	67
3044	49	68
3045	49	67
3046	50	67
3047	49	67
3048	49	67
3049	48	66
3050	49	67
3051	49	67
3052	48	66
3053	49	66
3054	49	66
3055	48	66
3056	48	66
3057	47	66
3058	48	66
3059	48	65
3060	48	65
3061	48	64
3062	48	64
3063	47	64
3064	47	64
3065	47	64
3066	47	64
3067	47	64
3068	47	63
3069	47	64
3070	47	63
3071	47	63
3072	46	62
3073	47	62
3074	47	63
3075	47	63
3076	46	62
3077	46	62
3078	46	62
3079	46	62
3080	46	61
3081	45	62
3082	46	62
3083	45	62
3084	45	61
3085	45	60
3086	45	61
3087	45	60
3088	45	60
3089	45	60
3090	44	60
3091	44	60
3092	44	59
3093	44	59
3094	44	59
3095	44	58
3096	44	58
3097	44	58
3098	44	59
3099	43	58
3100	43	58
3101	43	58
3102	43	58
3103	43	58
3104	43	57
3105	43	58
3106	43	58
3107	43	57
3108	43	56
3109	43	56
3110	43	57
3111	43	56
3112	42	56
3113	42	56
3114	43	56
3115	43	56
3116	42	55
3117	42	55
3118	42	55
3119	42	55
3120	42	55
3121	41	55
3122	41	54
3123	41	54
3124	41	54
3125	41	54
3126	41	54
3127	41	54
3128	40	53
3129	41	54
3130	41	53
3131	41	53
3132	40	53
3133	40	52
3134	40	52
3135	40	52
3136	40	52
3137	40	52
3138	40	52
3139	40	52
3140	40	51
3141	39	51
3142	40	52
3143	39	51
3144	39	51
3145	39	51
3146	40	51
3147	40	51
3148	39	51
3149	39	50
3150	40	51
3151	39	50
3152	39	50
3153	39	50
3154	39	50
3155	39	50
3156	39	50
3157	39	50
3158	39	50
3159	39	50
3160	39	49
3161	39	49
3162	39	49
3163	39	49
3164	38	48
3165	39	48
3166	38	48
3167	39	48
3168	39	47
3169	38	47
3170	38	47
3171	38	48
3172	38	47
3173	38	47
3174	39	48
3175	38	47
3176	37	47
3177	38	47
3178	38	47
3179	37	47
3180	37	46
3181	37	46
3182	37	46
3183	36	46
3184	37	46
3185	37	45
3186	37	46
3187	37	45
3188	37	45
3189	37	45
3190	37	45
3191	37	45
3192	36	44
3193	36	45
3194	36	45
3195	36	44
3196	36	44
3197	36	44
3198	36	44
3199	36	43
3200	36	43
3201	36	43
3202	36	43
3203	36	43
3204	35	43
3205	36	43
3206	36	43
3207	35	42
3208	35	42
3209	36	42
3210	36	42
3211	36	43
3212	36	43
3213	35	42
3214	36	42
3215	35	42
3216	35	42
3217	35	42
3218	35	42
3219	35	42
3220	35	41
3221	35	41
3222	35	41
3223	35	41
3224	35	40
3225	35	40
3226	35	41
3227	35	40
3228	35	40
3229	35	40
3230	35	40
3231	35	40
3232	34	40
3233	34	40
3234	35	40
3235	35	39
3236	34	39
3237	34	39
3238	34	39
3239	34	39
3240	35	39
3241	34	39
3242	35	39
3243	34	38
3244	34	38
3245	34	38
3246	34	38
3247	34	39
3248	34	38
3249	34	38
3250	34	38
3251	34	38
3252	34	38
3253	34	38
3254	34	38
3255	34	38
3256	33	37
3257	34	38
3258	34	37
3259	35	38
3260	34	37
3261	34	37
3262	34	37
3263	34	37
3264	33	37
3265	34	37
3266	34	37
3267	34	37
3268	34	36
3269	34	36
3270	34	36
3271	34	36
3272	33	36
3273	33	36
3274	34	36
3275	33	35
3276	33	35
3277	33	35
3278	34	35
3279	34	35
3280	33	35
3281	33	35
3282	33	35
3283	33	35
3284	33	35
3285	33	35
3286	33	35
3287	34	35
3288	33	35
3289	33	35
3290	34	34
3291	34	35
3292	33	34
3293	33	34
3294	33	34
3295	33	34
3296	33	34
3297	33	34
3298	33	34
3299	33	34
3300	34	34
3301	33	34
3302	33	34
3303	33	34
3304	33	33
3305	33	33
3306	33	34
3307	34	34
3308	33	34
3309	33	34
3310	34	34
3311	33	34
3312	33	33
3313	33	33
3314	33	33
3315	34	33
3316	33	32
3317	33	32
3318	33	32
3319	33	32
3320	33	32
3321	33	32
3322	34	32
3323	33	33
3324	33	31
3325	33	32
3326	34	32
3327	33	32
3328	33	32
3329	33	31
3330	35	31
3331	33	32
3332	33	31
3333	34	31
3334	33	32
3335	33	31
3336	34	31
3337	34	31
3338	33	32
3339	34	31
3340	34	31
3341	33	31
3342	34	32
3343	34	31
3344	33	30
3345	32	30
3346	34	30
3347	34	30
3348	33	31
3349	33	30
3350	34	30
3351	34	31
3352	33	30
3353	33	30
3354	34	30
3355	34	30
3356	33	30
3357	34	30
3358	34	30
3359	34	30
3360	33	30
3361	34	30
3362	34	30
3363	34	30
3364	33	29
3365	33	30
3366	34	30
3367	35	30
3368	34	29
3369	34	29
3370	34	29
3371	34	29
3372	33	29
3373	33	29
3374	34	29
3375	34	29
3376	33	28
3377	33	28
3378	35	29
3379	34	28
3380	34	28
3381	34	28
3382	35	29
3383	34	28
3384	34	28
3385	34	28
3386	35	28
3387	35	29
3388	34	28
3389	35	28
3390	35	29
3391	35	28
3392	35	28
3393	35	28
3394	35	28
3395	35	28
3396	34	28
3397	36	28
3398	35	28
3399	35	29
3400	35	27
3401	35	28
3402	35	29
3403	36	28
3404	36	28
3405	35	29
3406	36	29
3407	36	28
3408	36	28
3409	35	28
3410	36	28
3411	36	27
3412	35	27
3413	35	28
3414	36	27
3415	35	27
3416	35	28
3417	35	27
3418	36	27
3419	36	28
3420	35	27
3421	36	27
3422	36	28
3423	36	28
3424	36	27
3425	36	27
3426	36	27
3427	36	27
3428	36	27
3429	36	27
3430	36	27
3431	36	27
3432	36	27
3433	36	27
3434	36	27
3435	37	27
3436	36	27
3437	37	27
3438	37	27
3439	37	27
3440	36	27
3441	37	27
3442	37	28
3443	37	27
3444	37	27
3445	37	27
3446	37	28
3447	37	27
3448	37	28
3449	37	27
3450	38	27
3451	37	27
3452	37	27
3453	37	27
3454	38	27
3455	37	27
3456	38	27
3457	38	27
3458	38	27
3459	38	27
3460	38	27
3461	38	27
3462	39	27
3463	39	27
3464	39	27
3465	39	27
3466	39	27
3467	39	27
3468	39	27
3469	39	27
3470	39	27
3471	39	27
3472	39	27
3473	39	27
3474	39	27
3475	39	27
3476	39	27
3477	39	27
3478	40	27
3479	39	27
3480	39	27
3481	39	27
3482	40	27
3483	40	27
3484	39	26
3485	40	27
3486	40	27
3487	40	27
3488	40	27
3489	40	27
3490	40	27
3491	41	28
3492	40	27
3493	41	27
3494	41	28
3495	41	28
3496	41	28
3497	41	27
3498	42	28
3499	42	28
3500	41	27
3501	42	28
3502	42	28
3503	42	28
3504	42	27
3505	42	28
3506	43	28
3507	42	28
3508	42	28
3509	42	28
3510	43	28
3511	43	28
3512	42	28
3513	43	28
3514	43	28
3515	43	28
3516	43	28
3517	43	28
3518	43	28
3519	43	28
3520	43	28
3521	43	28
3522	43	28
3523	43	28
3524	43	28
3525	43	28
3526	43	28
3527	43	28
3528	44	28
3529	44	28
3530	44	28
3531	44	28
3532	44	28
3533	44	28
3534	45	29
3535	44	29
3536	44	29
3537	45	29
3538	45	29
3539	45	29
3540	45	29
3541	45	29
3542	45	30
3543	45	29
3544	45	29
3545	45	29
3546	46	29
3547	46	29
3548	45	29
3549	46	28
3550	46	29
3551	46	29
3552	46	28
3553	46	29
3554	47	30
3555	47	29
3556	46	29
3557	47	29
3558	47	30
3559	47	30
3560	47	30
3561	47	30
3562	47	30
3563	47	30
3564	47	30
3565	47	30
3566	48	30
3567	48	30
3568	47	30
3569	48	30
3570	48	30
3571	48	30
3572	48	30
3573	48	31
3574	49	31
3575	49	31
3576	49	30
3577	49	31
3578	49	31
3579	49	31
3580	49	31
3581	49	31
3582	50	31
3583	51	31
3584	49	31
3585	51	31
3586	50	31
3587	51	31
3588	51	31
3589	51	31
3590	51	32
3591	51	31
3592	51	31
3593	51	31
3594	52	32
3595	51	32
3596	51	32
3597	52	32
3598	52	32
3599	52	32
3600	51	32
3601	52	32
3602	52	32
3603	52	32
3604	52	32
3605	52	32
3606	53	33
3607	53	33
3608	53	34
3609	54	33
3610	54	34
3611	53	33
3612	53	33
3613	54	33
3614	54	34
3615	54	34
3616	54	33
3617	54	33
3618	54	33
3619	54	33
3620	55	33
3621	55	34
3622	55	34
3623	55	34
3624	55	34
3625	55	34
3626	55	34
3627	55	34
3628	55	34
3629	56	34
3630	56	35
3631	56	34
3632	55	34
3633	56	34
3634	56	35
3635	56	35
3636	56	35
3637	57	35
3638	57	35
3639	57	35
3640	57	35
3641	57	35
3642	58	35
3643	58	36
3644	58	36
3645	58	36
3646	59	36
3647	59	36
3648	59	36
3649	59	36
3650	59	36
3651	59	36
3652	59	36
3653	59	36
3654	59	36
3655	59	36
3656	59	36
3657	60	37
3658	60	37
3659	60	37
3660	60	37
3661	60	37
3662	61	38
3663	60	37
3664	60	37
3665	61	37
3666	61	38
3667	61	38
3668	61	38
3669	61	38
3670	62	38
3671	62	38
3672	61	38
3673	62	38
3674	62	39
3675	62	38
3676	62	39
3677	63	38
3678	63	39
3679	63	39
3680	63	39
3681	63	39
3682	63	40
3683	63	39
3684	63	39
3685	64	40
3686	64	39
3687	64	39
3688	64	39
3689	64	40
3690	64	40
3691	65	40
3692	64	40
3693	65	40
3694	66	41
3695	65	41
3696	65	40
3697	65	41
3698	67	42
3699	66	41
3700	67	41
3701	66	42
3702	67	42
3703	67	42
3704	67	42
3705	67	42
3706	67	42
3707	67	42
3708	67	42
3709	68	42
3710	68	43
3711	68	43
3712	68	43
3713	68	43
3714	68	43
3715	68	43
3716	68	43
3717	69	43
3718	69	44
3719	69	43
3720	69	43
3721	69	43
3722	70	44
3723	69	44
3724	70	43
3725	71	44
3726	71	45
3727	71	44
3728	71	44
3729	71	44
3730	71	45
3731	71	45
3732	71	45
3733	71	45
3734	72	45
3735	72	46
3736	72	46
3737	72	46
3738	72	46
3739	72	46
3740	72	46
3741	73	46
3742	73	47
3743	73	47
3744	73	47
3745	73	47
3746	74	47
3747	74	47
3748	74	47
3749	74	47
3750	75	48
3751	75	47
3752	75	47
3753	75	48
3754	75	48
3755	75	47
3756	75	48
3757	76	48
3758	76	48
3759	76	48
3760	76	48
3761	76	49
3762	76	50
3763	77	49
3764	76	50
3765	76	50
3766	78	50
3767	78	50
3768	77	51
3769	78	50
3770	79	50
3771	78	50
3772	78	51
3773	79	50
3774	79	51
3775	79	51
3776	79	51
3777	79	51
3778	79	52
3779	79	52
3780	79	51
3781	80	51
3782	79	52
3783	80	52
3784	80	52
3785	80	52
3786	80	52
3787	81	52
3788	80	52
3789	81	53
3790	82	53
3791	81	53
3792	81	53
3793	82	54
3794	83	54
3795	83	54
3796	82	54
3797	83	55
3798	83	55
3799	83	55
3800	83	55
3801	84	55
3802	84	55
3803	84	55
3804	84	55
3805	84	55
3806	85	56
3807	85	56
3808	85	55
3809	85	56
3810	86	56
3811	86	57
3812	85	56
3813	86	57
3814	87	58
3815	87	57
3816	86	57
3817	87	57
3818	87	58
3819	87	58
3820	87	58
3821	88	58
3822	88	59
3823	87	58
3824	88	58
3825	87	58
3826	88	59
3827	89	59
3828	89	60
3829	88	59
3830	90	59
3831	90	60
3832	88	60
3833	90	59
3834	91	60
3835	90	61
3836	90	60
3837	91	60
3838	91	61
3839	91	62
3840	91	61
3841	92	61
3842	92	62
3843	92	62
3844	92	61
3845	92	62
3846	92	63
3847	92	62
3848	93	62
3849	93	63
3850	93	64
3851	94	63
3852	93	63
3853	94	64
3854	95	64
3855	95	64
3856	94	65
3857	95	64
3858	95	65
3859	95	66
3860	95	65
3861	95	64
3862	96	66
3863	95	65
3864	95	66
3865	96	66
3866	96	66
3867	96	66
3868	96	66
3869	96	66
3870	97	66
3871	97	66
3872	97	66
3873	97	67
3874	98	67
3875	98	67
3876	97	67
3877	98	67
3878	99	68
3879	99	68
3880	99	68
3881	99	68
3882	99	69
3883	99	69
3884	99	69
3885	100	69
3886	100	70
3887	100	70
3888	100	70
3889	100	70
3890	101	70
3891	101	70
3892	101	70
3893	101	70
3894	102	71
3895	102	71
3896	102	71
3897	103	71
3898	103	72
3899	103	72
3900	103	72
3901	103	72
3902	104	73
3903	104	73
3904	104	73
3905	104	74
3906	104	74
3907	104	74
3908	104	74
3909	104	74
3910	105	74
3911	105	74
3912	105	74
3913	105	74
3914	106	75
3915	106	75
3916	106	75
3917	106	75
3918	107	75
3919	107	75
3920	106	75
3921	107	76
3922	107	76
3923	107	76
3924	107	76
3925	108	76
3926	108	76
3927	108	76
3928	108	77
3929	108	77
3930	109	78
3931	109	77
3932	109	77
3933	109	78
3934	110	79
3935	109	78
3936	109	78
3937	110	79
3938	111	79
3939	111	79
3940	111	79
3941	111	79
3942	111	80
3943	111	80
3944	111	80
3945	111	81
3946	112	81
3947	112	81
3948	111	81
3949	112	81
3950	113	82
3951	113	82
3952	112	82
3953	113	82
3954	113	82
3955	114	82
3956	114	82
3957	115	83
3958	115	83
3959	115	83
3960	114	83
3961	115	83
3962	115	84
3963	115	84
3964	115	84
3965	116	84
3966	116	85
3967	116	85
3968	116	84
3969	117	85
3970	117	86
3971	117	86
3972	117	86
3973	118	86
3974	119	86
3975	119	87
3976	118	86
3977	119	87
3978	119	87
3979	119	87
3980	119	87
3981	119	87
3982	120	88
3983	120	88
3984	119	88
3985	120	89
3986	120	90
3987	120	89
3988	120	89
3989	121	90
3990	121	90
3991	121	90
3992	122	90
3993	123	91
3994	123	91
3995	123	91
3996	123	91
3997	123	91
3998	123	92
3999	123	91
4000	123	92
4001	124	92
4002	124	92
4003	124	92
4004	124	92
4005	124	93
4006	124	93
4007	125	93
4008	125	93
4009	125	94
4010	125	94
4011	125	94
4012	125	94
4013	125	94
4014	127	95
4015	127	95
4016	126	95
4017	127	95
4018	127	95
4019	127	95
4020	127	96
4021	127	96
4022	128	96
4023	128	96
4024	128	96
4025	128	97
4026	128	97
4027	128	97
4028	128	97
4029	128	97
4030	129	98
4031	129	98
4032	129	98
4033	130	98
4034	130	98
4035	131	99
4036	131	99
4037	131	99
4038	131	100
4039	131	100
4040	131	99
4041	131	100
4042	132	100
4043	132	100
4044	132	100
4045	132	100
4046	133	101
4047	132	101
4048	132	101
4049	133	101
4050	134	102
4051	134	102
4052	133	102
4053	134	103
4054	135	103
4055	135	103
4056	134	103
4057	135	103
4058	135	103
4059	135	104
4060	135	103
4061	136	104
4062	136	104
4063	136	104
4064	136	105
4065	136	105
4066	137	106
4067	137	106
4068	137	106
4069	138	107
4070	139	107
4071	139	107
4072	139	107
4073	139	107
4074	139	108
4075	139	108
4076	139	107
4077	140	108
4078	140	109
4079	140	109
4080	140	108
4081	140	109
4082	140	110
4083	141	110
4084	141	110
4085	141	110
4086	142	111
4087	142	111
4088	142	111
4089	142	111
4090	143	111
4091	143	111
4092	143	111
4093	143	111
4094	143	112
4095	143	112
