N	f/[kHz]	V/[dBV]
0	0.0153	-179.7
1	0.0458	-14.4
2	0.0763	-2.8
3	0.1068	-2.8
4	0.1373	-12.2
5	0.1678	-21.0
6	0.1984	-25.7
7	0.2289	-29.5
8	0.2594	-32.0
9	0.2899	-34.2
10	0.3204	-36.4
11	0.3510	-37.9
12	0.3815	-39.2
13	0.4120	-41.1
14	0.4425	-42.3
15	0.4730	-43.6
16	0.5035	-44.5
17	0.5341	-44.5
18	0.5646	-45.5
19	0.5951	-46.1
20	0.6256	-46.4
21	0.6561	-47.6
22	0.6866	-48.0
23	0.7172	-49.5
24	0.7477	-49.5
25	0.7782	-50.5
26	0.8087	-50.5
27	0.8392	-50.5
28	0.8698	-50.8
29	0.9003	-49.8
30	0.9308	-49.8
31	0.9613	-51.7
32	0.9918	-51.7
33	1.0223	-54.5
34	1.0529	-54.5
35	1.0834	-53.0
36	1.1139	-53.0
37	1.1444	-53.0
38	1.1749	-52.4
39	1.2054	-52.4
40	1.2360	-57.1
41	1.2665	-55.2
42	1.2970	-55.2
43	1.3275	-57.1
44	1.3580	-57.1
45	1.3885	-56.4
46	1.4191	-56.4
47	1.4496	-59.3
48	1.4801	-59.6
49	1.5106	-55.8
50	1.5411	-55.8
51	1.5717	-56.1
52	1.6022	-56.4
53	1.6327	-55.8
54	1.6632	-55.8
55	1.6937	-56.4
56	1.7242	-56.4
57	1.7548	-56.1
58	1.7853	-56.1
59	1.8158	-56.4
60	1.8463	-56.4
61	1.8768	-54.2
62	1.9073	-54.2
63	1.9379	-51.1
64	1.9684	-43.6
65	1.9989	-43.6
66	2.0294	-43.9
67	2.0599	-54.5
68	2.0905	-59.6
69	2.1210	-64.9
70	2.1515	-61.1
71	2.1820	-61.1
72	2.2125	-61.5
73	2.2430	-61.5
74	2.2736	-61.1
75	2.3041	-61.1
76	2.3346	-55.5
77	2.3651	-51.7
78	2.3956	-48.0
79	2.4261	-48.0
80	2.4567	-60.2
81	2.4872	-70.2
82	2.5177	-69.9
83	2.5482	-62.7
84	2.5787	-56.1
85	2.6093	-56.1
86	2.6398	-68.7
87	2.6703	-72.1
88	2.7008	-63.3
89	2.7313	-63.3
90	2.7618	-66.5
91	2.7924	-59.3
92	2.8229	-59.3
93	2.8534	-61.5
94	2.8839	-60.2
95	2.9144	-60.2
96	2.9449	-68.4
97	2.9755	-68.4
98	3.0060	-58.0
99	3.0365	-58.0
100	3.0670	-59.3
101	3.0975	-59.3
102	3.1281	-60.5
103	3.1586	-63.3
104	3.1891	-58.3
105	3.2196	-58.3
106	3.2501	-63.3
107	3.2806	-58.9
108	3.3112	-57.1
109	3.3417	-57.1
110	3.3722	-52.0
111	3.4027	-52.0
112	3.4332	-53.0
113	3.4637	-50.2
114	3.4943	-47.0
115	3.5248	-43.6
116	3.5553	-37.0
117	3.5858	-7.8
118	3.6163	-7.8
119	3.6469	-37.0
120	3.6774	-42.6
121	3.7079	-44.5
122	3.7384	-48.0
123	3.7689	-50.2
124	3.7994	-50.2
125	3.8300	-50.2
126	3.8605	-51.7
127	3.8910	-53.3
128	3.9215	-53.3
129	3.9520	-53.3
130	3.9825	-48.6
131	4.0131	-48.6
132	4.0436	-53.3
133	4.0741	-52.4
134	4.1046	-52.4
135	4.1351	-55.5
136	4.1656	-53.9
137	4.1962	-53.9
138	4.2267	-58.6
139	4.2572	-58.6
140	4.2877	-55.8
141	4.3182	-55.8
142	4.3488	-58.3
143	4.3793	-58.6
144	4.4098	-58.3
145	4.4403	-58.3
146	4.4708	-61.5
147	4.5013	-57.1
148	4.5319	-57.1
149	4.5624	-58.6
150	4.5929	-55.8
151	4.6234	-55.8
152	4.6539	-58.6
153	4.6844	-58.6
154	4.7150	-59.3
155	4.7455	-58.9
156	4.7760	-56.7
157	4.8065	-56.7
158	4.8370	-59.6
159	4.8676	-60.8
160	4.8981	-57.1
161	4.9286	-57.1
162	4.9591	-57.7
163	4.9896	-57.7
164	5.0201	-59.9
165	5.0507	-59.9
166	5.0812	-59.9
167	5.1117	-59.9
168	5.1422	-59.9
169	5.1727	-59.9
170	5.2032	-56.7
171	5.2338	-56.7
172	5.2643	-58.3
173	5.2948	-58.3
174	5.3253	-58.3
175	5.3558	-58.0
176	5.3864	-58.0
177	5.4169	-58.3
178	5.4474	-58.3
179	5.4779	-58.9
180	5.5084	-58.9
181	5.5389	-57.7
182	5.5695	-55.8
183	5.6000	-55.8
184	5.6305	-60.2
185	5.6610	-60.2
186	5.6915	-58.9
187	5.7220	-58.6
188	5.7526	-58.6
189	5.7831	-56.1
190	5.8136	-56.1
191	5.8441	-57.4
192	5.8746	-57.4
193	5.9052	-57.7
194	5.9357	-59.9
195	5.9662	-56.7
196	5.9967	-56.7
197	6.0272	-60.8
198	6.0577	-60.5
199	6.0883	-59.6
200	6.1188	-59.6
201	6.1493	-59.9
202	6.1798	-60.5
203	6.2103	-57.1
204	6.2408	-57.1
205	6.2714	-58.0
206	6.3019	-57.7
207	6.3324	-57.7
208	6.3629	-58.0
209	6.3934	-55.5
210	6.4240	-55.5
211	6.4545	-57.1
212	6.4850	-55.8
213	6.5155	-55.8
214	6.5460	-55.2
215	6.5765	-53.0
216	6.6071	-53.0
217	6.6376	-57.1
218	6.6681	-55.8
219	6.6986	-55.8
220	6.7291	-56.7
221	6.7596	-56.7
222	6.7902	-55.8
223	6.8207	-55.8
224	6.8512	-56.4
225	6.8817	-53.3
226	6.9122	-53.3
227	6.9427	-56.4
228	6.9733	-56.7
229	7.0038	-53.6
230	7.0343	-53.6
231	7.0648	-54.2
232	7.0953	-52.7
233	7.1259	-52.7
234	7.1564	-53.0
235	7.1869	-52.0
236	7.2174	-52.0
237	7.2479	-52.0
238	7.2784	-54.9
239	7.3090	-50.5
240	7.3395	-50.5
241	7.3700	-50.5
242	7.4005	-50.2
243	7.4310	-50.2
244	7.4615	-49.5
245	7.4921	-49.5
246	7.5226	-49.2
247	7.5531	-48.9
248	7.5836	-46.1
249	7.6141	-46.1
250	7.6447	-46.1
251	7.6752	-44.5
252	7.7057	-44.5
253	7.7362	-44.5
254	7.7667	-44.2
255	7.7972	-39.5
256	7.8278	-39.2
257	7.8583	-37.3
258	7.8888	-34.2
259	7.9193	-32.0
260	7.9498	-26.6
261	7.9803	-8.4
262	8.0109	-8.4
263	8.0414	-24.1
264	8.0719	-30.7
265	8.1024	-34.2
266	8.1329	-37.0
267	8.1635	-39.2
268	8.1940	-40.1
269	8.2245	-44.5
270	8.2550	-44.5
271	8.2855	-43.9
272	8.3160	-43.9
273	8.3466	-46.4
274	8.3771	-44.5
275	8.4076	-44.5
276	8.4381	-50.5
277	8.4686	-50.5
278	8.4991	-49.8
279	8.5297	-49.8
280	8.5602	-50.5
281	8.5907	-44.8
282	8.6212	-44.8
283	8.6517	-52.0
284	8.6823	-53.0
285	8.7128	-53.0
286	8.7433	-53.9
287	8.7738	-53.9
288	8.8043	-53.9
289	8.8348	-55.5
290	8.8654	-54.9
291	8.8959	-54.9
292	8.9264	-56.7
293	8.9569	-56.1
294	8.9874	-56.1
295	9.0179	-57.1
296	9.0485	-57.1
297	9.0790	-53.6
298	9.1095	-53.6
299	9.1400	-59.9
300	9.1705	-59.9
301	9.2010	-56.1
302	9.2316	-56.1
303	9.2621	-62.1
304	9.2926	-53.6
305	9.3231	-53.6
306	9.3536	-56.4
307	9.3842	-53.9
308	9.4147	-53.9
309	9.4452	-59.6
310	9.4757	-59.6
311	9.5062	-56.7
312	9.5367	-56.7
313	9.5673	-50.5
314	9.5978	-50.5
315	9.6283	-50.5
316	9.6588	-58.3
317	9.6893	-57.1
318	9.7198	-57.1
319	9.7504	-58.9
320	9.7809	-54.9
321	9.8114	-54.9
322	9.8419	-65.2
323	9.8724	-61.8
324	9.9030	-61.8
